{"data":[{"id":"554697537883488","from":{"name":"Makeila Solis","id":"100000297392245"},"name":"HERE KITTY KITTY!","link":"http:\/\/www.facebook.com\/album.php?fbid=554697537883488&id=100000297392245&aid=127261","cover_photo":"562627537090488","count":457,"type":"normal","created_time":"2013-02-10T20:48:37+0000","updated_time":"2013-04-04T00:35:47+0000","can_upload":false},{"id":"180421715311074","from":{"name":"Makeila Solis","id":"100000297392245"},"name":"MIANY PLASCENCIA","description":"MIANY WITH SIS ADDY NYC 2012","link":"http:\/\/www.facebook.com\/album.php?fbid=180421715311074&id=100000297392245&aid=42182","cover_photo":"537381936281715","count":160,"type":"normal","created_time":"2010-12-30T18:57:31+0000","updated_time":"2013-04-03T19:55:24+0000","can_upload":false,"likes":{"data":[{"id":"100000297392245","name":"Makeila Solis"},{"id":"1340130647","name":"Jane Dally"},{"id":"100000707293979","name":"Ken Nyberg"},{"id":"608884841","name":"Miranda Marivel"},{"id":"1072194120","name":"Lagata Astuta"},{"id":"100002229277201","name":"Elena Flores"},{"id":"100000987645501","name":"Elena Castillo"},{"id":"100001649373985","name":"Janet Rivera"},{"id":"100000317822105","name":"Alondra Solis"}],"paging":{"next":"https:\/\/graph.facebook.com\/180421715311074\/likes?access_token=AAACEdEose0cBAJwErCNmIPZA6el8rxxyY5ULyI6xBIzYxuyekLKT4jiLPBr1teydoTPlSXlbBEkmB07tIO62Pi4QqIsy3oMtz1ihC5OyZAvdarWSZBe&limit=25&offset=25&__after_id=100000317822105"}},"comments":{"data":[{"id":"180421715311074_2280537","from":{"name":"Alondra Solis","id":"100000317822105"},"message":"se ve tan linda....","can_remove":false,"created_time":"2010-12-30T23:15:40+0000","like_count":0,"user_likes":false},{"id":"180421715311074_2284502","from":{"name":"Makeila Solis","id":"100000297392245"},"message":"GRACIAS CORAZON!","can_remove":false,"created_time":"2010-12-31T13:55:45+0000","like_count":0,"user_likes":false},{"id":"180421715311074_2826994","from":{"name":"Elena Castillo","id":"100000987645501"},"message":"she looks so pretty i have to send you a picture of my lacy marachi flores-castilo so you can do something like that lol","can_remove":false,"created_time":"2011-03-24T14:44:28+0000","like_count":0,"user_likes":false},{"id":"180421715311074_4802593","from":{"name":"Nicole Infanti","id":"665767874"},"message":"Que linda!","can_remove":false,"created_time":"2012-02-26T21:09:29+0000","like_count":0,"user_likes":false},{"id":"180421715311074_4818541","from":{"name":"Makeila Solis","id":"100000297392245"},"message":"\"Gracias Nicole!\"","can_remove":false,"created_time":"2012-03-01T03:01:13+0000","like_count":0,"user_likes":false},{"id":"180421715311074_5388469","from":{"name":"Patricia Michaels-Andrade","id":"575738678"},"message":"ok now, i saw all the pic's of her, how many boyfriends does she have, a true bitch, love it :)","can_remove":false,"created_time":"2012-07-03T05:19:51+0000","like_count":0,"user_likes":false},{"id":"180421715311074_5399900","from":{"name":"Makeila Solis","id":"100000297392245"},"message":"You're so funny.  I want to be back.  Can you find out if your company is out here.  I need to rent a car on Sat & Sunday!","can_remove":false,"created_time":"2012-07-05T21:13:20+0000","like_count":0,"user_likes":false},{"id":"180421715311074_5410121","from":{"name":"Jes\u00f9s Becerra Ramos","id":"100000141583840"},"message":"HOLA MARICELA, Bonitos recuredos,,,,,,,,,saludos y se te recuerda con cari\u00f1o!","can_remove":false,"created_time":"2012-07-08T09:00:47+0000","like_count":0,"user_likes":false},{"id":"180421715311074_5468309","from":{"name":"Makeila Solis","id":"100000297392245"},"message":"Hola..como estas? Estoy en New York visitando a mis hijas.  Como se entcuentran todos.  Los estrano mucho.  Pienso ir a Ocotlan avir a mi familia y a todos ustedes.  Saludame a Silvia.","can_remove":false,"created_time":"2012-07-21T23:16:28+0000","like_count":0,"user_likes":false},{"id":"180421715311074_5468938","from":{"name":"Nicole Infanti","id":"665767874"},"message":"Hola Marci....un besote desde Miami, te extrano!","can_remove":false,"created_time":"2012-07-22T02:52:40+0000","like_count":0,"user_likes":false},{"id":"180421715311074_5497601","from":{"name":"Makeila Solis","id":"100000297392245"},"message":"Hola Nicole....I miss you, come and visit me over 1 weekend.  I will meet you at the airport and you can stay with me.","can_remove":false,"created_time":"2012-07-28T16:04:29+0000","like_count":0,"user_likes":false},{"id":"180421715311074_5502682","from":{"name":"Nicole Infanti","id":"665767874"},"message":"I wish I could go...are you staying long in New York?","can_remove":false,"created_time":"2012-07-30T03:11:55+0000","like_count":0,"user_likes":false},{"id":"180421715311074_5528004","from":{"name":"Makeila Solis","id":"100000297392245"},"message":"I will be here just maybe 1 more month..  I want to go back,  I miss singer in St Patrick's Choir.  It is the best thing that happen to me in my life.  I belong to God.  New York is beautiful...but, there is nothing that compares to SPC.  \"WE ARE THE CHAPIONS IN THE UNITED STATES\".","can_remove":false,"created_time":"2012-08-05T17:33:01+0000","like_count":0,"user_likes":false},{"id":"180421715311074_5528007","from":{"name":"Makeila Solis","id":"100000297392245"},"message":"Nicole...I want you to come down and I will meet you at the Airport and take you back.  You can stay with me. I am in Manhattan.  I miss all of you (YOU, both Elenas, Elizabeth, Barbara, Debbie, Juanita).","can_remove":false,"created_time":"2012-08-05T17:34:40+0000","like_count":0,"user_likes":false}],"paging":{"next":"https:\/\/graph.facebook.com\/180421715311074\/comments?access_token=AAACEdEose0cBAJwErCNmIPZA6el8rxxyY5ULyI6xBIzYxuyekLKT4jiLPBr1teydoTPlSXlbBEkmB07tIO62Pi4QqIsy3oMtz1ihC5OyZAvdarWSZBe&limit=25&offset=25&__after_id=180421715311074_5528007"}}},{"id":"146100955409817","from":{"name":"Makeila Solis","id":"100000297392245"},"name":"Timeline Photos","link":"http:\/\/www.facebook.com\/album.php?fbid=146100955409817&id=100000297392245&aid=23346","cover_photo":"508056859214223","count":82,"type":"wall","created_time":"2010-08-12T22:12:05+0000","updated_time":"2013-03-31T18:17:55+0000","can_upload":false},{"id":"151910148162231","from":{"name":"Makeila Solis","id":"100000297392245"},"name":"LOVE THE WORLD!","location":"MMI","link":"http:\/\/www.facebook.com\/album.php?fbid=151910148162231&id=100000297392245&aid=24996","cover_photo":"561029973916911","count":102,"type":"normal","created_time":"2010-09-04T19:21:31+0000","updated_time":"2013-03-27T16:47:04+0000","can_upload":false},{"id":"465423500144226","from":{"name":"Makeila Solis","id":"100000297392245"},"name":"\"The Cry of the Poor!\"","link":"http:\/\/www.facebook.com\/album.php?fbid=465423500144226&id=100000297392245&aid=109748","cover_photo":"465423523477557","count":60,"type":"normal","created_time":"2012-07-28T23:19:23+0000","updated_time":"2013-03-13T03:05:30+0000","can_upload":false},{"id":"498896546796921","from":{"name":"Makeila Solis","id":"100000297392245"},"name":"\"PURE HUMOR, DARLING!\"","link":"http:\/\/www.facebook.com\/album.php?fbid=498896546796921&id=100000297392245&aid=118499","cover_photo":"562630997090142","count":754,"type":"normal","created_time":"2012-10-21T05:43:42+0000","updated_time":"2013-03-13T03:05:30+0000","can_upload":false,"likes":{"data":[{"id":"589538660","name":"Virginia Popa"},{"id":"523047114","name":"Gene Brigham"}],"paging":{"next":"https:\/\/graph.facebook.com\/498896546796921\/likes?access_token=AAACEdEose0cBAJwErCNmIPZA6el8rxxyY5ULyI6xBIzYxuyekLKT4jiLPBr1teydoTPlSXlbBEkmB07tIO62Pi4QqIsy3oMtz1ihC5OyZAvdarWSZBe&limit=25&offset=25&__after_id=523047114"}}},{"id":"100496763303570","from":{"name":"Makeila Solis","id":"100000297392245"},"name":"MMI - \"Young Brilliant Minds\"","link":"http:\/\/www.facebook.com\/album.php?fbid=100496763303570&id=100000297392245&aid=1048","cover_photo":"555248401161735","count":14,"type":"normal","created_time":"2009-09-16T05:11:53+0000","updated_time":"2013-03-07T02:46:16+0000","can_upload":false,"likes":{"data":[{"id":"100000109946789","name":"Phillip Hsia Sun"},{"id":"648930370","name":"Chuck Johnson"}],"paging":{"next":"https:\/\/graph.facebook.com\/100496763303570\/likes?access_token=AAACEdEose0cBAJwErCNmIPZA6el8rxxyY5ULyI6xBIzYxuyekLKT4jiLPBr1teydoTPlSXlbBEkmB07tIO62Pi4QqIsy3oMtz1ihC5OyZAvdarWSZBe&limit=25&offset=25&__after_id=648930370"}},"comments":{"data":[{"id":"100496763303570_14936","from":{"name":"Sebastian Elkan","id":"510452527"},"message":"como estas querida? hace tiempo no se de ti! Ahora estoy en Espa\u00f1a con mis padres, terminando mis estudios...Como estas vos? Sigues con la musica, los modelos, de todo imagino...Muchos besos de tu amigo Sebas :)","can_remove":false,"created_time":"2009-10-18T16:14:08+0000","like_count":0,"user_likes":false}],"paging":{"next":"https:\/\/graph.facebook.com\/100496763303570\/comments?access_token=AAACEdEose0cBAJwErCNmIPZA6el8rxxyY5ULyI6xBIzYxuyekLKT4jiLPBr1teydoTPlSXlbBEkmB07tIO62Pi4QqIsy3oMtz1ihC5OyZAvdarWSZBe&limit=25&offset=25&__after_id=100496763303570_14936"}}},{"id":"212103908809521","from":{"name":"Makeila Solis","id":"100000297392245"},"name":"AUDITIONS","link":"http:\/\/www.facebook.com\/album.php?fbid=212103908809521&id=100000297392245&aid=60038","cover_photo":"212106445475934","count":25,"type":"normal","created_time":"2011-05-04T19:37:23+0000","updated_time":"2013-03-07T02:44:50+0000","can_upload":false},{"id":"566235763396332","from":{"name":"Makeila Solis","id":"100000297392245"},"name":"MIAMI INTERNATIONAL FILM FESTIVAL 2013","link":"http:\/\/www.facebook.com\/album.php?fbid=566235763396332&id=100000297392245&aid=1073741826","cover_photo":"566235813396327","count":16,"type":"normal","created_time":"2013-03-06T20:27:48+0000","updated_time":"2013-03-06T20:28:53+0000","can_upload":false},{"id":"554788147874427","from":{"name":"Makeila Solis","id":"100000297392245"},"name":"Lovable Doggies","link":"http:\/\/www.facebook.com\/album.php?fbid=554788147874427&id=100000297392245&aid=127275","cover_photo":"562612650425310","count":309,"type":"normal","created_time":"2013-02-11T01:37:28+0000","updated_time":"2013-03-06T16:39:41+0000","can_upload":false,"likes":{"data":[{"id":"1072194120","name":"Lagata Astuta"},{"id":"589538660","name":"Virginia Popa"}],"paging":{"next":"https:\/\/graph.facebook.com\/554788147874427\/likes?access_token=AAACEdEose0cBAJwErCNmIPZA6el8rxxyY5ULyI6xBIzYxuyekLKT4jiLPBr1teydoTPlSXlbBEkmB07tIO62Pi4QqIsy3oMtz1ihC5OyZAvdarWSZBe&limit=25&offset=25&__after_id=589538660"}}},{"id":"180697038616875","from":{"name":"Makeila Solis","id":"100000297392245"},"name":"CLASSICAL & OPERA PERFORMERS","link":"http:\/\/www.facebook.com\/album.php?fbid=180697038616875&id=100000297392245&aid=42296","cover_photo":"193806983972547","count":54,"type":"normal","created_time":"2010-12-31T20:52:39+0000","updated_time":"2013-04-04T00:35:47+0000","can_upload":false,"likes":{"data":[{"id":"100000297392245","name":"Makeila Solis"},{"id":"1409848027","name":"Elizabeth Rindone"},{"id":"1023182391","name":"Maria Patricia Solis Ornelas"},{"id":"100001351035967","name":"Cathy Pouridas"},{"id":"100000317822105","name":"Alondra Solis"},{"id":"100001649373985","name":"Janet Rivera"},{"id":"1435456176","name":"Elaine Perez"},{"id":"1560399996","name":"Jay Montra"}],"paging":{"next":"https:\/\/graph.facebook.com\/180697038616875\/likes?access_token=AAACEdEose0cBAJwErCNmIPZA6el8rxxyY5ULyI6xBIzYxuyekLKT4jiLPBr1teydoTPlSXlbBEkmB07tIO62Pi4QqIsy3oMtz1ihC5OyZAvdarWSZBe&limit=25&offset=25&__after_id=1560399996"}}},{"id":"479118062108103","from":{"name":"Makeila Solis","id":"100000297392245"},"name":"EVENTS","link":"http:\/\/www.facebook.com\/album.php?fbid=479118062108103&id=100000297392245&aid=113598","cover_photo":"181453941874518","count":25,"type":"normal","created_time":"2012-09-02T18:04:56+0000","updated_time":"2013-03-03T20:27:24+0000","can_upload":false},{"id":"178983452121567","from":{"name":"Makeila Solis","id":"100000297392245"},"name":"SUSAN KOMER RUN \"I AM THE CURE EVENTS\"","link":"http:\/\/www.facebook.com\/album.php?fbid=178983452121567&id=100000297392245&aid=41385","cover_photo":"178984395454806","count":99,"type":"normal","created_time":"2010-12-25T02:15:29+0000","updated_time":"2013-02-28T02:25:29+0000","can_upload":false,"likes":{"data":[{"id":"54703162","name":"Matthew Puliatti"},{"id":"100002052506307","name":"Evangelina Robles"},{"id":"1791312475","name":"Lucy Caratachea"},{"id":"1079227988","name":"Dominique Takesovertheworld"}],"paging":{"next":"https:\/\/graph.facebook.com\/178983452121567\/likes?access_token=AAACEdEose0cBAJwErCNmIPZA6el8rxxyY5ULyI6xBIzYxuyekLKT4jiLPBr1teydoTPlSXlbBEkmB07tIO62Pi4QqIsy3oMtz1ihC5OyZAvdarWSZBe&limit=25&offset=25&__after_id=1079227988"}},"comments":{"data":[{"id":"178983452121567_2248257","from":{"name":"Makeila Solis","id":"100000297392245"},"message":"LOVE IS NEVER HAVING TO SAY YOUR SORRY, JUST MAKE AN IMPACT WITH ACTIONS.. THEY ARE WATCHING FROM HEAVEN.","can_remove":false,"created_time":"2010-12-26T13:48:11+0000","like_count":1,"user_likes":false}],"paging":{"next":"https:\/\/graph.facebook.com\/178983452121567\/comments?access_token=AAACEdEose0cBAJwErCNmIPZA6el8rxxyY5ULyI6xBIzYxuyekLKT4jiLPBr1teydoTPlSXlbBEkmB07tIO62Pi4QqIsy3oMtz1ihC5OyZAvdarWSZBe&limit=25&offset=25&__after_id=178983452121567_2248257"}}},{"id":"499171256769450","from":{"name":"Makeila Solis","id":"100000297392245"},"name":"MUSIC LEGEND","link":"http:\/\/www.facebook.com\/album.php?fbid=499171256769450&id=100000297392245&aid=118556","cover_photo":"499171276769448","count":9,"type":"normal","created_time":"2012-10-21T21:02:42+0000","updated_time":"2013-02-28T00:45:02+0000","can_upload":false},{"id":"196346463718599","from":{"name":"Makeila Solis","id":"100000297392245"},"name":"MMI- MAKEILA'S MUSIC INC","link":"http:\/\/www.facebook.com\/album.php?fbid=196346463718599&id=100000297392245&aid=49342","cover_photo":"465421310144445","count":35,"type":"normal","created_time":"2011-03-02T00:48:47+0000","updated_time":"2013-02-24T20:18:52+0000","can_upload":false,"likes":{"data":[{"id":"100000297392245","name":"Makeila Solis"}],"paging":{"next":"https:\/\/graph.facebook.com\/196346463718599\/likes?access_token=AAACEdEose0cBAJwErCNmIPZA6el8rxxyY5ULyI6xBIzYxuyekLKT4jiLPBr1teydoTPlSXlbBEkmB07tIO62Pi4QqIsy3oMtz1ihC5OyZAvdarWSZBe&limit=25&offset=25&__after_id=100000297392245"}}},{"id":"560910763928832","from":{"name":"Makeila Solis","id":"100000297392245"},"name":"HOPE -  WISDOM","link":"http:\/\/www.facebook.com\/album.php?fbid=560910763928832&id=100000297392245&aid=128096","cover_photo":"560910780595497","count":6,"type":"normal","created_time":"2013-02-24T15:52:18+0000","updated_time":"2013-02-24T15:52:33+0000","can_upload":false},{"id":"335566153129962","from":{"name":"Makeila Solis","id":"100000297392245"},"name":"CALIFORNIA TODAY!","description":"CALI TODAY!","link":"http:\/\/www.facebook.com\/album.php?fbid=335566153129962&id=100000297392245&aid=85416","cover_photo":"335599206459990","count":214,"type":"normal","created_time":"2012-01-09T22:01:10+0000","updated_time":"2013-02-20T20:08:31+0000","can_upload":false},{"id":"251636144856297","from":{"name":"Makeila Solis","id":"100000297392245"},"name":"NEW YORK TODAY","location":"New York, New York","place":{"id":"108424279189115","name":"New York, New York","location":{"street":"","zip":"","latitude":40.7167,"longitude":-74}},"link":"http:\/\/www.facebook.com\/album.php?fbid=251636144856297&id=100000297392245&aid=68355","cover_photo":"251643544855557","count":647,"type":"normal","created_time":"2011-08-05T19:12:24+0000","updated_time":"2013-02-20T19:49:51+0000","can_upload":false,"likes":{"data":[{"id":"777761517","name":"Eddie Blasini"}],"paging":{"next":"https:\/\/graph.facebook.com\/251636144856297\/likes?access_token=AAACEdEose0cBAJwErCNmIPZA6el8rxxyY5ULyI6xBIzYxuyekLKT4jiLPBr1teydoTPlSXlbBEkmB07tIO62Pi4QqIsy3oMtz1ihC5OyZAvdarWSZBe&limit=25&offset=25&__after_id=777761517"}}},{"id":"558987254121183","from":{"name":"Makeila Solis","id":"100000297392245"},"name":"MIAMI BOAT SHOW 2013","description":"FEBRUARY 14 - 18 2013","link":"http:\/\/www.facebook.com\/album.php?fbid=558987254121183&id=100000297392245&aid=127829","cover_photo":"558988047454437","count":110,"type":"normal","created_time":"2013-02-20T00:56:59+0000","updated_time":"2013-02-20T01:13:25+0000","can_upload":false},{"id":"223786540974591","from":{"name":"Makeila Solis","id":"100000297392245"},"name":"DJ KANANI'S BIRTHDAY IN MIAMI","location":"WYNWOOD CAFEINA","link":"http:\/\/www.facebook.com\/album.php?fbid=223786540974591&id=100000297392245&aid=64320","cover_photo":"540886845931224","count":26,"type":"normal","created_time":"2011-06-20T03:07:32+0000","updated_time":"2013-01-21T02:04:44+0000","can_upload":false},{"id":"540881602598415","from":{"name":"Makeila Solis","id":"100000297392245"},"name":"Role Models","description":"Special Lady","link":"http:\/\/www.facebook.com\/album.php?fbid=540881602598415&id=100000297392245&aid=125924","cover_photo":"540881622598413","count":1,"type":"normal","created_time":"2013-01-21T01:47:27+0000","updated_time":"2013-01-21T01:51:25+0000","can_upload":false,"likes":{"data":[{"id":"1409848027","name":"Elizabeth Rindone"}],"paging":{"next":"https:\/\/graph.facebook.com\/540881602598415\/likes?access_token=AAACEdEose0cBAJwErCNmIPZA6el8rxxyY5ULyI6xBIzYxuyekLKT4jiLPBr1teydoTPlSXlbBEkmB07tIO62Pi4QqIsy3oMtz1ihC5OyZAvdarWSZBe&limit=25&offset=25&__after_id=1409848027"}}},{"id":"499146690105240","from":{"name":"Makeila Solis","id":"100000297392245"},"name":"MUSIC PROS","link":"http:\/\/www.facebook.com\/album.php?fbid=499146690105240&id=100000297392245&aid=118552","cover_photo":"499146933438549","count":14,"type":"normal","created_time":"2012-10-21T19:35:42+0000","updated_time":"2012-11-15T21:03:08+0000","can_upload":false},{"id":"181696855183560","from":{"name":"Makeila Solis","id":"100000297392245"},"name":"CELEBRATIONS","link":"http:\/\/www.facebook.com\/album.php?fbid=181696855183560&id=100000297392245&aid=43046","cover_photo":"181696891850223","count":9,"type":"normal","created_time":"2011-01-04T17:12:22+0000","updated_time":"2012-11-03T20:17:46+0000","can_upload":false},{"id":"491470834206159","from":{"name":"Makeila Solis","id":"100000297392245"},"name":"UNIVERSITY of COLUMBIA NYC","description":"PREP INTERVIEW 10-2-12","link":"http:\/\/www.facebook.com\/album.php?fbid=491470834206159&id=100000297392245&aid=116783","cover_photo":"491470840872825","count":21,"type":"normal","created_time":"2012-10-03T05:18:57+0000","updated_time":"2012-11-03T17:04:49+0000","can_upload":false},{"id":"499115143441728","from":{"name":"Makeila Solis","id":"100000297392245"},"name":"\"POP UP THE MUSIC\"","link":"http:\/\/www.facebook.com\/album.php?fbid=499115143441728&id=100000297392245&aid=118546","cover_photo":"499115910108318","count":75,"type":"normal","created_time":"2012-10-21T17:58:44+0000","updated_time":"2012-10-21T19:35:18+0000","can_upload":false}],"paging":{"cursors":{"after":"NDk5MTE1MTQzNDQxNzI4","before":"NTU0Njk3NTM3ODgzNDg4"},"next":"https:\/\/graph.facebook.com\/100000297392245\/albums?access_token=AAACEdEose0cBAJwErCNmIPZA6el8rxxyY5ULyI6xBIzYxuyekLKT4jiLPBr1teydoTPlSXlbBEkmB07tIO62Pi4QqIsy3oMtz1ihC5OyZAvdarWSZBe&limit=25&after=NDk5MTE1MTQzNDQxNzI4"}}