{"data":[{"id":"102436123178696","from":{"name":"R Michael Gonzalez","id":"100002369256220"},"name":"Profile Pictures","link":"http:\/\/www.facebook.com\/album.php?fbid=102436123178696&id=100002369256220&aid=5475","cover_photo":"441540652601573","count":8,"type":"profile","created_time":"2011-04-21T09:22:13+0000","updated_time":"2013-04-02T23:58:20+0000","can_upload":false},{"id":"230610467027927","from":{"name":"R Michael Gonzalez","id":"100002369256220"},"name":"Timeline Photos","link":"http:\/\/www.facebook.com\/album.php?fbid=230610467027927&id=100002369256220&aid=59279","cover_photo":"230611920361115","count":9,"type":"wall","created_time":"2012-02-03T20:19:37+0000","updated_time":"2013-03-26T17:05:26+0000","can_upload":false},{"id":"417283678360604","from":{"name":"R Michael Gonzalez","id":"100002369256220"},"name":"Kittens!","link":"http:\/\/www.facebook.com\/album.php?fbid=417283678360604&id=100002369256220&aid=101980","cover_photo":"417283691693936","count":21,"type":"normal","created_time":"2013-02-09T02:47:26+0000","updated_time":"2013-03-08T21:24:15+0000","can_upload":false,"likes":{"data":[{"id":"100002620538820","name":"Tommy Nelson"},{"id":"1236007648","name":"Chase Haigh"}],"paging":{"next":"https:\/\/graph.facebook.com\/417283678360604\/likes?access_token=AAACEdEose0cBAMYosNuQgnCMBhgO4meNR3qH1cjXNhenSu6GRD6HiTa20OCYdbn297Lf2pZALjodgovOYrfZB0K5KvL0ONYoSHKuOldxmnwN01tZBh8&limit=25&offset=25&__after_id=1236007648"}},"comments":{"data":[{"id":"417283678360604_2628896","from":{"name":"Ann Zurcher","id":"100001288566821"},"message":"Cute!!!","can_remove":false,"created_time":"2013-02-09T14:18:57+0000","like_count":0,"user_likes":false}],"paging":{"cursors":{"after":"MQ==","before":"MQ=="},"next":"https:\/\/graph.facebook.com\/417283678360604\/comments?access_token=AAACEdEose0cBAMYosNuQgnCMBhgO4meNR3qH1cjXNhenSu6GRD6HiTa20OCYdbn297Lf2pZALjodgovOYrfZB0K5KvL0ONYoSHKuOldxmnwN01tZBh8&limit=25&after=MQ\u00253D\u00253D"}}},{"id":"229261523829488","from":{"name":"R Michael Gonzalez","id":"100002369256220"},"name":"Cover Photos","link":"http:\/\/www.facebook.com\/album.php?fbid=229261523829488&id=100002369256220&aid=59009","cover_photo":"423711611051144","count":6,"type":"normal","created_time":"2012-02-01T21:12:54+0000","updated_time":"2013-02-21T22:08:19+0000","can_upload":false},{"id":"110327602389548","from":{"name":"R Michael Gonzalez","id":"100002369256220"},"name":"Family","link":"http:\/\/www.facebook.com\/album.php?fbid=110327602389548&id=100002369256220&aid=25196","cover_photo":"110327609056214","count":36,"type":"normal","created_time":"2011-05-17T15:13:22+0000","updated_time":"2012-02-04T02:09:50+0000","can_upload":false,"likes":{"data":[{"id":"100000401096877","name":"Ronald Gonzalez"}],"paging":{"next":"https:\/\/graph.facebook.com\/110327602389548\/likes?access_token=AAACEdEose0cBAMYosNuQgnCMBhgO4meNR3qH1cjXNhenSu6GRD6HiTa20OCYdbn297Lf2pZALjodgovOYrfZB0K5KvL0ONYoSHKuOldxmnwN01tZBh8&limit=25&offset=25&__after_id=100000401096877"}}},{"id":"229173140504993","from":{"name":"R Michael Gonzalez","id":"100002369256220"},"name":"Michael Gonzalez","link":"http:\/\/www.facebook.com\/album.php?fbid=229173140504993&id=100002369256220&aid=58985","cover_photo":"229173167171657","count":7,"type":"normal","created_time":"2012-02-01T18:49:57+0000","updated_time":"2012-02-04T01:06:16+0000","can_upload":false},{"id":"229305917158382","from":{"name":"R Michael Gonzalez","id":"100002369256220"},"name":"Residences","link":"http:\/\/www.facebook.com\/album.php?fbid=229305917158382&id=100002369256220&aid=59018","cover_photo":"229305957158378","count":7,"type":"normal","created_time":"2012-02-01T22:13:06+0000","updated_time":"2012-02-02T00:20:01+0000","can_upload":false,"comments":{"data":[{"id":"229305917158382_1276347","from":{"name":"Annie Orlando","id":"1143352782"},"message":"NICE !","can_remove":false,"created_time":"2012-02-02T17:35:44+0000","like_count":0,"user_likes":false}],"paging":{"cursors":{"after":"MQ==","before":"MQ=="},"next":"https:\/\/graph.facebook.com\/229305917158382\/comments?access_token=AAACEdEose0cBAMYosNuQgnCMBhgO4meNR3qH1cjXNhenSu6GRD6HiTa20OCYdbn297Lf2pZALjodgovOYrfZB0K5KvL0ONYoSHKuOldxmnwN01tZBh8&limit=25&after=MQ\u00253D\u00253D"}}},{"id":"229231993832441","from":{"name":"R Michael Gonzalez","id":"100002369256220"},"name":"Work Pictures","description":"A few of the jobs I've done over the years","link":"http:\/\/www.facebook.com\/album.php?fbid=229231993832441&id=100002369256220&aid=58999","cover_photo":"229232043832436","count":16,"type":"normal","created_time":"2012-02-01T20:26:09+0000","updated_time":"2012-02-01T21:08:11+0000","can_upload":false},{"id":"102754249813550","from":{"name":"R Michael Gonzalez","id":"100002369256220"},"name":"Michael's Beach Pics","description":"I Love the Beach!","location":"Ft. Lauderdale","link":"http:\/\/www.facebook.com\/album.php?fbid=102754249813550&id=100002369256220&aid=7205","cover_photo":"105978856157756","count":2,"type":"normal","created_time":"2011-04-22T12:06:04+0000","updated_time":"2013-03-20T13:55:06+0000","can_upload":false,"comments":{"data":[{"id":"102754249813550_103300","from":{"name":"Michael Angove","id":"1618946602"},"message":"nice how are you and crista?","can_remove":false,"created_time":"2011-05-16T03:27:50+0000","like_count":0,"user_likes":false}],"paging":{"cursors":{"after":"MQ==","before":"MQ=="},"next":"https:\/\/graph.facebook.com\/102754249813550\/comments?access_token=AAACEdEose0cBAMYosNuQgnCMBhgO4meNR3qH1cjXNhenSu6GRD6HiTa20OCYdbn297Lf2pZALjodgovOYrfZB0K5KvL0ONYoSHKuOldxmnwN01tZBh8&limit=25&after=MQ\u00253D\u00253D"}}}],"paging":{"cursors":{"after":"MTAyNzU0MjQ5ODEzNTUw","before":"MTAyNDM2MTIzMTc4Njk2"}}}