{"data":[{"id":"347568105321769","from":{"name":"Andrea Aranda","id":"100002057481049"},"name":"Mobile Uploads","link":"http:\/\/www.facebook.com\/album.php?fbid=347568105321769&id=100002057481049&aid=76382","cover_photo":"429599890451923","count":10,"type":"mobile","created_time":"2012-07-26T02:21:40+0000","updated_time":"2013-02-11T12:20:56+0000","can_upload":false},{"id":"106888699389712","from":{"name":"Andrea Aranda","id":"100002057481049"},"name":"Profile Pictures","link":"http:\/\/www.facebook.com\/album.php?fbid=106888699389712&id=100002057481049&aid=10167","cover_photo":"391603357584910","count":36,"type":"profile","created_time":"2011-02-03T18:34:19+0000","updated_time":"2013-02-19T21:07:00+0000","can_upload":false},{"id":"311357045609542","from":{"name":"Andrea Aranda","id":"100002057481049"},"name":"Cover Photos","link":"http:\/\/www.facebook.com\/album.php?fbid=311357045609542&id=100002057481049&aid=69148","cover_photo":"422954734449772","count":22,"type":"normal","created_time":"2012-05-15T00:42:27+0000","updated_time":"2013-01-27T19:51:17+0000","can_upload":false},{"id":"407263856018860","from":{"name":"Andrea Aranda","id":"100002057481049"},"name":"Untitled Album","link":"http:\/\/www.facebook.com\/album.php?fbid=407263856018860&id=100002057481049&aid=91773","cover_photo":"407263869352192","count":1,"type":"normal","created_time":"2012-12-29T18:50:14+0000","updated_time":"2012-12-29T18:50:19+0000","can_upload":false},{"id":"212333988845182","from":{"name":"Andrea Aranda","id":"100002057481049"},"name":"salidas","link":"http:\/\/www.facebook.com\/album.php?fbid=212333988845182&id=100002057481049&aid=49930","cover_photo":"407232472688665","count":50,"type":"normal","created_time":"2011-12-08T18:51:07+0000","updated_time":"2013-02-07T03:08:38+0000","can_upload":false,"likes":{"data":[{"id":"100001307256121","name":"Marcelo Mu\u00f1oz"},{"id":"100002624384090","name":"Carlos Ramon Aranda Garcia"},{"id":"100001039310998","name":"Carolina Enciso"},{"id":"100003072015408","name":"Sandro Caceres"},{"id":"100002342500040","name":"Tomas Molinas"}],"paging":{"next":"https:\/\/graph.facebook.com\/212333988845182\/likes?access_token=AAACEdEose0cBAOsheacZASsULZAb4ZAQZAhG6Vs67bZCdhZBqTZCWIDupWuj38ZA7gWaWZASZBLpZANA2NthpeYr0zeKZCnMOEpR8FT9h2Kva1iB9gyjuGF9aym6&limit=25&offset=25&__after_id=100002342500040"}},"comments":{"data":[{"id":"212333988845182_1654205","from":{"name":"Andrea Aranda","id":"100002057481049"},"message":"mii amis les extra\u00f1oo","can_remove":false,"created_time":"2012-01-27T17:13:10+0000","like_count":0,"user_likes":false},{"id":"212333988845182_56010496","from":{"name":"Marcelo Mu\u00f1oz","id":"100001307256121"},"message":"Hay mas fotos primis :(","can_remove":false,"created_time":"2012-12-29T16:43:58+0000","like_count":0,"user_likes":false},{"id":"212333988845182_56010502","from":{"name":"Andrea Aranda","id":"100002057481049"},"message":"si esperame q jaja","can_remove":false,"created_time":"2012-12-29T16:48:35+0000","like_count":0,"user_likes":false},{"id":"212333988845182_56010519","from":{"name":"Marcelo Mu\u00f1oz","id":"100001307256121"},"message":"Bueno voy a esperar :p","can_remove":false,"created_time":"2012-12-29T16:53:52+0000","like_count":0,"user_likes":false}],"paging":{"next":"https:\/\/graph.facebook.com\/212333988845182\/comments?access_token=AAACEdEose0cBAOsheacZASsULZAb4ZAQZAhG6Vs67bZCdhZBqTZCWIDupWuj38ZA7gWaWZASZBLpZANA2NthpeYr0zeKZCnMOEpR8FT9h2Kva1iB9gyjuGF9aym6&limit=25&offset=25&__after_id=212333988845182_56010519"}}},{"id":"391443230934256","from":{"name":"Andrea Aranda","id":"100002057481049"},"name":"Untitled Album","link":"http:\/\/www.facebook.com\/album.php?fbid=391443230934256&id=100002057481049&aid=88280","type":"normal","created_time":"2012-11-21T16:29:56+0000","updated_time":"2012-12-29T15:59:15+0000","can_upload":false},{"id":"391441267601119","from":{"name":"Andrea Aranda","id":"100002057481049"},"name":"Untitled Album","link":"http:\/\/www.facebook.com\/album.php?fbid=391441267601119&id=100002057481049&aid=88279","cover_photo":"391441287601117","count":10,"type":"normal","created_time":"2012-11-21T16:26:04+0000","updated_time":"2012-11-27T11:49:33+0000","can_upload":false,"likes":{"data":[{"id":"100002057481049","name":"Andrea Aranda"},{"id":"100002694026933","name":"Princesita Yoicy Rojas"},{"id":"100004272398098","name":"Andrea Fretes"},{"id":"100001039310998","name":"Carolina Enciso"},{"id":"100003830209623","name":"Sully Andrea Acevedo"}],"paging":{"next":"https:\/\/graph.facebook.com\/391441267601119\/likes?access_token=AAACEdEose0cBAOsheacZASsULZAb4ZAQZAhG6Vs67bZCdhZBqTZCWIDupWuj38ZA7gWaWZASZBLpZANA2NthpeYr0zeKZCnMOEpR8FT9h2Kva1iB9gyjuGF9aym6&limit=25&offset=25&__after_id=100003830209623"}},"comments":{"data":[{"id":"391441267601119_55904893","from":{"name":"Carolina Enciso","id":"100001039310998"},"message":"hermosas","can_remove":false,"created_time":"2012-11-27T12:40:35+0000","like_count":0,"user_likes":false}],"paging":{"next":"https:\/\/graph.facebook.com\/391441267601119\/comments?access_token=AAACEdEose0cBAOsheacZASsULZAb4ZAQZAhG6Vs67bZCdhZBqTZCWIDupWuj38ZA7gWaWZASZBLpZANA2NthpeYr0zeKZCnMOEpR8FT9h2Kva1iB9gyjuGF9aym6&limit=25&offset=25&__after_id=391441267601119_55904893"}}},{"id":"390916724320240","from":{"name":"Andrea Aranda","id":"100002057481049"},"name":"Untitled Album","link":"http:\/\/www.facebook.com\/album.php?fbid=390916724320240&id=100002057481049&aid=88173","cover_photo":"390916750986904","count":2,"type":"normal","created_time":"2012-11-20T11:26:42+0000","updated_time":"2012-11-20T16:09:00+0000","can_upload":false},{"id":"385890841489495","from":{"name":"Andrea Aranda","id":"100002057481049"},"name":"Untitled Album","link":"http:\/\/www.facebook.com\/album.php?fbid=385890841489495&id=100002057481049&aid=87035","cover_photo":"385890858156160","count":1,"type":"normal","created_time":"2012-11-07T16:47:15+0000","updated_time":"2012-11-07T16:47:20+0000","can_upload":false},{"id":"371054599639786","from":{"name":"Andrea Aranda","id":"100002057481049"},"name":"\u00c1lbum sin t\u00edtulo","description":"mis amores","link":"http:\/\/www.facebook.com\/album.php?fbid=371054599639786&id=100002057481049&aid=83381","cover_photo":"371054632973116","count":8,"type":"normal","created_time":"2012-09-30T17:25:56+0000","updated_time":"2012-09-30T17:42:27+0000","can_upload":false,"likes":{"data":[{"id":"100002342500040","name":"Tomas Molinas"},{"id":"100002171982855","name":"Francisco Javier Silva Cuevas"},{"id":"1700660591","name":"Linni Taiga Benitez"},{"id":"1481781068","name":"Natalia Garcia"},{"id":"100003332509242","name":"Ana Bernal"},{"id":"100001039310998","name":"Carolina Enciso"}],"paging":{"next":"https:\/\/graph.facebook.com\/371054599639786\/likes?access_token=AAACEdEose0cBAOsheacZASsULZAb4ZAQZAhG6Vs67bZCdhZBqTZCWIDupWuj38ZA7gWaWZASZBLpZANA2NthpeYr0zeKZCnMOEpR8FT9h2Kva1iB9gyjuGF9aym6&limit=25&offset=25&__after_id=100001039310998"}},"comments":{"data":[{"id":"371054599639786_55699487","from":{"name":"Mirian Graciela Garcia Torres","id":"100001230212746"},"message":"HOLA ? COMO HA CRECIDO LA FAMILIA NO HAY MUCHOS INTEGRANTES .....LES MANDO MUCHOS SALUDOS A TODOS Y OJALA QUE MUY PRONTO PUEDA CONOCERLOS A TODOS LOS SOBRINOS........BESOS PARA TODOS....","can_remove":false,"created_time":"2012-09-30T17:45:21+0000","like_count":0,"user_likes":false},{"id":"371054599639786_55699494","from":{"name":"Andrea Aranda","id":"100002057481049"},"message":"gracias prima y si bastante cresio mi familia por aca jiji","can_remove":false,"created_time":"2012-09-30T17:47:19+0000","like_count":0,"user_likes":false},{"id":"371054599639786_55699725","from":{"name":"Carolina Enciso","id":"100001039310998"},"message":"que hermosa flia  felisitadiones","can_remove":false,"created_time":"2012-09-30T18:56:24+0000","like_count":0,"user_likes":false}],"paging":{"next":"https:\/\/graph.facebook.com\/371054599639786\/comments?access_token=AAACEdEose0cBAOsheacZASsULZAb4ZAQZAhG6Vs67bZCdhZBqTZCWIDupWuj38ZA7gWaWZASZBLpZANA2NthpeYr0zeKZCnMOEpR8FT9h2Kva1iB9gyjuGF9aym6&limit=25&offset=25&__after_id=371054599639786_55699725"}}},{"id":"371050339640212","from":{"name":"Andrea Aranda","id":"100002057481049"},"name":"Untitled Album","link":"http:\/\/www.facebook.com\/album.php?fbid=371050339640212&id=100002057481049&aid=83378","cover_photo":"371050409640205","count":1,"type":"normal","created_time":"2012-09-30T17:14:39+0000","updated_time":"2012-09-30T17:14:56+0000","can_upload":false},{"id":"358538600891386","from":{"name":"Andrea Aranda","id":"100002057481049"},"name":"Untitled Album","link":"http:\/\/www.facebook.com\/album.php?fbid=358538600891386&id=100002057481049&aid=79754","cover_photo":"358538627558050","count":1,"type":"normal","created_time":"2012-08-27T01:17:10+0000","updated_time":"2012-08-27T01:17:17+0000","can_upload":false},{"id":"240251622720085","from":{"name":"Andrea Aranda","id":"100002057481049"},"name":"Untitled Album","link":"http:\/\/www.facebook.com\/album.php?fbid=240251622720085&id=100002057481049&aid=55701","cover_photo":"240251736053407","count":10,"type":"normal","created_time":"2012-01-26T18:49:37+0000","updated_time":"2012-08-27T01:09:30+0000","can_upload":false},{"id":"348181808593732","from":{"name":"Andrea Aranda","id":"100002057481049"},"name":"Untitled Album","link":"http:\/\/www.facebook.com\/album.php?fbid=348181808593732&id=100002057481049&aid=76542","cover_photo":"348182441927002","count":4,"type":"normal","created_time":"2012-07-27T19:52:17+0000","updated_time":"2012-08-26T01:35:46+0000","can_upload":false},{"id":"176586649086583","from":{"name":"Andrea Aranda","id":"100002057481049"},"name":"los mios","link":"http:\/\/www.facebook.com\/album.php?fbid=176586649086583&id=100002057481049&aid=42175","cover_photo":"176586785753236","count":34,"type":"normal","created_time":"2011-09-20T03:14:26+0000","updated_time":"2012-08-11T03:04:01+0000","can_upload":false,"likes":{"data":[{"id":"100000863099150","name":"Erika Franco"}],"paging":{"next":"https:\/\/graph.facebook.com\/176586649086583\/likes?access_token=AAACEdEose0cBAOsheacZASsULZAb4ZAQZAhG6Vs67bZCdhZBqTZCWIDupWuj38ZA7gWaWZASZBLpZANA2NthpeYr0zeKZCnMOEpR8FT9h2Kva1iB9gyjuGF9aym6&limit=25&offset=25&__after_id=100000863099150"}}},{"id":"178586055553309","from":{"name":"Andrea Aranda","id":"100002057481049"},"name":"mi familia","link":"http:\/\/www.facebook.com\/album.php?fbid=178586055553309&id=100002057481049&aid=43141","cover_photo":"178586668886581","count":27,"type":"normal","created_time":"2011-09-25T00:16:53+0000","updated_time":"2013-02-07T03:14:16+0000","can_upload":false,"comments":{"data":[{"id":"178586055553309_1116176","from":{"name":"Andrea Aranda","id":"100002057481049"},"message":"MI FAMILIA","can_remove":false,"created_time":"2011-09-25T00:34:44+0000","like_count":0,"user_likes":false}],"paging":{"next":"https:\/\/graph.facebook.com\/178586055553309\/comments?access_token=AAACEdEose0cBAOsheacZASsULZAb4ZAQZAhG6Vs67bZCdhZBqTZCWIDupWuj38ZA7gWaWZASZBLpZANA2NthpeYr0zeKZCnMOEpR8FT9h2Kva1iB9gyjuGF9aym6&limit=25&offset=25&__after_id=178586055553309_1116176"}}},{"id":"121620591249856","from":{"name":"Andrea Aranda","id":"100002057481049"},"name":"05 de abril de 2011","link":"http:\/\/www.facebook.com\/album.php?fbid=121620591249856&id=100002057481049&aid=23446","cover_photo":"121620617916520","count":7,"type":"normal","created_time":"2011-04-05T23:19:27+0000","updated_time":"2012-07-29T15:27:49+0000","can_upload":false,"likes":{"data":[{"id":"100002187143232","name":"Vero Ruiz Diaz"},{"id":"100001694805541","name":"Walter Peralta Lomaquiz"}],"paging":{"next":"https:\/\/graph.facebook.com\/121620591249856\/likes?access_token=AAACEdEose0cBAOsheacZASsULZAb4ZAQZAhG6Vs67bZCdhZBqTZCWIDupWuj38ZA7gWaWZASZBLpZANA2NthpeYr0zeKZCnMOEpR8FT9h2Kva1iB9gyjuGF9aym6&limit=25&offset=25&__after_id=100001694805541"}},"comments":{"data":[{"id":"121620591249856_989448","from":{"name":"Princesita Yoicy Rojas","id":"100002694026933"},"message":"y ese bebe tan lindo de quien es,,, amii","can_remove":false,"created_time":"2011-08-25T11:32:58+0000","like_count":0,"user_likes":false},{"id":"121620591249856_998635","from":{"name":"Andrea Aranda","id":"100002057481049"},"message":"mi sobrinito amiiii ;)","can_remove":false,"created_time":"2011-08-27T13:31:23+0000","like_count":0,"user_likes":false},{"id":"121620591249856_998810","from":{"name":"Princesita Yoicy Rojas","id":"100002694026933"},"message":"amp que lindo,,,","can_remove":false,"created_time":"2011-08-27T14:16:59+0000","like_count":0,"user_likes":false},{"id":"121620591249856_1416014","from":{"name":"Veronica Aranda","id":"100002825067281"},"message":"ahi gracias ami realmente me parese avia sido jajaaaj","can_remove":false,"created_time":"2011-12-06T01:15:51+0000","like_count":0,"user_likes":false}],"paging":{"next":"https:\/\/graph.facebook.com\/121620591249856\/comments?access_token=AAACEdEose0cBAOsheacZASsULZAb4ZAQZAhG6Vs67bZCdhZBqTZCWIDupWuj38ZA7gWaWZASZBLpZANA2NthpeYr0zeKZCnMOEpR8FT9h2Kva1iB9gyjuGF9aym6&limit=25&offset=25&__after_id=121620591249856_1416014"}}},{"id":"217002465045001","from":{"name":"Andrea Aranda","id":"100002057481049"},"name":"mi vida","description":"mi colacion","link":"http:\/\/www.facebook.com\/album.php?fbid=217002465045001&id=100002057481049&aid=50611","cover_photo":"217002688378312","count":71,"type":"normal","created_time":"2011-12-17T01:11:57+0000","updated_time":"2013-02-07T03:16:51+0000","can_upload":false,"likes":{"data":[{"id":"100001039310998","name":"Carolina Enciso"},{"id":"1401953558","name":"V\u0125\u00e1\u0155\u0151 BrAvo"},{"id":"100002055680582","name":"Norma Ortiz"},{"id":"100002342500040","name":"Tomas Molinas"}],"paging":{"next":"https:\/\/graph.facebook.com\/217002465045001\/likes?access_token=AAACEdEose0cBAOsheacZASsULZAb4ZAQZAhG6Vs67bZCdhZBqTZCWIDupWuj38ZA7gWaWZASZBLpZANA2NthpeYr0zeKZCnMOEpR8FT9h2Kva1iB9gyjuGF9aym6&limit=25&offset=25&__after_id=100002342500040"}},"comments":{"data":[{"id":"217002465045001_1469703","from":{"name":"Jeniffer M. Aponte","id":"100002630704051"},"message":";) que chuliii","can_remove":false,"created_time":"2011-12-17T20:50:01+0000","like_count":1,"user_likes":false},{"id":"217002465045001_1475011","from":{"name":"Andrea Aranda","id":"100002057481049"},"message":"mis amigos pega con ustedes","can_remove":false,"created_time":"2011-12-19T03:17:33+0000","like_count":0,"user_likes":false},{"id":"217002465045001_1622365","from":{"name":"Valeria Gutierrez","id":"100003176462587"},"message":"Lindas est\u00e1n chicas..","can_remove":false,"created_time":"2012-01-20T17:18:19+0000","like_count":0,"user_likes":false},{"id":"217002465045001_1622379","from":{"name":"Andrea Aranda","id":"100002057481049"},"message":"gracias ami","can_remove":false,"created_time":"2012-01-20T17:20:29+0000","like_count":1,"user_likes":false}],"paging":{"next":"https:\/\/graph.facebook.com\/217002465045001\/comments?access_token=AAACEdEose0cBAOsheacZASsULZAb4ZAQZAhG6Vs67bZCdhZBqTZCWIDupWuj38ZA7gWaWZASZBLpZANA2NthpeYr0zeKZCnMOEpR8FT9h2Kva1iB9gyjuGF9aym6&limit=25&offset=25&__after_id=217002465045001_1622379"}}},{"id":"156818404396741","from":{"name":"Andrea Aranda","id":"100002057481049"},"name":":) locos","link":"http:\/\/www.facebook.com\/album.php?fbid=156818404396741&id=100002057481049&aid=38357","cover_photo":"156818641063384","count":58,"type":"normal","created_time":"2011-08-06T19:04:42+0000","updated_time":"2012-11-03T01:58:57+0000","can_upload":false,"likes":{"data":[{"id":"100002662662072","name":"Lisander Centurion"},{"id":"100002630704051","name":"Jeniffer M. Aponte"},{"id":"100002204928270","name":"Ema Alen"}],"paging":{"next":"https:\/\/graph.facebook.com\/156818404396741\/likes?access_token=AAACEdEose0cBAOsheacZASsULZAb4ZAQZAhG6Vs67bZCdhZBqTZCWIDupWuj38ZA7gWaWZASZBLpZANA2NthpeYr0zeKZCnMOEpR8FT9h2Kva1iB9gyjuGF9aym6&limit=25&offset=25&__after_id=100002204928270"}},"comments":{"data":[{"id":"156818404396741_1501203","from":{"name":"Jeniffer M. Aponte","id":"100002630704051"},"message":"te quierooooooo muchoo.","can_remove":false,"created_time":"2011-12-24T20:34:44+0000","like_count":0,"user_likes":false}],"paging":{"next":"https:\/\/graph.facebook.com\/156818404396741\/comments?access_token=AAACEdEose0cBAOsheacZASsULZAb4ZAQZAhG6Vs67bZCdhZBqTZCWIDupWuj38ZA7gWaWZASZBLpZANA2NthpeYr0zeKZCnMOEpR8FT9h2Kva1iB9gyjuGF9aym6&limit=25&offset=25&__after_id=156818404396741_1501203"}}},{"id":"129493833795865","from":{"name":"Andrea Aranda","id":"100002057481049"},"name":":*","link":"http:\/\/www.facebook.com\/album.php?fbid=129493833795865&id=100002057481049&aid=30494","cover_photo":"129493873795861","count":13,"type":"normal","created_time":"2011-05-13T22:40:11+0000","updated_time":"2011-10-10T01:11:59+0000","can_upload":false,"likes":{"data":[{"id":"100002055680582","name":"Norma Ortiz"}],"paging":{"next":"https:\/\/graph.facebook.com\/129493833795865\/likes?access_token=AAACEdEose0cBAOsheacZASsULZAb4ZAQZAhG6Vs67bZCdhZBqTZCWIDupWuj38ZA7gWaWZASZBLpZANA2NthpeYr0zeKZCnMOEpR8FT9h2Kva1iB9gyjuGF9aym6&limit=25&offset=25&__after_id=100002055680582"}}},{"id":"116437675101481","from":{"name":"Andrea Aranda","id":"100002057481049"},"name":"12 de marzo de 2011","link":"http:\/\/www.facebook.com\/album.php?fbid=116437675101481&id=100002057481049&aid=20633","cover_photo":"116437708434811","count":47,"type":"normal","created_time":"2011-03-12T17:09:05+0000","updated_time":"2011-05-31T14:20:44+0000","can_upload":false,"likes":{"data":[{"id":"100001999721373","name":"Juan Tato Garcete Torres"},{"id":"100000863099150","name":"Erika Franco"}],"paging":{"next":"https:\/\/graph.facebook.com\/116437675101481\/likes?access_token=AAACEdEose0cBAOsheacZASsULZAb4ZAQZAhG6Vs67bZCdhZBqTZCWIDupWuj38ZA7gWaWZASZBLpZANA2NthpeYr0zeKZCnMOEpR8FT9h2Kva1iB9gyjuGF9aym6&limit=25&offset=25&__after_id=100000863099150"}}}]}