{"data":[{"id":"351018651583394","from":{"name":"Dat Lensche","id":"100000257861927"},"name":"Cover Photos","link":"http:\/\/www.facebook.com\/album.php?fbid=351018651583394&id=100000257861927&aid=87376","cover_photo":"554242624594328","count":7,"type":"normal","created_time":"2012-01-31T19:29:26+0000","updated_time":"2013-02-17T12:06:49+0000","can_upload":false},{"id":"151372754881319","from":{"name":"Dat Lensche","id":"100000257861927"},"name":"Profile Pictures","link":"http:\/\/www.facebook.com\/album.php?fbid=151372754881319&id=100000257861927&aid=26991","cover_photo":"553854064633184","count":30,"type":"profile","created_time":"2010-09-02T06:03:04+0000","updated_time":"2013-02-16T18:01:35+0000","can_upload":false},{"id":"520152674669990","from":{"name":"Dat Lensche","id":"100000257861927"},"name":"Mobile Uploads","link":"http:\/\/www.facebook.com\/album.php?fbid=520152674669990&id=100000257861927&aid=121668","cover_photo":"553001528051771","count":10,"type":"mobile","created_time":"2012-12-15T22:36:37+0000","updated_time":"2013-02-14T20:39:27+0000","can_upload":false},{"id":"547721965246394","from":{"name":"Dat Lensche","id":"100000257861927"},"name":"SMS Fail anzeigen Photos","link":"http:\/\/www.facebook.com\/album.php?fbid=547721965246394&id=100000257861927&aid=125610","cover_photo":"547721971913060","type":"app","created_time":"2013-02-03T17:12:29+0000","updated_time":"2013-02-03T17:12:31+0000","can_upload":false},{"id":"541277315890859","from":{"name":"Dat Lensche","id":"100000257861927"},"name":"Verwechslung anzeigen Photos","link":"http:\/\/www.facebook.com\/album.php?fbid=541277315890859&id=100000257861927&aid=125246","cover_photo":"541277322557525","type":"app","created_time":"2013-01-28T17:06:14+0000","updated_time":"2013-01-28T17:06:16+0000","can_upload":false},{"id":"318564154828844","from":{"name":"Dat Lensche","id":"100000257861927"},"name":"Mein zu Hause XD","location":"K\u00f6lllllleeeeeeeeeeeeee","link":"http:\/\/www.facebook.com\/album.php?fbid=318564154828844&id=100000257861927&aid=80753","cover_photo":"516339308384660","count":9,"type":"normal","created_time":"2011-12-12T16:24:40+0000","updated_time":"2013-02-14T20:42:54+0000","can_upload":false,"likes":{"data":[{"id":"100000257861927","name":"Dat Lensche"},{"id":"100002095614352","name":"Michael Burdziak"},{"id":"100000644445005","name":"Sandra O-l"},{"id":"1709393344","name":"Kiggi Popiggi"}],"paging":{"next":"https:\/\/graph.facebook.com\/318564154828844\/likes?access_token=AAACEdEose0cBAB913ASZBuCYneVOykzskUDELdckmQreRFMnfkgqa7kKDpas07cUe3sdSrPLzA6TJOzSZAatDqrnMFYlOQCC8UZALB9hclGZAPdoOALr&limit=25&offset=25&__after_id=1709393344"}},"comments":{"data":[{"id":"318564154828844_4529479","from":{"name":"Christian Scho","id":"100003002873699"},"message":"die m\u00f6bel kommen mir alle bakannt vor ;-)","can_remove":false,"created_time":"2011-12-12T17:35:07+0000","like_count":0,"user_likes":false},{"id":"318564154828844_4529592","from":{"name":"Dat Lensche","id":"100000257861927"},"message":"du durftest ja auch mitschleppen ;) habt ihr aber alle ganz toll gemachtXD bin stolz auf euch","can_remove":false,"created_time":"2011-12-12T18:09:50+0000","like_count":1,"user_likes":false}],"paging":{"next":"https:\/\/graph.facebook.com\/318564154828844\/comments?access_token=AAACEdEose0cBAB913ASZBuCYneVOykzskUDELdckmQreRFMnfkgqa7kKDpas07cUe3sdSrPLzA6TJOzSZAatDqrnMFYlOQCC8UZALB9hclGZAPdoOALr&limit=25&offset=25&__after_id=318564154828844_4529592"}}},{"id":"368464146505511","from":{"name":"Dat Lensche","id":"100000257861927"},"name":"Partying in K\u00f6lle","link":"http:\/\/www.facebook.com\/album.php?fbid=368464146505511&id=100000257861927&aid=90292","cover_photo":"368464453172147","count":31,"type":"normal","created_time":"2012-02-25T11:29:11+0000","updated_time":"2012-08-13T10:28:41+0000","can_upload":false},{"id":"458680007483924","from":{"name":"Dat Lensche","id":"100000257861927"},"name":"Freitag der 13 te XD","link":"http:\/\/www.facebook.com\/album.php?fbid=458680007483924&id=100000257861927&aid=107630","cover_photo":"458680104150581","count":27,"type":"normal","created_time":"2012-07-17T05:40:03+0000","updated_time":"2012-07-17T06:00:04+0000","can_upload":false,"likes":{"data":[{"id":"1219155390","name":"Daria Mueller"}],"paging":{"next":"https:\/\/graph.facebook.com\/458680007483924\/likes?access_token=AAACEdEose0cBAB913ASZBuCYneVOykzskUDELdckmQreRFMnfkgqa7kKDpas07cUe3sdSrPLzA6TJOzSZAatDqrnMFYlOQCC8UZALB9hclGZAPdoOALr&limit=25&offset=25&__after_id=1219155390"}}},{"id":"168468749838386","from":{"name":"Dat Lensche","id":"100000257861927"},"name":"M\u00e4delsabend","location":"Ochtrup","place":{"id":"111736515508561","name":"Ochtrup","location":{"street":"","zip":"","latitude":52.2167,"longitude":7.18333}},"link":"http:\/\/www.facebook.com\/album.php?fbid=168468749838386&id=100000257861927&aid=36827","cover_photo":"168468816505046","count":27,"type":"normal","created_time":"2010-11-08T11:09:23+0000","updated_time":"2012-05-28T16:27:43+0000","can_upload":false,"likes":{"data":[{"id":"100001285973297","name":"Le Na"},{"id":"613463105","name":"Angka Na"}],"paging":{"next":"https:\/\/graph.facebook.com\/168468749838386\/likes?access_token=AAACEdEose0cBAB913ASZBuCYneVOykzskUDELdckmQreRFMnfkgqa7kKDpas07cUe3sdSrPLzA6TJOzSZAatDqrnMFYlOQCC8UZALB9hclGZAPdoOALr&limit=25&offset=25&__after_id=613463105"}}},{"id":"432262686792323","from":{"name":"Dat Lensche","id":"100000257861927"},"name":"Sonnenbrand?!","link":"http:\/\/www.facebook.com\/album.php?fbid=432262686792323&id=100000257861927&aid=102352","cover_photo":"432365620115363","count":1,"type":"normal","created_time":"2012-05-27T16:42:07+0000","updated_time":"2012-05-27T19:58:22+0000","can_upload":false,"comments":{"data":[{"id":"432262686792323_5369844","from":{"name":"Dat Lensche","id":"100000257861927"},"message":"is echt gut geworden XD","can_remove":false,"created_time":"2012-05-27T19:58:40+0000","like_count":0,"user_likes":false}],"paging":{"next":"https:\/\/graph.facebook.com\/432262686792323\/comments?access_token=AAACEdEose0cBAB913ASZBuCYneVOykzskUDELdckmQreRFMnfkgqa7kKDpas07cUe3sdSrPLzA6TJOzSZAatDqrnMFYlOQCC8UZALB9hclGZAPdoOALr&limit=25&offset=25&__after_id=432262686792323_5369844"}}},{"id":"348952015123391","from":{"name":"Dat Lensche","id":"100000257861927"},"name":"Maggy","description":"Die ersten Fotos von unserer kleinen Maggy","link":"http:\/\/www.facebook.com\/album.php?fbid=348952015123391&id=100000257861927&aid=86995","cover_photo":"348952798456646","count":7,"type":"normal","created_time":"2012-01-28T19:30:49+0000","updated_time":"2012-01-30T17:57:30+0000","can_upload":false,"likes":{"data":[{"id":"100000257861927","name":"Dat Lensche"},{"id":"100000412321810","name":"Saskia Cantorna"},{"id":"1709393344","name":"Kiggi Popiggi"},{"id":"100001017071839","name":"Nikolai Rausch"}],"paging":{"next":"https:\/\/graph.facebook.com\/348952015123391\/likes?access_token=AAACEdEose0cBAB913ASZBuCYneVOykzskUDELdckmQreRFMnfkgqa7kKDpas07cUe3sdSrPLzA6TJOzSZAatDqrnMFYlOQCC8UZALB9hclGZAPdoOALr&limit=25&offset=25&__after_id=100001017071839"}},"comments":{"data":[{"id":"348952015123391_4797440","from":{"name":"Dat Lensche","id":"100000257861927"},"message":"It\u00b4s so fluffy I\u00b4m gonna die XD","can_remove":false,"created_time":"2012-01-28T19:36:44+0000","like_count":0,"user_likes":false},{"id":"348952015123391_4797446","from":{"name":"Bea Wntkr","id":"100001712374190"},"message":"omg...wie obers\u00fc\u00fc\u00fc\u00fc\u00df","can_remove":false,"created_time":"2012-01-28T19:38:28+0000","like_count":0,"user_likes":false},{"id":"348952015123391_4797458","from":{"name":"Dat Lensche","id":"100000257861927"},"message":"ja....und voll tapsig und tolpatschig XD","can_remove":false,"created_time":"2012-01-28T19:40:39+0000","like_count":0,"user_likes":false},{"id":"348952015123391_4797468","from":{"name":"Saskia Cantorna","id":"100000412321810"},"message":"absolut niedlich!!!","can_remove":false,"created_time":"2012-01-28T19:43:08+0000","like_count":0,"user_likes":false},{"id":"348952015123391_4797475","from":{"name":"Dat Lensche","id":"100000257861927"},"message":"total","can_remove":false,"created_time":"2012-01-28T19:44:12+0000","like_count":0,"user_likes":false}],"paging":{"next":"https:\/\/graph.facebook.com\/348952015123391\/comments?access_token=AAACEdEose0cBAB913ASZBuCYneVOykzskUDELdckmQreRFMnfkgqa7kKDpas07cUe3sdSrPLzA6TJOzSZAatDqrnMFYlOQCC8UZALB9hclGZAPdoOALr&limit=25&offset=25&__after_id=348952015123391_4797475"}}},{"id":"322111451140781","from":{"name":"Dat Lensche","id":"100000257861927"},"name":"Lager 2011","description":"OMG XD","location":"Sauerland  ","link":"http:\/\/www.facebook.com\/album.php?fbid=322111451140781&id=100000257861927&aid=81482","cover_photo":"322112144474045","count":21,"type":"normal","created_time":"2011-12-18T16:04:21+0000","updated_time":"2011-12-18T16:12:29+0000","can_upload":false},{"id":"150423794976215","from":{"name":"Dat Lensche","id":"100000257861927"},"name":"Bullitour nach Schweden","location":"Schweden","link":"http:\/\/www.facebook.com\/album.php?fbid=150423794976215&id=100000257861927&aid=25996","cover_photo":"150430374975557","count":199,"type":"normal","created_time":"2010-08-29T17:41:41+0000","updated_time":"2011-12-18T15:46:29+0000","can_upload":false},{"id":"150412011644060","from":{"name":"Dat Lensche","id":"100000257861927"},"name":"London Trip","location":"London, United Kingdom","place":{"id":"106078429431815","name":"London, United Kingdom","location":{"street":"","zip":"","latitude":51.5072,"longitude":-0.1275}},"link":"http:\/\/www.facebook.com\/album.php?fbid=150412011644060&id=100000257861927&aid=25994","cover_photo":"150414234977171","count":39,"type":"normal","created_time":"2010-08-29T16:45:43+0000","updated_time":"2011-12-20T09:02:30+0000","can_upload":false}]}