{"data":[{"id":"152436488226420","from":{"name":"Sharlien Holstein","id":"100003802098540"},"name":"Cover Photos","link":"http:\/\/www.facebook.com\/album.php?fbid=152436488226420&id=100003802098540&aid=33956","cover_photo":"239202679549800","count":7,"type":"normal","created_time":"2012-07-21T03:13:10+0000","updated_time":"2013-02-18T15:55:39+0000","can_upload":false},{"id":"107735342696535","from":{"name":"Sharlien Holstein","id":"100003802098540"},"name":"Mobile Uploads","link":"http:\/\/www.facebook.com\/album.php?fbid=107735342696535&id=100003802098540&aid=10244","cover_photo":"239202569549811","count":12,"type":"mobile","created_time":"2012-05-06T22:22:41+0000","updated_time":"2013-02-18T15:55:18+0000","can_upload":false},{"id":"107701239366612","from":{"name":"Sharlien Holstein","id":"100003802098540"},"name":"Profile Pictures","link":"http:\/\/www.facebook.com\/album.php?fbid=107701239366612&id=100003802098540&aid=10187","cover_photo":"163940297076039","count":12,"type":"profile","created_time":"2012-05-06T21:41:34+0000","updated_time":"2012-09-30T21:27:38+0000","can_upload":false},{"id":"163917767078292","from":{"name":"Sharlien Holstein","id":"100003802098540"},"name":"Untitled Album","description":"Mein Fotoshotting","link":"http:\/\/www.facebook.com\/album.php?fbid=163917767078292&id=100003802098540&aid=39254","cover_photo":"163917813744954","count":112,"type":"normal","created_time":"2012-08-25T20:32:16+0000","updated_time":"2012-08-25T21:56:56+0000","can_upload":false,"likes":{"data":[{"id":"100001849845115","name":"Kathrin Halt"},{"id":"1318446616","name":"Erkan Mayuk"},{"id":"100002143584810","name":"Heino Roster"},{"id":"100003474704104","name":"Bessii Kaqan"},{"id":"100002504074301","name":"Jennifer Kalin"}],"paging":{"next":"https:\/\/graph.facebook.com\/163917767078292\/likes?access_token=AAACEdEose0cBAJW1StQUSMiKXKbxIni7CK836T2At8W8kZCLPPwZBdiZBS1ZBxiqDKiwhwPF6kLZCRwFccO1RHe1DhodHWddCIjG2TuWXucuHQL4JF96S&limit=25&offset=25&__after_id=100002504074301"}}},{"id":"163177967152272","from":{"name":"Sharlien Holstein","id":"100003802098540"},"name":"Liebestest Photos","link":"http:\/\/www.facebook.com\/album.php?fbid=163177967152272&id=100003802098540&aid=38906","cover_photo":"163177970485605","count":1,"type":"app","created_time":"2012-08-23T13:55:42+0000","updated_time":"2012-08-23T13:55:43+0000","can_upload":false},{"id":"161051184031617","from":{"name":"Sharlien Holstein","id":"100003802098540"},"name":"Untitled Album","link":"http:\/\/www.facebook.com\/album.php?fbid=161051184031617&id=100003802098540&aid=37729","cover_photo":"161051194031616","count":2,"type":"normal","created_time":"2012-08-16T16:48:58+0000","updated_time":"2012-08-16T16:49:04+0000","can_upload":false,"likes":{"data":[{"id":"100002504074301","name":"Jennifer Kalin"}],"paging":{"next":"https:\/\/graph.facebook.com\/161051184031617\/likes?access_token=AAACEdEose0cBAJW1StQUSMiKXKbxIni7CK836T2At8W8kZCLPPwZBdiZBS1ZBxiqDKiwhwPF6kLZCRwFccO1RHe1DhodHWddCIjG2TuWXucuHQL4JF96S&limit=25&offset=25&__after_id=100002504074301"}}},{"id":"152389881564414","from":{"name":"Sharlien Holstein","id":"100003802098540"},"name":"Iich Neu","link":"http:\/\/www.facebook.com\/album.php?fbid=152389881564414&id=100003802098540&aid=33939","cover_photo":"152390104897725","count":26,"type":"normal","created_time":"2012-07-20T23:19:54+0000","updated_time":"2012-08-16T16:47:26+0000","can_upload":false,"likes":{"data":[{"id":"100004072954367","name":"Nasrat Darinoori"},{"id":"100002495664513","name":"Halim Murselaj"}],"paging":{"next":"https:\/\/graph.facebook.com\/152389881564414\/likes?access_token=AAACEdEose0cBAJW1StQUSMiKXKbxIni7CK836T2At8W8kZCLPPwZBdiZBS1ZBxiqDKiwhwPF6kLZCRwFccO1RHe1DhodHWddCIjG2TuWXucuHQL4JF96S&limit=25&offset=25&__after_id=100002495664513"}}},{"id":"152434461559956","from":{"name":"Sharlien Holstein","id":"100003802098540"},"name":"Timeline Photos","link":"http:\/\/www.facebook.com\/album.php?fbid=152434461559956&id=100003802098540&aid=33954","cover_photo":"152434464893289","count":1,"type":"wall","created_time":"2012-07-21T03:03:07+0000","updated_time":"2012-07-21T03:03:08+0000","can_upload":false}]}