{"data":[{"id":"419290848084424","from":{"name":"Stefana Ivkovic","id":"100000105361004"},"name":"Cover Photos","link":"http:\/\/www.facebook.com\/album.php?fbid=419290848084424&id=100000105361004&aid=116073","cover_photo":"580939361919571","count":4,"type":"normal","created_time":"2012-04-05T14:02:50+0000","updated_time":"2013-01-24T19:30:48+0000","can_upload":false,"likes":{"data":[{"id":"100003058028698","name":"Tanja Gitara"}],"paging":{"next":"https:\/\/graph.facebook.com\/419290848084424\/likes?access_token=AAACEdEose0cBADZBh0huDqrBEwzslBApgwnnFa3YBzEmeWXSXZBoPreGcSLiooqEt3PJSLgTnexEjXkv2m2pLPCb0TmH3B4CYLvOHYulcyxZCoNH0Uq&limit=25&offset=25&__after_id=100003058028698"}}},{"id":"159699137376931","from":{"name":"Stefana Ivkovic","id":"100000105361004"},"name":"Profile Pictures","link":"http:\/\/www.facebook.com\/album.php?fbid=159699137376931&id=100000105361004&aid=35421","cover_photo":"353986904614819","count":56,"type":"profile","created_time":"2010-09-11T22:08:02+0000","updated_time":"2013-01-23T18:08:16+0000","can_upload":false},{"id":"109591262387719","from":{"name":"Stefana Ivkovic","id":"100000105361004"},"name":"Mobile Uploads","link":"http:\/\/www.facebook.com\/album.php?fbid=109591262387719&id=100000105361004&aid=16853","cover_photo":"580453098634864","count":7,"type":"mobile","created_time":"2010-02-27T14:18:53+0000","updated_time":"2013-01-23T18:03:43+0000","can_upload":false},{"id":"103343946345784","from":{"name":"Stefana Ivkovic","id":"100000105361004"},"name":"*-*-*--swasta--**:)))","link":"http:\/\/www.facebook.com\/album.php?fbid=103343946345784&id=100000105361004&aid=6628","cover_photo":"107870862559759","count":78,"type":"normal","created_time":"2009-09-20T19:46:16+0000","updated_time":"2011-04-28T16:01:08+0000","can_upload":false,"likes":{"data":[{"id":"100000105361004","name":"Stefana Ivkovic"},{"id":"100003058028698","name":"Tanja Gitara"},{"id":"100001385030998","name":"Maja Dobrosavljevic"},{"id":"1558359667","name":"Mihajlo Ivkovic"},{"id":"100000490455165","name":"\u0408\u043e\u0432\u0430\u043d\u0430 \u0418\u0432\u0430\u043d\u043e\u0432\u0438\u045b"},{"id":"100000713799030","name":"Marija Anti\u0107"},{"id":"100000774961487","name":"AnDjela-Anja Ilic"},{"id":"100000011375730","name":"Jovana Pavlovic"},{"id":"1659743916","name":"Nikola Pesic"},{"id":"100001174934205","name":"Nebojsa Janjic"},{"id":"100000059216767","name":"Ivana Ixy"},{"id":"100000561980589","name":"Marija Maca Veli\u010dkov"},{"id":"100000833075948","name":"Dragan Spasov"},{"id":"645277058","name":"Trajce Jovanov"},{"id":"1599010901","name":"Edita Stojkovic"},{"id":"100000153845934","name":"Jovana Joka Stojkovic"},{"id":"1620457143","name":"Milica Markovic"},{"id":"100000045237797","name":"Nevena Stankovic"},{"id":"100000148305774","name":"Aleksandra Stojkovic"},{"id":"1302521855","name":"Dragana Ilic"},{"id":"100000048116074","name":"\u041c\u0438\u043b\u0438\u0446\u0430 \u041c\u0438\u0445\u0430\u0458\u043b\u043e\u0432\u0438\u045b"}],"paging":{"next":"https:\/\/graph.facebook.com\/103343946345784\/likes?access_token=AAACEdEose0cBADZBh0huDqrBEwzslBApgwnnFa3YBzEmeWXSXZBoPreGcSLiooqEt3PJSLgTnexEjXkv2m2pLPCb0TmH3B4CYLvOHYulcyxZCoNH0Uq&limit=25&offset=25&__after_id=100000048116074"}}},{"id":"168230209857157","from":{"name":"Stefana Ivkovic","id":"100000105361004"},"name":"...ludo i nezaboravno party vece... xD","link":"http:\/\/www.facebook.com\/album.php?fbid=168230209857157&id=100000105361004&aid=46428","cover_photo":"168262686520576","count":81,"type":"normal","created_time":"2010-10-14T11:51:40+0000","updated_time":"2010-10-14T15:19:02+0000","can_upload":false,"likes":{"data":[{"id":"100000105361004","name":"Stefana Ivkovic"},{"id":"100000631213664","name":"Vesna Ivkovic"},{"id":"1558359667","name":"Mihajlo Ivkovic"},{"id":"100000631449503","name":"Suzana Stojanovic"},{"id":"100000218177132","name":"Natalie Vidanovic"},{"id":"626821779","name":"\u0422\u0430\u0442\u0458\u0430\u043d\u0430 \u041b\u0430\u043b\u0438\u045b- \u041d\u0438\u043a\u043e\u043b\u0438\u045b"},{"id":"100000764532385","name":"Nikola Janjic"},{"id":"1108736701","name":"Vera Radisavljevic"},{"id":"100001385030998","name":"Maja Dobrosavljevic"},{"id":"100000047906539","name":"Andjela Nikolic"},{"id":"1531358935","name":"Natalija Raven Stevanovic"},{"id":"1356873511","name":"Jelena Popovic"},{"id":"100000669573610","name":"\u041f\u0435\u0442\u0430\u0440 \u0408\u043e\u0432\u0438\u045b"},{"id":"1599010901","name":"Edita Stojkovic"},{"id":"100001174934205","name":"Nebojsa Janjic"}],"paging":{"next":"https:\/\/graph.facebook.com\/168230209857157\/likes?access_token=AAACEdEose0cBADZBh0huDqrBEwzslBApgwnnFa3YBzEmeWXSXZBoPreGcSLiooqEt3PJSLgTnexEjXkv2m2pLPCb0TmH3B4CYLvOHYulcyxZCoNH0Uq&limit=25&offset=25&__after_id=100001174934205"}}},{"id":"103850736295105","from":{"name":"Stefana Ivkovic","id":"100000105361004"},"name":"...frends i ja... :PPPppppPPP","link":"http:\/\/www.facebook.com\/album.php?fbid=103850736295105&id=100000105361004&aid=7563","cover_photo":"108278069185705","count":104,"type":"normal","created_time":"2009-10-05T21:49:30+0000","updated_time":"2010-03-14T12:10:20+0000","can_upload":false,"likes":{"data":[{"id":"100000105361004","name":"Stefana Ivkovic"},{"id":"100000631213664","name":"Vesna Ivkovic"},{"id":"100001532037773","name":"Alexandra Jovic"},{"id":"100000048116074","name":"\u041c\u0438\u043b\u0438\u0446\u0430 \u041c\u0438\u0445\u0430\u0458\u043b\u043e\u0432\u0438\u045b"},{"id":"100000187740696","name":"Moca Nikoli\u0107"},{"id":"100000148305774","name":"Aleksandra Stojkovic"}],"paging":{"next":"https:\/\/graph.facebook.com\/103850736295105\/likes?access_token=AAACEdEose0cBADZBh0huDqrBEwzslBApgwnnFa3YBzEmeWXSXZBoPreGcSLiooqEt3PJSLgTnexEjXkv2m2pLPCb0TmH3B4CYLvOHYulcyxZCoNH0Uq&limit=25&offset=25&__after_id=100000148305774"}}},{"id":"100120450001467","from":{"name":"Stefana Ivkovic","id":"100000105361004"},"name":"stacy and friends","link":"http:\/\/www.facebook.com\/album.php?fbid=100120450001467&id=100000105361004&aid=66","cover_photo":"102080456472133","count":116,"type":"normal","created_time":"2009-07-25T17:13:13+0000","updated_time":"2010-03-14T16:30:56+0000","can_upload":false,"likes":{"data":[{"id":"100000105361004","name":"Stefana Ivkovic"},{"id":"1552931738","name":"Marijana Ivanovska"}],"paging":{"next":"https:\/\/graph.facebook.com\/100120450001467\/likes?access_token=AAACEdEose0cBADZBh0huDqrBEwzslBApgwnnFa3YBzEmeWXSXZBoPreGcSLiooqEt3PJSLgTnexEjXkv2m2pLPCb0TmH3B4CYLvOHYulcyxZCoNH0Uq&limit=25&offset=25&__after_id=1552931738"}}}]}