{"data":[{"id":"159255190848667","from":{"name":"Cheyenne Selina Santos","id":"100002925611184"},"name":"Timeline Photos","link":"http:\/\/www.facebook.com\/album.php?fbid=159255190848667&id=100002925611184&aid=34078","cover_photo":"386789598095224","count":31,"type":"wall","created_time":"2011-12-26T18:25:55+0000","updated_time":"2013-03-23T01:39:01+0000","can_upload":false},{"id":"243408379100014","from":{"name":"Cheyenne Selina Santos","id":"100002925611184"},"name":"Cover Photos","link":"http:\/\/www.facebook.com\/album.php?fbid=243408379100014&id=100002925611184&aid=57781","cover_photo":"356371247803726","count":19,"type":"normal","created_time":"2012-05-05T23:16:29+0000","updated_time":"2013-01-21T23:25:19+0000","can_upload":false},{"id":"121940287913491","from":{"name":"Cheyenne Selina Santos","id":"100002925611184"},"name":"Mobile Uploads","link":"http:\/\/www.facebook.com\/album.php?fbid=121940287913491&id=100002925611184&aid=23553","cover_photo":"346086965498821","count":59,"type":"mobile","created_time":"2011-10-14T01:58:22+0000","updated_time":"2013-01-22T15:01:16+0000","can_upload":false},{"id":"103773719730148","from":{"name":"Cheyenne Selina Santos","id":"100002925611184"},"name":"Profile Pictures","link":"http:\/\/www.facebook.com\/album.php?fbid=103773719730148&id=100002925611184&aid=5678","cover_photo":"313492528758265","count":38,"type":"profile","created_time":"2011-09-10T15:14:44+0000","updated_time":"2013-01-22T14:52:29+0000","can_upload":false},{"id":"104920112948842","from":{"name":"Cheyenne Selina Santos","id":"100002925611184"},"name":"random ahh' $hiznit ( ;","link":"http:\/\/www.facebook.com\/album.php?fbid=104920112948842&id=100002925611184&aid=7850","cover_photo":"207263102714542","count":10,"type":"normal","created_time":"2011-09-12T06:21:29+0000","updated_time":"2012-11-15T10:04:40+0000","can_upload":false},{"id":"104898502951003","from":{"name":"Cheyenne Selina Santos","id":"100002925611184"},"name":"&' even tho were all kinda crazy, we're still family \u003C3 ( ':","link":"http:\/\/www.facebook.com\/album.php?fbid=104898502951003&id=100002925611184&aid=7807","cover_photo":"104898949617625","count":29,"type":"normal","created_time":"2011-09-12T05:11:12+0000","updated_time":"2012-03-10T22:24:51+0000","can_upload":false,"likes":{"data":[{"id":"100001586439669","name":"Leahh Garcia"},{"id":"100001244944334","name":"Chelsea A Favela"}],"paging":{"next":"https:\/\/graph.facebook.com\/104898502951003\/likes?access_token=AAACEdEose0cBAJwErCNmIPZA6el8rxxyY5ULyI6xBIzYxuyekLKT4jiLPBr1teydoTPlSXlbBEkmB07tIO62Pi4QqIsy3oMtz1ihC5OyZAvdarWSZBe&limit=25&offset=25&__after_id=100001244944334"}}},{"id":"182426675198185","from":{"name":"Cheyenne Selina Santos","id":"100002925611184"},"name":"Screenshots","link":"http:\/\/www.facebook.com\/album.php?fbid=182426675198185&id=100002925611184&aid=39509","cover_photo":"182432701864249","count":6,"type":"normal","created_time":"2012-02-02T02:09:22+0000","updated_time":"2012-02-15T12:33:17+0000","can_upload":false}],"paging":{"cursors":{"after":"MTgyNDI2Njc1MTk4MTg1","before":"MTU5MjU1MTkwODQ4NjY3"}}}