{"data":[{"id":"122483854537757","from":{"name":"Sandra Gates","id":"100003284282980"},"name":"Cover Photos","link":"http:\/\/www.facebook.com\/album.php?fbid=122483854537757&id=100003284282980&aid=21476","cover_photo":"370551363064337","count":85,"type":"normal","created_time":"2012-01-04T05:54:32+0000","updated_time":"2013-04-15T22:32:35+0000","can_upload":false,"likes":{"data":[{"id":"100003378053363","name":"Justin Scott"}],"paging":{"next":"https:\/\/graph.facebook.com\/122483854537757\/likes?access_token=AAACEdEose0cBAMYosNuQgnCMBhgO4meNR3qH1cjXNhenSu6GRD6HiTa20OCYdbn297Lf2pZALjodgovOYrfZB0K5KvL0ONYoSHKuOldxmnwN01tZBh8&limit=25&offset=25&__after_id=100003378053363"}}},{"id":"101453836640759","from":{"name":"Sandra Gates","id":"100003284282980"},"name":"Timeline Photos","link":"http:\/\/www.facebook.com\/album.php?fbid=101453836640759&id=100003284282980&aid=1467","cover_photo":"307853759334098","count":41,"type":"wall","created_time":"2011-12-04T00:09:20+0000","updated_time":"2013-02-28T13:25:17+0000","can_upload":false},{"id":"101449583307851","from":{"name":"Sandra Gates","id":"100003284282980"},"name":"Profile Pictures","link":"http:\/\/www.facebook.com\/album.php?fbid=101449583307851&id=100003284282980&aid=1460","cover_photo":"180861455366663","count":29,"type":"profile","created_time":"2011-12-03T23:54:59+0000","updated_time":"2013-01-21T16:54:48+0000","can_upload":false}],"paging":{"cursors":{"after":"MTAxNDQ5NTgzMzA3ODUx","before":"MTIyNDgzODU0NTM3NzU3"}}}