{"data":[{"id":"100778500105604","from":{"name":"Danielle Alcantra","id":"100005203620481"},"name":"somente eu ;)","link":"http:\/\/www.facebook.com\/album.php?fbid=100778500105604&id=100005203620481&aid=1004","cover_photo":"100778810105573","count":10,"type":"normal","created_time":"2013-02-06T18:58:13+0000","updated_time":"2013-02-07T00:46:51+0000","can_upload":false,"likes":{"data":[{"id":"100003233426662","name":"Dener Henrique"},{"id":"100004572552351","name":"Rafael Rodrigues Romeiro"},{"id":"100002419976066","name":"Gabriel Mateus"},{"id":"100002636164175","name":"Alam Soares"},{"id":"100000113847013","name":"Gilmar Brandao Brandao"},{"id":"100002148141332","name":"Diego Proen\u00e7a Crespim"}],"paging":{"next":"https:\/\/graph.facebook.com\/100778500105604\/likes?access_token=AAACEdEose0cBAMYosNuQgnCMBhgO4meNR3qH1cjXNhenSu6GRD6HiTa20OCYdbn297Lf2pZALjodgovOYrfZB0K5KvL0ONYoSHKuOldxmnwN01tZBh8&limit=25&offset=25&__after_id=100002148141332"}},"comments":{"data":[{"id":"100778500105604_1552","from":{"name":"Gilmar Brandao Brandao","id":"100000113847013"},"message":"aceita minha linda...","can_remove":false,"created_time":"2013-02-06T19:02:48+0000","like_count":1,"user_likes":false},{"id":"100778500105604_1555","from":{"name":"Danielle Alcantra","id":"100005203620481"},"message":"obgd gilmar :)","can_remove":false,"created_time":"2013-02-06T19:08:04+0000","like_count":0,"user_likes":false},{"id":"100778500105604_1558","from":{"name":"Gilmar Brandao Brandao","id":"100000113847013"},"message":"d nada...mas vc \u00e9 mesmo ,vou mentir..rsrsrs","can_remove":false,"created_time":"2013-02-06T19:11:37+0000","like_count":1,"user_likes":false},{"id":"100778500105604_1560","from":{"name":"Danielle Alcantra","id":"100005203620481"},"message":"rs","can_remove":false,"created_time":"2013-02-06T19:13:55+0000","like_count":0,"user_likes":false},{"id":"100778500105604_3221","from":{"name":"Shirlene Anjos","id":"100004797821355"},"message":"vc \u00e9 muito bonita mesmo danielle...parab\u00e9ns","can_remove":false,"created_time":"2013-02-07T19:41:49+0000","like_count":0,"user_likes":false}],"paging":{"cursors":{"after":"NQ==","before":"MQ=="},"next":"https:\/\/graph.facebook.com\/100778500105604\/comments?access_token=AAACEdEose0cBAMYosNuQgnCMBhgO4meNR3qH1cjXNhenSu6GRD6HiTa20OCYdbn297Lf2pZALjodgovOYrfZB0K5KvL0ONYoSHKuOldxmnwN01tZBh8&limit=25&after=NQ\u00253D\u00253D"}}},{"id":"100829666767154","from":{"name":"Danielle Alcantra","id":"100005203620481"},"name":"\" Familia e amigos\" aq a divers\u00e3o \u00e9 garantida \u003C3","link":"http:\/\/www.facebook.com\/album.php?fbid=100829666767154&id=100005203620481&aid=1037","cover_photo":"100829690100485","count":5,"type":"normal","created_time":"2013-02-06T20:01:11+0000","updated_time":"2013-02-06T20:11:54+0000","can_upload":false,"likes":{"data":[{"id":"100002148141332","name":"Diego Proen\u00e7a Crespim"}],"paging":{"next":"https:\/\/graph.facebook.com\/100829666767154\/likes?access_token=AAACEdEose0cBAMYosNuQgnCMBhgO4meNR3qH1cjXNhenSu6GRD6HiTa20OCYdbn297Lf2pZALjodgovOYrfZB0K5KvL0ONYoSHKuOldxmnwN01tZBh8&limit=25&offset=25&__after_id=100002148141332"}}},{"id":"100288076821313","from":{"name":"Danielle Alcantra","id":"100005203620481"},"name":"Profile Pictures","link":"http:\/\/www.facebook.com\/album.php?fbid=100288076821313&id=100005203620481&aid=426","cover_photo":"100790106771110","count":4,"type":"profile","created_time":"2013-02-05T21:57:44+0000","updated_time":"2013-02-06T19:16:44+0000","can_upload":false},{"id":"100355173481270","from":{"name":"Danielle Alcantra","id":"100005203620481"},"name":"\"O Lado danielle da vida ;)","link":"http:\/\/www.facebook.com\/album.php?fbid=100355173481270&id=100005203620481&aid=529","cover_photo":"100355220147932","count":129,"type":"normal","created_time":"2013-02-06T02:22:14+0000","updated_time":"2013-02-06T03:00:12+0000","can_upload":false,"likes":{"data":[{"id":"100002148141332","name":"Diego Proen\u00e7a Crespim"},{"id":"100005075592372","name":"Marcio Junior"},{"id":"100003475622605","name":"Bruna Cristina da Silva"},{"id":"100002419976066","name":"Gabriel Mateus"},{"id":"100003233426662","name":"Dener Henrique"},{"id":"100002636164175","name":"Alam Soares"}],"paging":{"next":"https:\/\/graph.facebook.com\/100355173481270\/likes?access_token=AAACEdEose0cBAMYosNuQgnCMBhgO4meNR3qH1cjXNhenSu6GRD6HiTa20OCYdbn297Lf2pZALjodgovOYrfZB0K5KvL0ONYoSHKuOldxmnwN01tZBh8&limit=25&offset=25&__after_id=100002636164175"}},"comments":{"data":[{"id":"100355173481270_1094","from":{"name":"Dener Henrique","id":"100003233426662"},"message":"Linda de  mais ......","can_remove":false,"created_time":"2013-02-06T08:10:56+0000","like_count":1,"user_likes":false},{"id":"100355173481270_1251","from":{"name":"Danielle Alcantra","id":"100005203620481"},"message":"*-* obgd","can_remove":false,"created_time":"2013-02-06T13:48:44+0000","like_count":0,"user_likes":false},{"id":"100355173481270_1348","from":{"name":"Douglas William","id":"100003985818343"},"message":"linda","can_remove":false,"created_time":"2013-02-06T15:28:10+0000","like_count":1,"user_likes":false},{"id":"100355173481270_1508","from":{"name":"Danielle Alcantra","id":"100005203620481"},"message":"obgd Douglas *-*","can_remove":false,"created_time":"2013-02-06T18:26:54+0000","like_count":0,"user_likes":false},{"id":"100355173481270_16934","from":{"name":"Douglas William","id":"100003985818343"},"message":"denada sso falando a verdade linda","can_remove":false,"created_time":"2013-02-15T16:23:18+0000","like_count":0,"user_likes":false},{"id":"100355173481270_16937","from":{"name":"Vitor Paulino","id":"100004125573338"},"message":"Linda","can_remove":false,"created_time":"2013-02-15T16:25:08+0000","like_count":0,"user_likes":false}],"paging":{"cursors":{"after":"Ng==","before":"MQ=="},"next":"https:\/\/graph.facebook.com\/100355173481270\/comments?access_token=AAACEdEose0cBAMYosNuQgnCMBhgO4meNR3qH1cjXNhenSu6GRD6HiTa20OCYdbn297Lf2pZALjodgovOYrfZB0K5KvL0ONYoSHKuOldxmnwN01tZBh8&limit=25&after=Ng\u00253D\u00253D"}}},{"id":"100306153486172","from":{"name":"Danielle Alcantra","id":"100005203620481"},"name":"Cover Photos","link":"http:\/\/www.facebook.com\/album.php?fbid=100306153486172&id=100005203620481&aid=452","cover_photo":"100306393486148","count":2,"type":"normal","created_time":"2013-02-05T23:35:28+0000","updated_time":"2013-02-05T23:36:38+0000","can_upload":false,"comments":{"data":[{"id":"100306153486172_10624","from":{"name":"Igor Ferreira","id":"100003106357309"},"message":"Comooooooo vc e linda kkkkkk seus olhos azuz penetro meu coracao","can_remove":false,"created_time":"2013-02-12T19:05:38+0000","like_count":1,"user_likes":false}],"paging":{"cursors":{"after":"MQ==","before":"MQ=="},"next":"https:\/\/graph.facebook.com\/100306153486172\/comments?access_token=AAACEdEose0cBAMYosNuQgnCMBhgO4meNR3qH1cjXNhenSu6GRD6HiTa20OCYdbn297Lf2pZALjodgovOYrfZB0K5KvL0ONYoSHKuOldxmnwN01tZBh8&limit=25&after=MQ\u00253D\u00253D"}}},{"id":"100278840155570","from":{"name":"Danielle Alcantra","id":"100005203620481"},"name":"minhas fotinhas.. tiradas pelo meu pai! com o seu novo trabalho.","description":"meu pai semp arrasa.. e eu tbm rs :P","link":"http:\/\/www.facebook.com\/album.php?fbid=100278840155570&id=100005203620481&aid=403","cover_photo":"100278976822223","count":86,"type":"normal","created_time":"2013-02-05T21:24:40+0000","updated_time":"2013-02-05T23:45:37+0000","can_upload":false,"likes":{"data":[{"id":"100005075592372","name":"Marcio Junior"},{"id":"100003233426662","name":"Dener Henrique"}],"paging":{"next":"https:\/\/graph.facebook.com\/100278840155570\/likes?access_token=AAACEdEose0cBAMYosNuQgnCMBhgO4meNR3qH1cjXNhenSu6GRD6HiTa20OCYdbn297Lf2pZALjodgovOYrfZB0K5KvL0ONYoSHKuOldxmnwN01tZBh8&limit=25&offset=25&__after_id=100003233426662"}},"comments":{"data":[{"id":"100278840155570_794","from":{"name":"Paulinho Fernando","id":"1847121449"},"message":"Fake!","can_remove":false,"created_time":"2013-02-05T23:25:38+0000","like_count":1,"user_likes":false},{"id":"100278840155570_804","from":{"name":"Danielle Alcantra","id":"100005203620481"},"message":"aai como vc \u00e9 engra\u00e7adinho neh paulinho seu bobo! :P","can_remove":false,"created_time":"2013-02-05T23:42:15+0000","like_count":0,"user_likes":false},{"id":"100278840155570_805","from":{"name":"Danielle Alcantra","id":"100005203620481"},"message":"te adoro!","can_remove":false,"created_time":"2013-02-05T23:42:25+0000","like_count":0,"user_likes":false}],"paging":{"cursors":{"after":"Mw==","before":"MQ=="},"next":"https:\/\/graph.facebook.com\/100278840155570\/comments?access_token=AAACEdEose0cBAMYosNuQgnCMBhgO4meNR3qH1cjXNhenSu6GRD6HiTa20OCYdbn297Lf2pZALjodgovOYrfZB0K5KvL0ONYoSHKuOldxmnwN01tZBh8&limit=25&after=Mw\u00253D\u00253D"}}}],"paging":{"cursors":{"after":"MTAwMjc4ODQwMTU1NTcw","before":"MTAwNzc4NTAwMTA1NjA0"}}}