{"data":[{"id":"163257337063217","from":{"name":"Century Durand Deeb","id":"100001368563357"},"name":"FOR SALE..3 bed\/2 bath..Villa Homes at the Moors..$155K...Hialeah","link":"http:\/\/www.facebook.com\/album.php?fbid=163257337063217&id=100001368563357&aid=43270","cover_photo":"163257343729883","count":12,"type":"normal","created_time":"2011-03-27T01:03:40+0000","updated_time":"2011-03-27T01:06:47+0000","can_upload":false},{"id":"163256217063329","from":{"name":"Century Durand Deeb","id":"100001368563357"},"name":"FOR SALE. 2 bed\/ 2 bath $160K ---32Ave and 1st---Regular Sale","link":"http:\/\/www.facebook.com\/album.php?fbid=163256217063329&id=100001368563357&aid=43269","cover_photo":"163256223729995","count":10,"type":"normal","created_time":"2011-03-27T00:55:40+0000","updated_time":"2011-03-27T00:57:40+0000","can_upload":false},{"id":"150238241698460","from":{"name":"Century Durand Deeb","id":"100001368563357"},"name":"FOR SALE,3 B, 2 Bth, $207K- Will probably go for $190K,.134Av, 26","location":"134 Ave and 26.....","link":"http:\/\/www.facebook.com\/album.php?fbid=150238241698460&id=100001368563357&aid=38130","cover_photo":"150238251698459","count":12,"type":"normal","created_time":"2011-01-27T22:29:56+0000","updated_time":"2011-01-27T22:34:49+0000","can_upload":false,"likes":{"data":[{"id":"1637887066","name":"Rigo Pjr"}],"paging":{"next":"https:\/\/graph.facebook.com\/150238241698460\/likes?access_token=AAACEdEose0cBAMYosNuQgnCMBhgO4meNR3qH1cjXNhenSu6GRD6HiTa20OCYdbn297Lf2pZALjodgovOYrfZB0K5KvL0ONYoSHKuOldxmnwN01tZBh8&limit=25&offset=25&__after_id=1637887066"}},"comments":{"data":[{"id":"150238241698460_1448299","from":{"name":"Jenny Watson","id":"1269688536"},"message":"What's the sq ft my realtor ?","can_remove":false,"created_time":"2011-01-28T01:20:05+0000","like_count":0,"user_likes":false}],"paging":{"cursors":{"after":"MQ==","before":"MQ=="},"next":"https:\/\/graph.facebook.com\/150238241698460\/comments?access_token=AAACEdEose0cBAMYosNuQgnCMBhgO4meNR3qH1cjXNhenSu6GRD6HiTa20OCYdbn297Lf2pZALjodgovOYrfZB0K5KvL0ONYoSHKuOldxmnwN01tZBh8&limit=25&after=MQ\u00253D\u00253D"}}},{"id":"139243466131271","from":{"name":"Century Durand Deeb","id":"100001368563357"},"name":"For Sale,,, 1\/1.5..$289K,,. 5601 Collins Ave. The Pavilion Condo","location":"The Pavilion Condo","link":"http:\/\/www.facebook.com\/album.php?fbid=139243466131271&id=100001368563357&aid=33075","cover_photo":"139243482797936","count":16,"type":"normal","created_time":"2010-12-13T17:18:39+0000","updated_time":"2010-12-13T17:20:21+0000","can_upload":false},{"id":"138330366222581","from":{"name":"Century Durand Deeb","id":"100001368563357"},"name":"For Sale, 3000 Coral Way,$159K,1\/1, The Aston","location":"The Aston","link":"http:\/\/www.facebook.com\/album.php?fbid=138330366222581&id=100001368563357&aid=32772","cover_photo":"138330386222579","count":8,"type":"normal","created_time":"2010-12-09T17:53:02+0000","updated_time":"2010-12-09T17:54:00+0000","can_upload":false},{"id":"138139926241625","from":{"name":"Century Durand Deeb","id":"100001368563357"},"name":"For Sale,9055 S Dadeland, $198K, 1\/1 Metropolis I at Dadeland","location":"Metropolis I at Dadeland","link":"http:\/\/www.facebook.com\/album.php?fbid=138139926241625&id=100001368563357&aid=32710","cover_photo":"138139939574957","count":13,"type":"normal","created_time":"2010-12-08T20:54:56+0000","updated_time":"2010-12-08T20:56:27+0000","can_upload":false},{"id":"138139349575016","from":{"name":"Century Durand Deeb","id":"100001368563357"},"name":"For SALE, 72 Ave SW 90 St, $219K, 1\/1, Downtown Dadeland,","location":"Downtown Dadeland","link":"http:\/\/www.facebook.com\/album.php?fbid=138139349575016&id=100001368563357&aid=32709","cover_photo":"138139356241682","count":8,"type":"normal","created_time":"2010-12-08T20:52:14+0000","updated_time":"2010-12-08T20:53:32+0000","can_upload":false},{"id":"138138782908406","from":{"name":"Century Durand Deeb","id":"100001368563357"},"name":"83 Street and 72 Ave ,$229K 1bed\/1bath, Colonade At Dadeland","location":"Colonade at Dadeland","link":"http:\/\/www.facebook.com\/album.php?fbid=138138782908406&id=100001368563357&aid=32707","cover_photo":"138138802908404","count":15,"type":"normal","created_time":"2010-12-08T20:49:43+0000","updated_time":"2010-12-08T20:51:05+0000","can_upload":false},{"id":"136986503023634","from":{"name":"Century Durand Deeb","id":"100001368563357"},"name":"For Sale, $190K, Hialeah, 3bed 2 bath, 7th Ave and 35","location":"Hialeah","link":"http:\/\/www.facebook.com\/album.php?fbid=136986503023634&id=100001368563357&aid=32328","cover_photo":"136986513023633","count":11,"type":"normal","created_time":"2010-12-03T17:27:52+0000","updated_time":"2010-12-03T17:29:16+0000","can_upload":false},{"id":"135010179887933","from":{"name":"Century Durand Deeb","id":"100001368563357"},"name":"FOR SALE, $80K , 3 Bed-1 Bath, 155ave sw102ct","link":"http:\/\/www.facebook.com\/album.php?fbid=135010179887933&id=100001368563357&aid=31798","cover_photo":"135010216554596","count":3,"type":"normal","created_time":"2010-11-24T17:03:11+0000","updated_time":"2010-11-24T17:04:11+0000","can_upload":false},{"id":"133503173371967","from":{"name":"Century Durand Deeb","id":"100001368563357"},"name":"FOR SALE,, $44,900,, CASH--4bed\/3bath","location":"NW 2 Ave and 82 Terrace","link":"http:\/\/www.facebook.com\/album.php?fbid=133503173371967&id=100001368563357&aid=31357","cover_photo":"133503183371966","count":11,"type":"normal","created_time":"2010-11-17T19:16:07+0000","updated_time":"2010-11-17T19:19:03+0000","can_upload":false},{"id":"132356323486652","from":{"name":"Century Durand Deeb","id":"100001368563357"},"name":"FOR SALE, Approved Short Sale 180K,","description":"3 bed\/ 2 bath-1710 sqft...1 car Garage with 2 parking spaces. Corner.","location":"152ave and 31 street","link":"http:\/\/www.facebook.com\/album.php?fbid=132356323486652&id=100001368563357&aid=31023","cover_photo":"132356350153316","count":12,"type":"normal","created_time":"2010-11-12T20:19:22+0000","updated_time":"2010-11-12T20:24:53+0000","can_upload":false},{"id":"125710460817905","from":{"name":"Century Durand Deeb","id":"100001368563357"},"name":"For SALE,, $150K","description":"4 Bed\/ 2 Bath,,,,Extra Side Room,Eff.","location":"11023 SW 167 Street","link":"http:\/\/www.facebook.com\/album.php?fbid=125710460817905&id=100001368563357&aid=29155","cover_photo":"126369640751987","count":21,"type":"normal","created_time":"2010-10-15T17:27:15+0000","updated_time":"2010-10-18T15:37:24+0000","can_upload":false},{"id":"125708554151429","from":{"name":"Century Durand Deeb","id":"100001368563357"},"name":"For SALE,, $950,000","description":"11,880Sqft Lot, 8,626 Sqft Air Conditioned, Retail...","location":"1500 NW 36 Street","link":"http:\/\/www.facebook.com\/album.php?fbid=125708554151429&id=100001368563357&aid=29154","cover_photo":"125709214151363","count":14,"type":"normal","created_time":"2010-10-15T17:17:31+0000","updated_time":"2010-11-09T21:28:32+0000","can_upload":false},{"id":"125504390838512","from":{"name":"Century Durand Deeb","id":"100001368563357"},"name":"For SALE","location":"Old Cutler Bay,,$2.9M","link":"http:\/\/www.facebook.com\/album.php?fbid=125504390838512&id=100001368563357&aid=29100","cover_photo":"125504450838506","count":14,"type":"normal","created_time":"2010-10-14T20:01:18+0000","updated_time":"2010-10-14T20:03:06+0000","can_upload":false,"likes":{"data":[{"id":"847954896","name":"Ladyj Jennifer"}],"paging":{"next":"https:\/\/graph.facebook.com\/125504390838512\/likes?access_token=AAACEdEose0cBAMYosNuQgnCMBhgO4meNR3qH1cjXNhenSu6GRD6HiTa20OCYdbn297Lf2pZALjodgovOYrfZB0K5KvL0ONYoSHKuOldxmnwN01tZBh8&limit=25&offset=25&__after_id=847954896"}},"comments":{"data":[{"id":"125504390838512_712697","from":{"name":"Ladyj Jennifer","id":"847954896"},"message":"My future home.... ;)","can_remove":false,"created_time":"2010-10-14T20:07:22+0000","like_count":0,"user_likes":false},{"id":"125504390838512_712753","from":{"name":"Jackie Lora","id":"657640763"},"message":"OK I'LL TAKE IT LOL","can_remove":false,"created_time":"2010-10-14T20:14:16+0000","like_count":0,"user_likes":false},{"id":"125504390838512_713849","from":{"name":"Lucy Michelle Torres","id":"1448952289"},"message":"Love.....so pretty! I will take it if not taken!","can_remove":false,"created_time":"2010-10-14T23:33:22+0000","like_count":0,"user_likes":false}],"paging":{"cursors":{"after":"Mw==","before":"MQ=="},"next":"https:\/\/graph.facebook.com\/125504390838512\/comments?access_token=AAACEdEose0cBAMYosNuQgnCMBhgO4meNR3qH1cjXNhenSu6GRD6HiTa20OCYdbn297Lf2pZALjodgovOYrfZB0K5KvL0ONYoSHKuOldxmnwN01tZBh8&limit=25&after=Mw\u00253D\u00253D"}}},{"id":"125258124196472","from":{"name":"Century Durand Deeb","id":"100001368563357"},"name":"For SALE $130K","location":"4500 E 8th Lane,,, Hialeah","link":"http:\/\/www.facebook.com\/album.php?fbid=125258124196472&id=100001368563357&aid=29035","cover_photo":"125259167529701","count":17,"type":"normal","created_time":"2010-10-13T18:58:39+0000","updated_time":"2010-10-13T19:05:37+0000","can_upload":false},{"id":"125230740865877","from":{"name":"Century Durand Deeb","id":"100001368563357"},"name":"For SALE","location":"6755 SW 75 Avenue","link":"http:\/\/www.facebook.com\/album.php?fbid=125230740865877&id=100001368563357&aid=29027","cover_photo":"125231600865791","count":49,"type":"normal","created_time":"2010-10-13T16:44:30+0000","updated_time":"2010-10-13T16:55:19+0000","can_upload":false,"likes":{"data":[{"id":"847954896","name":"Ladyj Jennifer"}],"paging":{"next":"https:\/\/graph.facebook.com\/125230740865877\/likes?access_token=AAACEdEose0cBAMYosNuQgnCMBhgO4meNR3qH1cjXNhenSu6GRD6HiTa20OCYdbn297Lf2pZALjodgovOYrfZB0K5KvL0ONYoSHKuOldxmnwN01tZBh8&limit=25&offset=25&__after_id=847954896"}}}],"paging":{"cursors":{"after":"MTI1MjMwNzQwODY1ODc3","before":"MTYzMjU3MzM3MDYzMjE3"},"previous":"https:\/\/graph.facebook.com\/100001368563357\/albums?limit=500&access_token=AAACEdEose0cBAMYosNuQgnCMBhgO4meNR3qH1cjXNhenSu6GRD6HiTa20OCYdbn297Lf2pZALjodgovOYrfZB0K5KvL0ONYoSHKuOldxmnwN01tZBh8&before=MTYzMjU3MzM3MDYzMjE3"}}