{"data":[{"id":"207635309312369","from":{"name":"Kristina Fichtner","id":"100001977037728"},"name":"Mobile Uploads","link":"http:\/\/www.facebook.com\/album.php?fbid=207635309312369&id=100001977037728&aid=50314","cover_photo":"434732219936009","count":44,"type":"mobile","created_time":"2011-11-28T16:36:20+0000","updated_time":"2013-03-06T21:06:00+0000","can_upload":false},{"id":"277928152283084","from":{"name":"Kristina Fichtner","id":"100001977037728"},"name":"Cover Photos","link":"http:\/\/www.facebook.com\/album.php?fbid=277928152283084&id=100001977037728&aid=65419","cover_photo":"434075353335029","count":6,"type":"normal","created_time":"2012-03-25T23:22:09+0000","updated_time":"2013-03-05T16:35:25+0000","can_upload":false},{"id":"103902266352341","from":{"name":"Kristina Fichtner","id":"100001977037728"},"name":"Profile Pictures","link":"http:\/\/www.facebook.com\/album.php?fbid=103902266352341&id=100001977037728&aid=5977","cover_photo":"431089223633642","count":9,"type":"profile","created_time":"2011-01-22T10:46:09+0000","updated_time":"2013-02-26T22:25:37+0000","can_upload":false},{"id":"368696379872927","from":{"name":"Kristina Fichtner","id":"100001977037728"},"name":"Index :)","link":"http:\/\/www.facebook.com\/album.php?fbid=368696379872927&id=100001977037728&aid=86432","cover_photo":"368697149872850","count":31,"type":"normal","created_time":"2012-10-03T13:32:05+0000","updated_time":"2012-10-03T14:21:15+0000","can_upload":false,"likes":{"data":[{"id":"100002832769956","name":"Daniela Hillermann"},{"id":"100002021540043","name":"Dirk Voss-Teupe"}],"paging":{"next":"https:\/\/graph.facebook.com\/368696379872927\/likes?access_token=AAACEdEose0cBAPVQ7YJOMKWBwCSVECk5Ch2gIRkP9Om3SZA1rZCyMrcLkc1fEHbdpgVaJ4FvKydFQVcTwJQPZCpgbr3hhBZCdK3O7OiUmUhpKNzDJ138&limit=25&offset=25&__after_id=100002021540043"}}},{"id":"332483420160890","from":{"name":"Kristina Fichtner","id":"100001977037728"},"name":"alles m\u00f6gliche...","link":"http:\/\/www.facebook.com\/album.php?fbid=332483420160890&id=100001977037728&aid=76055","cover_photo":"337380086337890","count":22,"type":"normal","created_time":"2012-06-24T18:58:44+0000","updated_time":"2013-02-17T16:13:18+0000","can_upload":false},{"id":"332487896827109","from":{"name":"Kristina Fichtner","id":"100001977037728"},"name":"der kleine Alwin","description":"Mein kleiner Kater... \u003C3","link":"http:\/\/www.facebook.com\/album.php?fbid=332487896827109&id=100001977037728&aid=76056","cover_photo":"332489446826954","count":6,"type":"normal","created_time":"2012-06-24T19:09:23+0000","updated_time":"2012-06-24T19:22:57+0000","can_upload":false,"likes":{"data":[{"id":"1378733577","name":"Katharina Glaa\u00df"},{"id":"100002685500378","name":"Mel Anie"},{"id":"100001334378387","name":"Vanessa Jost"},{"id":"100002526123458","name":"Rene Lammers"},{"id":"1313618358","name":"Petra Hummelt"},{"id":"100001580692904","name":"Sarah Verbocket"},{"id":"100000734019214","name":"Mareen Gro\u00dfe Lembeck"}],"paging":{"next":"https:\/\/graph.facebook.com\/332487896827109\/likes?access_token=AAACEdEose0cBAPVQ7YJOMKWBwCSVECk5Ch2gIRkP9Om3SZA1rZCyMrcLkc1fEHbdpgVaJ4FvKydFQVcTwJQPZCpgbr3hhBZCdK3O7OiUmUhpKNzDJ138&limit=25&offset=25&__after_id=100000734019214"}},"comments":{"data":[{"id":"332487896827109_2219941","from":{"name":"Alexander Bj\u00f6rn Wessels","id":"100002892533727"},"message":"k\u00e4\u00e4\u00e4\u00e4tzchen","can_remove":false,"created_time":"2012-06-24T19:33:16+0000","like_count":0,"user_likes":false},{"id":"332487896827109_2219961","from":{"name":"Kristina Fichtner","id":"100001977037728"},"message":":D","can_remove":false,"created_time":"2012-06-24T19:41:46+0000","like_count":0,"user_likes":false},{"id":"332487896827109_2220053","from":{"name":"Insa Harengerd","id":"1495336305"},"message":"alwin haha s\u00fc\u00df:D","can_remove":false,"created_time":"2012-06-24T20:15:14+0000","like_count":0,"user_likes":false},{"id":"332487896827109_2220054","from":{"name":"Kristina Fichtner","id":"100001977037728"},"message":":D","can_remove":false,"created_time":"2012-06-24T20:15:38+0000","like_count":0,"user_likes":false},{"id":"332487896827109_2220155","from":{"name":"Chantal Borghoff","id":"100000894507702"},"message":"Wie s\u00fc\u00df","can_remove":false,"created_time":"2012-06-24T20:57:40+0000","like_count":0,"user_likes":false},{"id":"332487896827109_2222461","from":{"name":"Katharina Glaa\u00df","id":"1378733577"},"message":"ohhhhhhhhhh ......voll s\u00fcss.....ein neuer kleiner dicker Prinz :)","can_remove":false,"created_time":"2012-06-25T15:21:35+0000","like_count":0,"user_likes":false}],"paging":{"next":"https:\/\/graph.facebook.com\/332487896827109\/comments?access_token=AAACEdEose0cBAPVQ7YJOMKWBwCSVECk5Ch2gIRkP9Om3SZA1rZCyMrcLkc1fEHbdpgVaJ4FvKydFQVcTwJQPZCpgbr3hhBZCdK3O7OiUmUhpKNzDJ138&limit=25&offset=25&__after_id=332487896827109_2222461"}}},{"id":"104704869605414","from":{"name":"Kristina Fichtner","id":"100001977037728"},"name":"my friends & me","link":"http:\/\/www.facebook.com\/album.php?fbid=104704869605414&id=100001977037728&aid=7260","cover_photo":"104704906272077","count":43,"type":"normal","created_time":"2011-01-24T23:01:35+0000","updated_time":"2013-02-17T16:08:03+0000","can_upload":false},{"id":"216574775085089","from":{"name":"Kristina Fichtner","id":"100001977037728"},"name":"meine s\u00fc\u00dfen M\u00e4use :-D","link":"http:\/\/www.facebook.com\/album.php?fbid=216574775085089&id=100001977037728&aid=51608","cover_photo":"216574961751737","count":11,"type":"normal","created_time":"2011-12-14T20:52:16+0000","updated_time":"2011-12-14T20:58:36+0000","can_upload":false,"likes":{"data":[{"id":"100002079410423","name":"Daniela Bruske"},{"id":"100002120447797","name":"Manuela van der Wals"}],"paging":{"next":"https:\/\/graph.facebook.com\/216574775085089\/likes?access_token=AAACEdEose0cBAPVQ7YJOMKWBwCSVECk5Ch2gIRkP9Om3SZA1rZCyMrcLkc1fEHbdpgVaJ4FvKydFQVcTwJQPZCpgbr3hhBZCdK3O7OiUmUhpKNzDJ138&limit=25&offset=25&__after_id=100002120447797"}},"comments":{"data":[{"id":"216574775085089_1472371","from":{"name":"Alexander Specht","id":"100001683617744"},"message":"Sooooo viele neue Gesichter - und kein einziger Kerl :-D","can_remove":false,"created_time":"2011-12-14T21:15:52+0000","like_count":2,"user_likes":false},{"id":"216574775085089_2627109","from":{"name":"Ly Di","id":"100001485443770"},"message":"Mensch, vermisse euch ja schon a bissel... Ganz liebe Gr\u00fc\u00dfe an die, die mich noch kennen :-)","can_remove":false,"created_time":"2012-10-23T16:08:26+0000","like_count":0,"user_likes":false},{"id":"216574775085089_3019316","from":{"name":"Petra Hummelt","id":"1313618358"},"message":"ich bin ja garnicht dabei.... ;)","can_remove":false,"created_time":"2013-02-17T17:08:45+0000","like_count":0,"user_likes":false},{"id":"216574775085089_3019436","from":{"name":"Kristina Fichtner","id":"100001977037728"},"message":"doch hab auch ein foto von dir aber da schaust du weg :( deswegen hab ich das nicht reingestellt :(","can_remove":false,"created_time":"2013-02-17T17:44:12+0000","like_count":1,"user_likes":false},{"id":"216574775085089_3020218","from":{"name":"Insa Harengerd","id":"1495336305"},"message":"Mannoo ich vermiss euch!!:(","can_remove":false,"created_time":"2013-02-17T22:07:55+0000","like_count":0,"user_likes":false},{"id":"216574775085089_3022030","from":{"name":"Ly Di","id":"100001485443770"},"message":"...ich erst :-\/","can_remove":false,"created_time":"2013-02-18T14:08:10+0000","like_count":0,"user_likes":false}],"paging":{"next":"https:\/\/graph.facebook.com\/216574775085089\/comments?access_token=AAACEdEose0cBAPVQ7YJOMKWBwCSVECk5Ch2gIRkP9Om3SZA1rZCyMrcLkc1fEHbdpgVaJ4FvKydFQVcTwJQPZCpgbr3hhBZCdK3O7OiUmUhpKNzDJ138&limit=25&offset=25&__after_id=216574775085089_3022030"}}}]}