{"data":[{"id":"120547418086348","from":{"name":"Jeannette Hasselberg","id":"100003932703342"},"name":"Cover Photos","link":"http:\/\/www.facebook.com\/album.php?fbid=120547418086348&id=100003932703342&aid=17907","cover_photo":"226243530850069","count":45,"type":"normal","created_time":"2012-06-20T13:46:28+0000","updated_time":"2013-04-10T16:37:13+0000","can_upload":false,"likes":{"data":[{"id":"100000260295685","name":"Svetlana Baumtrok"}],"paging":{"next":"https:\/\/graph.facebook.com\/120547418086348\/likes?access_token=AAACEdEose0cBAMYosNuQgnCMBhgO4meNR3qH1cjXNhenSu6GRD6HiTa20OCYdbn297Lf2pZALjodgovOYrfZB0K5KvL0ONYoSHKuOldxmnwN01tZBh8&limit=25&offset=25&__after_id=100000260295685"}}},{"id":"217809138360175","from":{"name":"Jeannette Hasselberg","id":"100003932703342"},"name":"Timeline Photos","link":"http:\/\/www.facebook.com\/album.php?fbid=217809138360175&id=100003932703342&aid=1073741825","cover_photo":"225561964251559","count":18,"type":"wall","created_time":"2013-03-19T11:51:42+0000","updated_time":"2013-04-08T16:45:34+0000","can_upload":false},{"id":"101546673319756","from":{"name":"Jeannette Hasselberg","id":"100003932703342"},"name":"Profile Pictures","link":"http:\/\/www.facebook.com\/album.php?fbid=101546673319756&id=100003932703342&aid=1511","cover_photo":"224017844405971","count":16,"type":"profile","created_time":"2012-05-21T08:49:29+0000","updated_time":"2013-04-03T21:34:05+0000","can_upload":false},{"id":"143239005817189","from":{"name":"Jeannette Hasselberg","id":"100003932703342"},"name":"Mobile Uploads","link":"http:\/\/www.facebook.com\/album.php?fbid=143239005817189&id=100003932703342&aid=31893","cover_photo":"194694730671616","count":8,"type":"mobile","created_time":"2012-08-27T18:40:57+0000","updated_time":"2013-02-05T18:28:26+0000","can_upload":false}],"paging":{"cursors":{"after":"MTQzMjM5MDA1ODE3MTg5","before":"MTIwNTQ3NDE4MDg2MzQ4"}}}