{"data":[{"id":"236950999734947","from":{"name":"Jessy TheHairstylist","id":"100002601471633"},"name":"Instagram Photos","link":"http:\/\/www.facebook.com\/album.php?fbid=236950999734947&id=100002601471633&aid=51419","cover_photo":"422567397839972","count":2122,"type":"app","created_time":"2012-03-15T15:44:51+0000","updated_time":"2013-04-16T02:32:54+0000","can_upload":false,"likes":{"data":[{"id":"100001681971142","name":"Edith Blank"},{"id":"1153189680","name":"Yolied Marichal"},{"id":"100000490883137","name":"Sylvia Elena Tapia"}],"paging":{"next":"https:\/\/graph.facebook.com\/236950999734947\/likes?access_token=AAACEdEose0cBAMYosNuQgnCMBhgO4meNR3qH1cjXNhenSu6GRD6HiTa20OCYdbn297Lf2pZALjodgovOYrfZB0K5KvL0ONYoSHKuOldxmnwN01tZBh8&limit=25&offset=25&__after_id=100000490883137"}}},{"id":"231323820297665","from":{"name":"Jessy TheHairstylist","id":"100002601471633"},"name":"Mobile Uploads","link":"http:\/\/www.facebook.com\/album.php?fbid=231323820297665&id=100002601471633&aid=50087","cover_photo":"421966194566759","count":119,"type":"mobile","created_time":"2012-03-06T04:29:50+0000","updated_time":"2013-04-14T13:52:22+0000","can_upload":false},{"id":"106157536147628","from":{"name":"Jessy TheHairstylist","id":"100002601471633"},"name":"Timeline Photos","link":"http:\/\/www.facebook.com\/album.php?fbid=106157536147628&id=100002601471633&aid=12857","cover_photo":"356874524409260","count":23,"type":"wall","created_time":"2011-07-10T04:01:08+0000","updated_time":"2013-03-07T14:54:01+0000","can_upload":false},{"id":"239921819437865","from":{"name":"Jessy TheHairstylist","id":"100002601471633"},"name":"Cover Photos","link":"http:\/\/www.facebook.com\/album.php?fbid=239921819437865&id=100002601471633&aid=52190","cover_photo":"400461566717222","count":4,"type":"normal","created_time":"2012-03-20T13:52:13+0000","updated_time":"2013-02-25T23:25:42+0000","can_upload":false},{"id":"105391346224247","from":{"name":"Jessy TheHairstylist","id":"100002601471633"},"name":"Profile Pictures","link":"http:\/\/www.facebook.com\/album.php?fbid=105391346224247&id=100002601471633&aid=11108","cover_photo":"394875860609126","count":28,"type":"profile","created_time":"2011-07-09T01:36:27+0000","updated_time":"2013-02-14T05:08:47+0000","can_upload":false},{"id":"263918723704841","from":{"name":"Jessy TheHairstylist","id":"100002601471633"},"name":"foursquare Photos","link":"http:\/\/www.facebook.com\/album.php?fbid=263918723704841&id=100002601471633&aid=57463","cover_photo":"393493664080679","count":11,"type":"app","created_time":"2012-04-25T17:52:46+0000","updated_time":"2013-02-11T17:23:40+0000","can_upload":false},{"id":"105439976219384","from":{"name":"Jessy TheHairstylist","id":"100002601471633"},"name":"My Passion-Hairstyles","link":"http:\/\/www.facebook.com\/album.php?fbid=105439976219384&id=100002601471633&aid=11206","cover_photo":"362855410477838","count":253,"type":"normal","created_time":"2011-07-09T03:18:33+0000","updated_time":"2013-02-10T18:20:41+0000","can_upload":false,"likes":{"data":[{"id":"100002601471633","name":"Jessy TheHairstylist"},{"id":"100001783309057","name":"Freddy Davila"},{"id":"100001285882990","name":"Lauren Torres"},{"id":"1823386013","name":"Luis Chilly Arguello"},{"id":"1319118828","name":"Zenia Cabrera"},{"id":"100003004436588","name":"Lauren Florit"},{"id":"1658710875","name":"Rebecca Abreu"},{"id":"1562652705","name":"Melissa Calixtro"},{"id":"1384031451","name":"Nery Armenteros"},{"id":"100002767684450","name":"Yuliet Martinez"},{"id":"100001998572058","name":"Cranklifester Mtb"},{"id":"669118422","name":"Tina Sunkist Todd"},{"id":"1590457078","name":"Jessy Chavez"},{"id":"100000824360605","name":"Amanda Marie Napoles-Carmona"},{"id":"100003116831070","name":"Mary Ann Lopez"},{"id":"1033561360","name":"Erika P Pastor Palmieri"},{"id":"673479084","name":"Evelyn Castro"},{"id":"100001323865088","name":"Carlito Collado"},{"id":"1444414768","name":"Jessica Marie"},{"id":"1513933566","name":"Nakia Arrington"},{"id":"100000834857245","name":"Natalia Santiago"},{"id":"100002851670759","name":"Aneshia TheStylist"},{"id":"100001520006893","name":"Robbie Johnston"},{"id":"100001571142274","name":"Pinky Unstopable"},{"id":"100001302540077","name":"GiGi Gonzalez"}],"paging":{"next":"https:\/\/graph.facebook.com\/105439976219384\/likes?access_token=AAACEdEose0cBAMYosNuQgnCMBhgO4meNR3qH1cjXNhenSu6GRD6HiTa20OCYdbn297Lf2pZALjodgovOYrfZB0K5KvL0ONYoSHKuOldxmnwN01tZBh8&limit=25&offset=25&__after_id=100001302540077"}},"comments":{"data":[{"id":"105439976219384_122304","from":{"name":"Magda Pe\u00f1a","id":"544846697"},"message":"Nice, maybe oneday you can colour mine. Blonde highlights and blonde low lights with red highlights... I'ma fan of 3 tones.","can_remove":false,"created_time":"2011-08-05T04:19:14+0000","like_count":1,"user_likes":false},{"id":"105439976219384_123434","from":{"name":"Jessy TheHairstylist","id":"100002601471633"},"message":"I love it!! Whenever you want. Those colors look gorgeous together!! ","can_remove":false,"created_time":"2011-08-05T11:35:44+0000","like_count":1,"user_likes":false},{"id":"105439976219384_187992","from":{"name":"ChiNa Ridin Olo","id":"100000865327309"},"message":"Txt me ma","can_remove":false,"created_time":"2011-08-20T06:42:34+0000","like_count":0,"user_likes":false},{"id":"105439976219384_486392","from":{"name":"Nakia Arrington","id":"1513933566"},"message":"I miss yalllllllll!!!!!!!:(","can_remove":false,"created_time":"2011-10-26T00:09:25+0000","like_count":1,"user_likes":false},{"id":"105439976219384_1512013","from":{"name":"Melissa Calixtro","id":"1562652705"},"message":"Thank you so\tmuch I love it..","can_remove":false,"created_time":"2012-06-29T01:03:02+0000","like_count":1,"user_likes":false}],"paging":{"cursors":{"after":"NQ==","before":"MQ=="},"next":"https:\/\/graph.facebook.com\/105439976219384\/comments?access_token=AAACEdEose0cBAMYosNuQgnCMBhgO4meNR3qH1cjXNhenSu6GRD6HiTa20OCYdbn297Lf2pZALjodgovOYrfZB0K5KvL0ONYoSHKuOldxmnwN01tZBh8&limit=25&after=NQ\u00253D\u00253D"}}},{"id":"291148620981851","from":{"name":"Jessy TheHairstylist","id":"100002601471633"},"name":"Premiere Orlando Trip 2012","link":"http:\/\/www.facebook.com\/album.php?fbid=291148620981851&id=100002601471633&aid=62273","cover_photo":"291149107648469","count":111,"type":"normal","created_time":"2012-06-07T12:23:18+0000","updated_time":"2012-09-30T03:55:38+0000","can_upload":false,"likes":{"data":[{"id":"100002601471633","name":"Jessy TheHairstylist"},{"id":"100001044523486","name":"Irene Ortiz"},{"id":"673479084","name":"Evelyn Castro"},{"id":"100000500006640","name":"Frank White"},{"id":"100000273234396","name":"Orlando Diaz"}],"paging":{"next":"https:\/\/graph.facebook.com\/291148620981851\/likes?access_token=AAACEdEose0cBAMYosNuQgnCMBhgO4meNR3qH1cjXNhenSu6GRD6HiTa20OCYdbn297Lf2pZALjodgovOYrfZB0K5KvL0ONYoSHKuOldxmnwN01tZBh8&limit=25&offset=25&__after_id=100000273234396"}}},{"id":"300430243387022","from":{"name":"Jessy TheHairstylist","id":"100002601471633"},"name":"Muzy.com Mobile Photos","description":"Things I made on Muzy: http:\/\/muzy.com\/l\/us0ytkp1","link":"http:\/\/www.facebook.com\/album.php?fbid=300430243387022&id=100002601471633&aid=64278","cover_photo":"300430253387021","count":20,"type":"normal","created_time":"2012-06-25T12:07:33+0000","updated_time":"2012-07-23T18:08:25+0000","can_upload":false},{"id":"287092224720824","from":{"name":"Jessy TheHairstylist","id":"100002601471633"},"name":"Yelp Photos","link":"http:\/\/www.facebook.com\/album.php?fbid=287092224720824&id=100002601471633&aid=61559","cover_photo":"287092228054157","count":9,"type":"app","created_time":"2012-05-31T20:36:44+0000","updated_time":"2012-05-31T20:41:02+0000","can_upload":false,"likes":{"data":[{"id":"100002601471633","name":"Jessy TheHairstylist"},{"id":"60706872","name":"Miranda Nicole"}],"paging":{"next":"https:\/\/graph.facebook.com\/287092224720824\/likes?access_token=AAACEdEose0cBAMYosNuQgnCMBhgO4meNR3qH1cjXNhenSu6GRD6HiTa20OCYdbn297Lf2pZALjodgovOYrfZB0K5KvL0ONYoSHKuOldxmnwN01tZBh8&limit=25&offset=25&__after_id=60706872"}}},{"id":"269150836514963","from":{"name":"Jessy TheHairstylist","id":"100002601471633"},"name":"Fun at work!!!!","link":"http:\/\/www.facebook.com\/album.php?fbid=269150836514963&id=100002601471633&aid=58366","cover_photo":"269150883181625","count":11,"type":"normal","created_time":"2012-05-02T20:31:53+0000","updated_time":"2012-05-02T20:33:14+0000","can_upload":false,"likes":{"data":[{"id":"556983814","name":"Stephanie Espino"}],"paging":{"next":"https:\/\/graph.facebook.com\/269150836514963\/likes?access_token=AAACEdEose0cBAMYosNuQgnCMBhgO4meNR3qH1cjXNhenSu6GRD6HiTa20OCYdbn297Lf2pZALjodgovOYrfZB0K5KvL0ONYoSHKuOldxmnwN01tZBh8&limit=25&offset=25&__after_id=556983814"}},"comments":{"data":[{"id":"269150836514963_1313714","from":{"name":"Gaston de la Vega","id":"521713763"},"message":"you guys are always playing at work!! what fun!","can_remove":false,"created_time":"2012-05-02T21:14:45+0000","like_count":1,"user_likes":false},{"id":"269150836514963_1313802","from":{"name":"Jessy TheHairstylist","id":"100002601471633"},"message":"haha when you love what you do you never have to work one day of our life... or something like that lmao","can_remove":false,"created_time":"2012-05-02T21:51:36+0000","like_count":0,"user_likes":false},{"id":"269150836514963_1313919","from":{"name":"Cranklifester Mtb","id":"100001998572058"},"message":".....so you're on the clock?","can_remove":false,"created_time":"2012-05-02T22:47:17+0000","like_count":0,"user_likes":false},{"id":"269150836514963_1314759","from":{"name":"Jessy TheHairstylist","id":"100002601471633"},"message":"Yep! :) ","can_remove":false,"created_time":"2012-05-03T03:43:47+0000","like_count":0,"user_likes":false}],"paging":{"cursors":{"after":"NA==","before":"MQ=="},"next":"https:\/\/graph.facebook.com\/269150836514963\/comments?access_token=AAACEdEose0cBAMYosNuQgnCMBhgO4meNR3qH1cjXNhenSu6GRD6HiTa20OCYdbn297Lf2pZALjodgovOYrfZB0K5KvL0ONYoSHKuOldxmnwN01tZBh8&limit=25&after=NA\u00253D\u00253D"}}},{"id":"267929319970448","from":{"name":"Jessy TheHairstylist","id":"100002601471633"},"name":"Tweegram Photos","link":"http:\/\/www.facebook.com\/album.php?fbid=267929319970448&id=100002601471633&aid=58182","cover_photo":"267929339970446","count":1,"type":"app","created_time":"2012-05-01T01:57:54+0000","updated_time":"2012-05-01T01:57:56+0000","can_upload":false},{"id":"257607371002643","from":{"name":"Jessy TheHairstylist","id":"100002601471633"},"name":"Winwood photo shoot","description":"All hair and make up by Anthony G Salon, Photography by Miranda Nicole, Clothing by Electric boutique","link":"http:\/\/www.facebook.com\/album.php?fbid=257607371002643&id=100002601471633&aid=56190","cover_photo":"257608334335880","count":71,"type":"normal","created_time":"2012-04-16T21:33:34+0000","updated_time":"2012-04-24T20:20:46+0000","can_upload":false,"likes":{"data":[{"id":"694081998","name":"Frances Milian"},{"id":"673479084","name":"Evelyn Castro"},{"id":"1033561360","name":"Erika P Pastor Palmieri"},{"id":"1590457078","name":"Jessy Chavez"}],"paging":{"next":"https:\/\/graph.facebook.com\/257607371002643\/likes?access_token=AAACEdEose0cBAMYosNuQgnCMBhgO4meNR3qH1cjXNhenSu6GRD6HiTa20OCYdbn297Lf2pZALjodgovOYrfZB0K5KvL0ONYoSHKuOldxmnwN01tZBh8&limit=25&offset=25&__after_id=1590457078"}},"comments":{"data":[{"id":"257607371002643_1286934","from":{"name":"Juan David Garzon","id":"100002366095376"},"message":"hermosa me enamore","can_remove":false,"created_time":"2012-04-25T14:25:15+0000","like_count":0,"user_likes":false}],"paging":{"cursors":{"after":"MQ==","before":"MQ=="},"next":"https:\/\/graph.facebook.com\/257607371002643\/comments?access_token=AAACEdEose0cBAMYosNuQgnCMBhgO4meNR3qH1cjXNhenSu6GRD6HiTa20OCYdbn297Lf2pZALjodgovOYrfZB0K5KvL0ONYoSHKuOldxmnwN01tZBh8&limit=25&after=MQ\u00253D\u00253D"}}},{"id":"109833875779994","from":{"name":"Jessy TheHairstylist","id":"100002601471633"},"name":"Me and about me :)","link":"http:\/\/www.facebook.com\/album.php?fbid=109833875779994&id=100002601471633&aid=17193","cover_photo":"109834005779981","count":67,"type":"normal","created_time":"2011-07-16T02:24:57+0000","updated_time":"2012-04-22T23:50:15+0000","can_upload":false,"likes":{"data":[{"id":"100000500006640","name":"Frank White"},{"id":"100002597296270","name":"Boogs Styles"},{"id":"100001789329580","name":"Belkys Bergstrom"},{"id":"100000662472172","name":"Frank Velopro Rueda"},{"id":"1013164517","name":"Ralph Duran Pierluisi"},{"id":"100000095802217","name":"Tabbytha Machado"},{"id":"674225396","name":"Rafael Lorenzo"},{"id":"673479084","name":"Evelyn Castro"},{"id":"1513933566","name":"Nakia Arrington"},{"id":"748743862","name":"Tania P Palmieri"},{"id":"505605387","name":"Manny El Manisero Prieto"},{"id":"1033561360","name":"Erika P Pastor Palmieri"},{"id":"1203341805","name":"Jose Zhino Lopez"},{"id":"100001520006893","name":"Robbie Johnston"},{"id":"100000490883137","name":"Sylvia Elena Tapia"},{"id":"1646972357","name":"Jason Cantor"},{"id":"537154000","name":"Lazz Garcet"},{"id":"1365767876","name":"Hazel Sjb"},{"id":"100000273234396","name":"Orlando Diaz"},{"id":"100001242710071","name":"Rosario Hernandez"}],"paging":{"next":"https:\/\/graph.facebook.com\/109833875779994\/likes?access_token=AAACEdEose0cBAMYosNuQgnCMBhgO4meNR3qH1cjXNhenSu6GRD6HiTa20OCYdbn297Lf2pZALjodgovOYrfZB0K5KvL0ONYoSHKuOldxmnwN01tZBh8&limit=25&offset=25&__after_id=100001242710071"}},"comments":{"data":[{"id":"109833875779994_122287","from":{"name":"Magda Pe\u00f1a","id":"544846697"},"message":"Love your tattoos","can_remove":false,"created_time":"2011-08-05T04:15:23+0000","like_count":1,"user_likes":false},{"id":"109833875779994_123436","from":{"name":"Jessy TheHairstylist","id":"100002601471633"},"message":"Thank u! ","can_remove":false,"created_time":"2011-08-05T11:36:41+0000","like_count":0,"user_likes":false},{"id":"109833875779994_199240","from":{"name":"Noel E Manfut Jr.","id":"100002438963285"},"message":"Hmmmpt ... So Fin3 ;) ","can_remove":false,"created_time":"2011-08-22T21:57:26+0000","like_count":0,"user_likes":false},{"id":"109833875779994_199285","from":{"name":"Jessy TheHairstylist","id":"100002601471633"},"message":"Haha oh gosh ","can_remove":false,"created_time":"2011-08-22T22:06:45+0000","like_count":0,"user_likes":false},{"id":"109833875779994_369394","from":{"name":"Arlene Ham","id":"100000067811223"},"message":"u kinda look like kat von d....... lol","can_remove":false,"created_time":"2011-09-30T13:25:15+0000","like_count":0,"user_likes":false},{"id":"109833875779994_369674","from":{"name":"Robbie Johnston","id":"100001520006893"},"message":"Mwah !!!! :) lol yeah !!!!! ... Cool as !!!!! . __!","can_remove":false,"created_time":"2011-09-30T14:38:01+0000","like_count":1,"user_likes":false},{"id":"109833875779994_414983","from":{"name":"Jessy TheHairstylist","id":"100002601471633"},"message":"\u0040 Arlene that's so funny that's all I've heard this past weekend \n\u0040Robbie lmao I'm not sure what u said haha ;)","can_remove":false,"created_time":"2011-10-10T18:30:47+0000","like_count":0,"user_likes":false}],"paging":{"cursors":{"after":"Nw==","before":"MQ=="},"next":"https:\/\/graph.facebook.com\/109833875779994\/comments?access_token=AAACEdEose0cBAMYosNuQgnCMBhgO4meNR3qH1cjXNhenSu6GRD6HiTa20OCYdbn297Lf2pZALjodgovOYrfZB0K5KvL0ONYoSHKuOldxmnwN01tZBh8&limit=25&after=Nw\u00253D\u00253D"}}},{"id":"253262898103757","from":{"name":"Jessy TheHairstylist","id":"100002601471633"},"name":"Anthony G Salon Electric Boutique Photoshoot","description":"Electric Boutique photoshoot... Hair color, style, and make up done by Anthony G Salon Angels. Like what you see? Give us a call 3055599234","link":"http:\/\/www.facebook.com\/album.php?fbid=253262898103757&id=100002601471633&aid=55351","cover_photo":"253262934770420","count":45,"type":"normal","created_time":"2012-04-11T16:10:56+0000","updated_time":"2012-04-11T16:18:22+0000","can_upload":false,"likes":{"data":[{"id":"100002601471633","name":"Jessy TheHairstylist"},{"id":"1534290428","name":"Diana Argudo"}],"paging":{"next":"https:\/\/graph.facebook.com\/253262898103757\/likes?access_token=AAACEdEose0cBAMYosNuQgnCMBhgO4meNR3qH1cjXNhenSu6GRD6HiTa20OCYdbn297Lf2pZALjodgovOYrfZB0K5KvL0ONYoSHKuOldxmnwN01tZBh8&limit=25&offset=25&__after_id=1534290428"}}},{"id":"128050457291669","from":{"name":"Jessy TheHairstylist","id":"100002601471633"},"name":"Sebastian \u003C3","link":"http:\/\/www.facebook.com\/album.php?fbid=128050457291669&id=100002601471633&aid=24773","cover_photo":"128050633958318","count":73,"type":"normal","created_time":"2011-08-22T13:49:25+0000","updated_time":"2012-02-20T14:12:13+0000","can_upload":false,"likes":{"data":[{"id":"100000490883137","name":"Sylvia Elena Tapia"},{"id":"1204662445","name":"Jennifer L Laurin"},{"id":"657462467","name":"Claudia Pinillos"},{"id":"1519911326","name":"Renata Estepan"},{"id":"100001242710071","name":"Rosario Hernandez"},{"id":"575525995","name":"Ezzy Castro"},{"id":"100002851670759","name":"Aneshia TheStylist"},{"id":"100000865327309","name":"ChiNa Ridin Olo"},{"id":"545954245","name":"Eldy Centurion"},{"id":"100002597296270","name":"Boogs Styles"},{"id":"1646972357","name":"Jason Cantor"},{"id":"673479084","name":"Evelyn Castro"},{"id":"100002601866702","name":"BeautyBy Renata"},{"id":"1352064566","name":"Tiffaine Ren\u00e9e Low"},{"id":"537154000","name":"Lazz Garcet"}],"paging":{"next":"https:\/\/graph.facebook.com\/128050457291669\/likes?access_token=AAACEdEose0cBAMYosNuQgnCMBhgO4meNR3qH1cjXNhenSu6GRD6HiTa20OCYdbn297Lf2pZALjodgovOYrfZB0K5KvL0ONYoSHKuOldxmnwN01tZBh8&limit=25&offset=25&__after_id=537154000"}},"comments":{"data":[{"id":"128050457291669_389199","from":{"name":"Evelyn Castro","id":"673479084"},"message":"My nephew is so cute!!!","can_remove":false,"created_time":"2011-10-05T01:42:21+0000","like_count":1,"user_likes":false},{"id":"128050457291669_389257","from":{"name":"Jessy TheHairstylist","id":"100002601471633"},"message":"Wolverine you mean lol ","can_remove":false,"created_time":"2011-10-05T01:53:49+0000","like_count":1,"user_likes":false},{"id":"128050457291669_602048","from":{"name":"Israel Caballero","id":"100000857940051"},"message":"NICE!","can_remove":false,"created_time":"2011-11-20T22:02:14+0000","like_count":1,"user_likes":false}],"paging":{"cursors":{"after":"Mw==","before":"MQ=="},"next":"https:\/\/graph.facebook.com\/128050457291669\/comments?access_token=AAACEdEose0cBAMYosNuQgnCMBhgO4meNR3qH1cjXNhenSu6GRD6HiTa20OCYdbn297Lf2pZALjodgovOYrfZB0K5KvL0ONYoSHKuOldxmnwN01tZBh8&limit=25&after=Mw\u00253D\u00253D"}}},{"id":"186485074781540","from":{"name":"Jessy TheHairstylist","id":"100002601471633"},"name":"Xmas","link":"http:\/\/www.facebook.com\/album.php?fbid=186485074781540&id=100002601471633&aid=40290","cover_photo":"186485441448170","count":22,"type":"normal","created_time":"2011-12-25T12:21:20+0000","updated_time":"2011-12-26T23:47:13+0000","can_upload":false,"likes":{"data":[{"id":"575525995","name":"Ezzy Castro"},{"id":"748743862","name":"Tania P Palmieri"},{"id":"656716903","name":"Yamile Quintero"}],"paging":{"next":"https:\/\/graph.facebook.com\/186485074781540\/likes?access_token=AAACEdEose0cBAMYosNuQgnCMBhgO4meNR3qH1cjXNhenSu6GRD6HiTa20OCYdbn297Lf2pZALjodgovOYrfZB0K5KvL0ONYoSHKuOldxmnwN01tZBh8&limit=25&offset=25&__after_id=656716903"}}},{"id":"127738517322863","from":{"name":"Jessy TheHairstylist","id":"100002601471633"},"name":"PM school","link":"http:\/\/www.facebook.com\/album.php?fbid=127738517322863&id=100002601471633&aid=24658","cover_photo":"127738830656165","count":60,"type":"normal","created_time":"2011-08-21T21:12:49+0000","updated_time":"2011-11-16T01:19:06+0000","can_upload":false,"likes":{"data":[{"id":"1100340337","name":"Jesse Reyes"},{"id":"620372329","name":"Hector Cachupin"},{"id":"673479084","name":"Evelyn Castro"},{"id":"1513933566","name":"Nakia Arrington"},{"id":"1283858121","name":"Ive Diaz-Gonzalez"},{"id":"655444936","name":"Brendon M Waldron"},{"id":"1013164517","name":"Ralph Duran Pierluisi"},{"id":"1519911326","name":"Renata Estepan"},{"id":"100001302540077","name":"GiGi Gonzalez"}],"paging":{"next":"https:\/\/graph.facebook.com\/127738517322863\/likes?access_token=AAACEdEose0cBAMYosNuQgnCMBhgO4meNR3qH1cjXNhenSu6GRD6HiTa20OCYdbn297Lf2pZALjodgovOYrfZB0K5KvL0ONYoSHKuOldxmnwN01tZBh8&limit=25&offset=25&__after_id=100001302540077"}}},{"id":"106580842771964","from":{"name":"Jessy TheHairstylist","id":"100002601471633"},"name":"Paul Mitchell's Product line\/info","link":"http:\/\/www.facebook.com\/album.php?fbid=106580842771964&id=100002601471633&aid=13786","cover_photo":"106580902771958","count":14,"type":"normal","created_time":"2011-07-10T19:31:44+0000","updated_time":"2011-07-11T23:27:21+0000","can_upload":false}],"paging":{"cursors":{"after":"MTA2NTgwODQyNzcxOTY0","before":"MjM2OTUwOTk5NzM0OTQ3"}}}