{"data":[{"id":"493734940682120","from":{"name":"Century Durand Deeb","id":"100001368563357"},"name":"FOR SALE, 110Ave & 160ish St. --- 180K","description":"FOR SALE, 110 Ave & 160ish St. Beautiful  4 Bed, 2 Bath \/ 1 Bed, 1 Bath on Side with access to Main Home. $180K. Call me for more Info.","link":"http:\/\/www.facebook.com\/album.php?fbid=493734940682120&id=100001368563357&aid=1073741825","cover_photo":"493734957348785","count":28,"type":"normal","created_time":"2013-03-01T16:08:46+0000","updated_time":"2013-03-01T16:22:31+0000","can_upload":false,"likes":{"data":[{"id":"100000184355973","name":"Albert Mui\u00f1a"}],"paging":{"next":"https:\/\/graph.facebook.com\/493734940682120\/likes?access_token=AAACEdEose0cBAMYosNuQgnCMBhgO4meNR3qH1cjXNhenSu6GRD6HiTa20OCYdbn297Lf2pZALjodgovOYrfZB0K5KvL0ONYoSHKuOldxmnwN01tZBh8&limit=25&offset=25&__after_id=100000184355973"}}},{"id":"230877680301182","from":{"name":"Century Durand Deeb","id":"100001368563357"},"name":"Timeline Photos","link":"http:\/\/www.facebook.com\/album.php?fbid=230877680301182&id=100001368563357&aid=61942","cover_photo":"230877683634515","count":7,"type":"wall","created_time":"2011-10-11T15:58:56+0000","updated_time":"2013-02-27T22:47:43+0000","can_upload":false},{"id":"412183872170561","from":{"name":"Century Durand Deeb","id":"100001368563357"},"name":"Beautiful 4 Bed, 3 1\/2 Bath,2 Car Gar.,Water Front,2975sqft,$315K","description":"Beautiful 4 Bed, 3 1\/2 Bath, Two Story, 1 bed on Ground Level, All Updated throughout, Tile, Wood and Marble floors, 2 Car Garage, Water Front, Ready for Move in Buyer, Low Association fee, 2975 Sqft, Only $305K","link":"http:\/\/www.facebook.com\/album.php?fbid=412183872170561&id=100001368563357&aid=93609","cover_photo":"412183875503894","count":11,"type":"normal","created_time":"2012-09-06T22:35:24+0000","updated_time":"2012-09-06T22:50:27+0000","can_upload":false,"likes":{"data":[{"id":"768140100","name":"Willie Johnson"},{"id":"1067531601","name":"Olga Marina Alemany"},{"id":"1184041587","name":"Chef Jackie"}],"paging":{"next":"https:\/\/graph.facebook.com\/412183872170561\/likes?access_token=AAACEdEose0cBAMYosNuQgnCMBhgO4meNR3qH1cjXNhenSu6GRD6HiTa20OCYdbn297Lf2pZALjodgovOYrfZB0K5KvL0ONYoSHKuOldxmnwN01tZBh8&limit=25&offset=25&__after_id=1184041587"}},"comments":{"data":[{"id":"412183872170561_3970839","from":{"name":"Chef Jackie","id":"1184041587"},"message":"Where?  Beautifull..","can_remove":false,"created_time":"2012-09-06T22:58:14+0000","like_count":1,"user_likes":false},{"id":"412183872170561_3970965","from":{"name":"Ralph Morejon","id":"1333659193"},"message":"Hey! That looks close to where I used to live. Is that a Venetian Isles Home?","can_remove":false,"created_time":"2012-09-06T23:38:17+0000","like_count":0,"user_likes":false},{"id":"412183872170561_3971035","from":{"name":"Century Durand Deeb","id":"100001368563357"},"message":"This property is Located in the area of 220th St and SW  105 Ave.. Community ------ENCLAVE AT BLACK POINT MARINA","can_remove":false,"created_time":"2012-09-06T23:58:03+0000","like_count":0,"user_likes":false}],"paging":{"cursors":{"after":"Mw==","before":"MQ=="},"next":"https:\/\/graph.facebook.com\/412183872170561\/comments?access_token=AAACEdEose0cBAMYosNuQgnCMBhgO4meNR3qH1cjXNhenSu6GRD6HiTa20OCYdbn297Lf2pZALjodgovOYrfZB0K5KvL0ONYoSHKuOldxmnwN01tZBh8&limit=25&after=Mw\u00253D\u00253D"}}},{"id":"395153207206961","from":{"name":"Century Durand Deeb","id":"100001368563357"},"name":"FOR SALE, 112Av & 169St, 2\/2, 1240sqft, +55 Community, Only $99K","link":"http:\/\/www.facebook.com\/album.php?fbid=395153207206961&id=100001368563357&aid=89640","cover_photo":"395153380540277","count":7,"type":"normal","created_time":"2012-07-25T16:28:38+0000","updated_time":"2012-07-25T16:30:43+0000","can_upload":false},{"id":"394736087248673","from":{"name":"Century Durand Deeb","id":"100001368563357"},"name":"FOR SALE, Office, 1400sqft, 129Av & Bird Ave, Only $200,000","description":"6 Office Spaces, Lobby, and Much More, Call me for more information, Price Reduced to $200,000.","location":"Century 21, Represented by DURAND DEEB","place":{"id":"137193632963391","name":"Century 21, Represented by DURAND DEEB","location":{"street":"12955 SW 42 Street, Suite 2 ","city":"Miami","state":"FL","country":"United States","zip":"33175","latitude":25.72955,"longitude":-80.40497}},"link":"http:\/\/www.facebook.com\/album.php?fbid=394736087248673&id=100001368563357&aid=89522","cover_photo":"394736100582005","count":17,"type":"normal","created_time":"2012-07-24T15:07:28+0000","updated_time":"2012-09-18T19:02:37+0000","can_upload":false},{"id":"386363708085911","from":{"name":"Century Durand Deeb","id":"100001368563357"},"name":"FOR SALE, 97 AVE 104ST, PRESTIGE ACRE HOME, 5 bed 4 bath $925K","description":"More pictures and information coming soon.","link":"http:\/\/www.facebook.com\/album.php?fbid=386363708085911&id=100001368563357&aid=87651","cover_photo":"386363731419242","count":2,"type":"normal","created_time":"2012-07-03T16:26:32+0000","updated_time":"2012-07-03T16:28:30+0000","can_upload":false},{"id":"382412251814390","from":{"name":"Century Durand Deeb","id":"100001368563357"},"name":"FOR RENT.. 3 Bed, 2 Bath, Home, 68 Ave-Coral Way Area. $2,900","description":"For Rent, 3 Bed , 2 Bath, Upgraded Throughout, Yard with Beautiful Fruit Trees. Call Me for more Info.","link":"http:\/\/www.facebook.com\/album.php?fbid=382412251814390&id=100001368563357&aid=87009","cover_photo":"382412328481049","count":21,"type":"normal","created_time":"2012-06-26T14:34:02+0000","updated_time":"2012-06-26T14:38:09+0000","can_upload":false,"likes":{"data":[{"id":"1018476115","name":"Lane Chase"}],"paging":{"next":"https:\/\/graph.facebook.com\/382412251814390\/likes?access_token=AAACEdEose0cBAMYosNuQgnCMBhgO4meNR3qH1cjXNhenSu6GRD6HiTa20OCYdbn297Lf2pZALjodgovOYrfZB0K5KvL0ONYoSHKuOldxmnwN01tZBh8&limit=25&offset=25&__after_id=1018476115"}}},{"id":"379657195423229","from":{"name":"Century Durand Deeb","id":"100001368563357"},"name":"FOR RENT: FONTAIN BLEAU, 1 BED+DEN, 1 BATH. $950.00","description":"Complex has Pool, Tennis Courts, Gym, Club House and alot more.","link":"http:\/\/www.facebook.com\/album.php?fbid=379657195423229&id=100001368563357&aid=86604","cover_photo":"379657242089891","count":21,"type":"normal","created_time":"2012-06-21T17:06:45+0000","updated_time":"2012-06-21T17:08:47+0000","can_upload":false,"comments":{"data":[{"id":"379657195423229_3718857","from":{"name":"Century Durand Deeb","id":"100001368563357"},"message":"First and Security.And  Association Approval.....Current tenants moving out on the 30th of this Month.","can_remove":false,"created_time":"2012-06-21T17:19:38+0000","like_count":0,"user_likes":false}],"paging":{"cursors":{"after":"Mg==","before":"Mg=="},"next":"https:\/\/graph.facebook.com\/379657195423229\/comments?access_token=AAACEdEose0cBAMYosNuQgnCMBhgO4meNR3qH1cjXNhenSu6GRD6HiTa20OCYdbn297Lf2pZALjodgovOYrfZB0K5KvL0ONYoSHKuOldxmnwN01tZBh8&limit=25&after=Mg\u00253D\u00253D"}}},{"id":"261425363913080","from":{"name":"Century Durand Deeb","id":"100001368563357"},"name":"FOR SALE, Office\/Condo. 2977 McFarlane Rd , Just reduced $1.299ml","description":"Prestige Office\/Condo. Entire 2nd Floor. In the Heart of Coconut Grove. Reduced $1.299ml. ","location":"Coconut Grove","link":"http:\/\/www.facebook.com\/album.php?fbid=261425363913080&id=100001368563357&aid=66949","cover_photo":"261427040579579","count":19,"type":"normal","created_time":"2011-12-13T21:16:33+0000","updated_time":"2012-03-07T18:12:30+0000","can_upload":false},{"id":"302416046480678","from":{"name":"Century Durand Deeb","id":"100001368563357"},"name":"Cover Photos","link":"http:\/\/www.facebook.com\/album.php?fbid=302416046480678&id=100001368563357&aid=74152","cover_photo":"302416056480677","count":1,"type":"normal","created_time":"2012-02-21T00:52:22+0000","updated_time":"2012-02-21T00:52:24+0000","can_upload":false},{"id":"299035790152037","from":{"name":"Century Durand Deeb","id":"100001368563357"},"name":"FOR SALE, Fort Myers on The Water, $1.950M, Great Investment!!","description":"\nSTUNNING RIVERFRONT PROPERTY WITH APPROXIMATELY 470 FEET OF RIVER FRONTAGE. CLOSE TO THE RELATED GROUP OASIS PROJECT, OTHER NEW DEVELOPMENTS & DOWNTOWN FORT MYERS. THIS IS ONE OF THE BEST WATERFRONT PARCELS AVAILABLE. GREAT AS A DEVELOPMENT SITE, TEAR DOWN & BUILD LUXURY CONDOS\/TOWNHOMES, MIXED USE, ETC., ADULT LIVING FACILITY (ALF), BED & BREAKFAST, ETC. PROPERTY'S LAST USE WAS AN ALF - RIVERSIDE VILLAGE ... THERE ARE 31 EFFICIENCIES, A WOOD FRAME HOME that is a knock down, A CBS BLDG.\/CLUB HOUSE TYPE FACILITY WITH A COMMERCIAL KITCHEN, HUGE DINING AREA, 1 SEAT BEAUTY SALON, OFFICE, SITTING ROOM WITH FIREPLACE, DEN, RIVERFRONT TIKI AREA, DOCK AND SCREEN ENCLOSED PORCH FACING THE RIVER. THE EAST FORT MYERS REVITALIZATION PLAN IS NOW ONLINE ***SELLER FINANCING AVAILABLE WITH $500,000. DOWN PAYMENT *** NEGOTIABLE TERMS TO MEET BUYERS NEEDS *** VERY MOTIVATED SELLER ***\n \n\nFeatures\n \nGated community, Stucco exterior, Central air conditioning, Wall or window air conditioner(s), Central heat, Wall heating unit(s), Security features, Boat dockage, River frontage\/Access, Waterfront property, Gulf access\n","link":"http:\/\/www.facebook.com\/album.php?fbid=299035790152037&id=100001368563357&aid=73700","cover_photo":"299035870152029","count":10,"type":"normal","created_time":"2012-02-15T20:57:29+0000","updated_time":"2012-02-15T21:00:15+0000","can_upload":false,"likes":{"data":[{"id":"1018476115","name":"Lane Chase"},{"id":"681163182","name":"Gloriana Diaz"}],"paging":{"next":"https:\/\/graph.facebook.com\/299035790152037\/likes?access_token=AAACEdEose0cBAMYosNuQgnCMBhgO4meNR3qH1cjXNhenSu6GRD6HiTa20OCYdbn297Lf2pZALjodgovOYrfZB0K5KvL0ONYoSHKuOldxmnwN01tZBh8&limit=25&offset=25&__after_id=681163182"}}},{"id":"288972247825058","from":{"name":"Century Durand Deeb","id":"100001368563357"},"name":"FOR SALE, 4 bed 2 bath, 2058sqft,148 Ave & 82 Terr. $181K","link":"http:\/\/www.facebook.com\/album.php?fbid=288972247825058&id=100001368563357&aid=72254","cover_photo":"288972387825044","count":7,"type":"normal","created_time":"2012-01-31T15:22:21+0000","updated_time":"2012-01-31T15:24:28+0000","can_upload":false,"likes":{"data":[{"id":"1018476115","name":"Lane Chase"}],"paging":{"next":"https:\/\/graph.facebook.com\/288972247825058\/likes?access_token=AAACEdEose0cBAMYosNuQgnCMBhgO4meNR3qH1cjXNhenSu6GRD6HiTa20OCYdbn297Lf2pZALjodgovOYrfZB0K5KvL0ONYoSHKuOldxmnwN01tZBh8&limit=25&offset=25&__after_id=1018476115"}}},{"id":"285950028127280","from":{"name":"Century Durand Deeb","id":"100001368563357"},"name":"FOR SALE, NEW HOMES. 3-5 Beds,Garage, $160-$295K. N of Homestead","link":"http:\/\/www.facebook.com\/album.php?fbid=285950028127280&id=100001368563357&aid=71810","cover_photo":"285950061460610","count":10,"type":"normal","created_time":"2012-01-26T18:35:31+0000","updated_time":"2012-01-26T18:37:45+0000","can_upload":false,"comments":{"data":[{"id":"285950028127280_3155493","from":{"name":"Century Durand Deeb","id":"100001368563357"},"message":"May Qualify for NO MONEY DOWN, Nor CLOSING COST.......","can_remove":false,"created_time":"2012-01-26T18:41:29+0000","like_count":0,"user_likes":false}],"paging":{"cursors":{"after":"MQ==","before":"MQ=="},"next":"https:\/\/graph.facebook.com\/285950028127280\/comments?access_token=AAACEdEose0cBAMYosNuQgnCMBhgO4meNR3qH1cjXNhenSu6GRD6HiTa20OCYdbn297Lf2pZALjodgovOYrfZB0K5KvL0ONYoSHKuOldxmnwN01tZBh8&limit=25&after=MQ\u00253D\u00253D"}}},{"id":"274228562632760","from":{"name":"Century Durand Deeb","id":"100001368563357"},"name":"FOR SALE TRIPLEX, 2\/1-2\/1-1\/1 Near 67ave and Coral Way, $383K","description":"Tenant occupied, ","link":"http:\/\/www.facebook.com\/album.php?fbid=274228562632760&id=100001368563357&aid=69682","cover_photo":"274228579299425","count":4,"type":"normal","created_time":"2012-01-06T19:03:46+0000","updated_time":"2012-01-06T19:05:17+0000","can_upload":false},{"id":"274226062633010","from":{"name":"Century Durand Deeb","id":"100001368563357"},"name":"FOR SALE, 2 bed 2 bth Townhouse, NO ASSOCIATION $162k","description":"FOR SALE, Townhouse, 2 Beds 2 Bth, $162k, NO ASSOCIATION, Call me for more information","location":"8 and W 79st, Hialeah","link":"http:\/\/www.facebook.com\/album.php?fbid=274226062633010&id=100001368563357&aid=69681","cover_photo":"274226089299674","count":9,"type":"normal","created_time":"2012-01-06T18:58:14+0000","updated_time":"2012-01-06T19:02:09+0000","can_upload":false},{"id":"257008337688116","from":{"name":"Century Durand Deeb","id":"100001368563357"},"name":"FOR RENT, 2 BED, 2 BATH. 4880 SW 152 Pl. $1,370.00","description":"Lakes of the Meadows...... Private Community... Corner Lot... Plenty of Visitor Parking","link":"http:\/\/www.facebook.com\/album.php?fbid=257008337688116&id=100001368563357&aid=66398","cover_photo":"257008364354780","count":15,"type":"normal","created_time":"2011-12-06T14:13:11+0000","updated_time":"2012-11-07T19:07:50+0000","can_upload":false},{"id":"236463556409261","from":{"name":"Century Durand Deeb","id":"100001368563357"},"name":"Vizcayne in Miami !!!!! Starting in the 200's","link":"http:\/\/www.facebook.com\/album.php?fbid=236463556409261&id=100001368563357&aid=63088","cover_photo":"236463593075924","count":22,"type":"normal","created_time":"2011-10-24T18:28:46+0000","updated_time":"2011-10-24T18:30:17+0000","can_upload":false},{"id":"234751136580503","from":{"name":"Century Durand Deeb","id":"100001368563357"},"name":"FOR SALE, TH, 3 bed 2. 5 Bath, 6160 NW 52 Lane, Tamarac, 100K","link":"http:\/\/www.facebook.com\/album.php?fbid=234751136580503&id=100001368563357&aid=62666","cover_photo":"234751953247088","count":7,"type":"normal","created_time":"2011-10-20T17:28:35+0000","updated_time":"2011-10-20T17:31:21+0000","can_upload":false},{"id":"227618157293801","from":{"name":"Century Durand Deeb","id":"100001368563357"},"name":"FOR SALE, 1770 SW 3rd Street, 2 bed, 1 Bath, 10 Units $950K","link":"http:\/\/www.facebook.com\/album.php?fbid=227618157293801&id=100001368563357&aid=61305","cover_photo":"227618247293792","count":13,"type":"normal","created_time":"2011-10-03T19:11:41+0000","updated_time":"2011-10-03T19:13:19+0000","can_upload":false},{"id":"222587964463487","from":{"name":"Century Durand Deeb","id":"100001368563357"},"name":"FOR SALE, 194 ST AND 103 Ct, 3 BED, 1 1\/2 BATH, 1178 SQFT, $48k","link":"http:\/\/www.facebook.com\/album.php?fbid=222587964463487&id=100001368563357&aid=59998","cover_photo":"222587991130151","count":7,"type":"normal","created_time":"2011-09-21T19:49:14+0000","updated_time":"2011-09-21T19:50:52+0000","can_upload":false,"comments":{"data":[{"id":"222587964463487_2552434","from":{"name":"Hector J. Garcia","id":"645119633"},"message":"Call me, hector","can_remove":false,"created_time":"2011-09-21T20:33:48+0000","like_count":0,"user_likes":false}],"paging":{"cursors":{"after":"MQ==","before":"MQ=="},"next":"https:\/\/graph.facebook.com\/222587964463487\/comments?access_token=AAACEdEose0cBAMYosNuQgnCMBhgO4meNR3qH1cjXNhenSu6GRD6HiTa20OCYdbn297Lf2pZALjodgovOYrfZB0K5KvL0ONYoSHKuOldxmnwN01tZBh8&limit=25&after=MQ\u00253D\u00253D"}}},{"id":"195896857132598","from":{"name":"Century Durand Deeb","id":"100001368563357"},"name":"8420 SW 197 St. 10 LOTS FULLY DEVELOPED READY TO BUILD $800K","link":"http:\/\/www.facebook.com\/album.php?fbid=195896857132598&id=100001368563357&aid=55403","cover_photo":"195896883799262","count":1,"type":"normal","created_time":"2011-07-25T17:42:25+0000","updated_time":"2011-07-25T17:44:43+0000","can_upload":false},{"id":"195895413799409","from":{"name":"Century Durand Deeb","id":"100001368563357"},"name":"1470 NE 123 St. Apt A603. FOR RENT $1,000 1 bed \/ 1 bath","link":"http:\/\/www.facebook.com\/album.php?fbid=195895413799409&id=100001368563357&aid=55402","cover_photo":"195895507132733","count":17,"type":"normal","created_time":"2011-07-25T17:38:53+0000","updated_time":"2011-07-25T17:41:11+0000","can_upload":false},{"id":"130733370315614","from":{"name":"Century Durand Deeb","id":"100001368563357"},"name":"For Rent,,,2 Bed 2 Bath $1200","description":"New Aplliances, and new tiles throughout,, Washer and Dryer in Unit,,,Hammocks..Small Community, Beautiful Pool, Recreational Area. 104st and 156Ave","location":"Hammocks,, 10440 SW 156 Ct","link":"http:\/\/www.facebook.com\/album.php?fbid=130733370315614&id=100001368563357&aid=30601","cover_photo":"184250194963931","count":12,"type":"normal","created_time":"2010-11-05T20:38:29+0000","updated_time":"2011-06-29T17:22:47+0000","can_upload":false,"likes":{"data":[{"id":"1038215901","name":"Julia Slay"}],"paging":{"next":"https:\/\/graph.facebook.com\/130733370315614\/likes?access_token=AAACEdEose0cBAMYosNuQgnCMBhgO4meNR3qH1cjXNhenSu6GRD6HiTa20OCYdbn297Lf2pZALjodgovOYrfZB0K5KvL0ONYoSHKuOldxmnwN01tZBh8&limit=25&offset=25&__after_id=1038215901"}},"comments":{"data":[{"id":"130733370315614_2134943","from":{"name":"Century Durand Deeb","id":"100001368563357"},"message":"Call me for More Information. 786-234-6293","can_remove":false,"created_time":"2011-06-29T17:22:17+0000","like_count":0,"user_likes":false}],"paging":{"cursors":{"after":"MQ==","before":"MQ=="},"next":"https:\/\/graph.facebook.com\/130733370315614\/comments?access_token=AAACEdEose0cBAMYosNuQgnCMBhgO4meNR3qH1cjXNhenSu6GRD6HiTa20OCYdbn297Lf2pZALjodgovOYrfZB0K5KvL0ONYoSHKuOldxmnwN01tZBh8&limit=25&after=MQ\u00253D\u00253D"}}},{"id":"115493845172900","from":{"name":"Century Durand Deeb","id":"100001368563357"},"name":"Profile Pictures","link":"http:\/\/www.facebook.com\/album.php?fbid=115493845172900&id=100001368563357&aid=24988","cover_photo":"178950122160605","count":2,"type":"profile","created_time":"2010-09-03T00:14:21+0000","updated_time":"2011-06-09T15:11:50+0000","can_upload":false},{"id":"172808736108077","from":{"name":"Century Durand Deeb","id":"100001368563357"},"name":"27 Acre LOT for Sale, Approved for 252 TH's. $4 Mil","location":"268 and Dixie","link":"http:\/\/www.facebook.com\/album.php?fbid=172808736108077&id=100001368563357&aid=49502","cover_photo":"172808746108076","count":1,"type":"normal","created_time":"2011-05-11T15:43:46+0000","updated_time":"2011-05-11T15:45:43+0000","can_upload":false}],"paging":{"cursors":{"after":"MTcyODA4NzM2MTA4MDc3","before":"NDkzNzM0OTQwNjgyMTIw"},"next":"https:\/\/graph.facebook.com\/100001368563357\/albums?access_token=AAACEdEose0cBAMYosNuQgnCMBhgO4meNR3qH1cjXNhenSu6GRD6HiTa20OCYdbn297Lf2pZALjodgovOYrfZB0K5KvL0ONYoSHKuOldxmnwN01tZBh8&limit=25&after=MTcyODA4NzM2MTA4MDc3"}}