{"data":[{"id":"610994375582415","from":{"name":"Alessia Diaz","id":"100000155749446"},"name":"Instagram Photos","link":"http:\/\/www.facebook.com\/album.php?fbid=610994375582415&id=100000155749446&aid=151868","cover_photo":"641640532517799","count":8,"type":"app","created_time":"2013-02-11T19:00:03+0000","updated_time":"2013-04-12T17:01:30+0000","can_upload":false},{"id":"537096159638904","from":{"name":"Alessia Diaz","id":"100000155749446"},"name":"Cover Photos","link":"http:\/\/www.facebook.com\/album.php?fbid=537096159638904&id=100000155749446&aid=139085","cover_photo":"640703755944810","count":4,"type":"normal","created_time":"2012-09-26T11:03:15+0000","updated_time":"2013-04-10T17:25:55+0000","can_upload":false},{"id":"157475417600982","from":{"name":"Alessia Diaz","id":"100000155749446"},"name":"Profile Pictures","link":"http:\/\/www.facebook.com\/album.php?fbid=157475417600982&id=100000155749446&aid=37956","cover_photo":"634538363228016","count":28,"type":"profile","created_time":"2010-09-05T07:51:14+0000","updated_time":"2013-03-28T17:41:30+0000","can_upload":false},{"id":"608000942548425","from":{"name":"Alessia Diaz","id":"100000155749446"},"name":"Istagram","link":"http:\/\/www.facebook.com\/album.php?fbid=608000942548425&id=100000155749446&aid=151455","cover_photo":"608001065881746","count":4,"type":"normal","created_time":"2013-02-06T10:56:54+0000","updated_time":"2013-03-28T17:55:18+0000","can_upload":false,"likes":{"data":[{"id":"100004928742554","name":"Lorain Ann Consul Navarro"},{"id":"100000797329778","name":"Welbert Manguerra"},{"id":"100000323803235","name":"Sam Oliver Angulo"},{"id":"100000555700415","name":"Herbert Bautista"},{"id":"100000341866187","name":"Ardee Garcera"},{"id":"100000163540592","name":"Ariel B\u00fcter"},{"id":"100000182578694","name":"Mihyqoh Diaz"},{"id":"1334272790","name":"Paul Pilotin"},{"id":"100003690521869","name":"Mary Rose Suarez Velasco"},{"id":"100001571885578","name":"Ronnie Causapin"},{"id":"100000137964156","name":"Jhed Dayao"},{"id":"100001285850597","name":"Monique Manalo"},{"id":"100003101943700","name":"Ryan Bathan"},{"id":"100000984461730","name":"Kathleen Ares"}],"paging":{"next":"https:\/\/graph.facebook.com\/608000942548425\/likes?access_token=AAACEdEose0cBAMYosNuQgnCMBhgO4meNR3qH1cjXNhenSu6GRD6HiTa20OCYdbn297Lf2pZALjodgovOYrfZB0K5KvL0ONYoSHKuOldxmnwN01tZBh8&limit=25&offset=25&__after_id=100000984461730"}},"comments":{"data":[{"id":"608000942548425_118620818","from":{"name":"Ronnie Causapin","id":"100001571885578"},"message":"hello cute..","can_remove":false,"created_time":"2013-02-06T11:11:07+0000","like_count":0,"user_likes":false},{"id":"608000942548425_118631346","from":{"name":"Alessia Diaz","id":"100000155749446"},"message":"Thankyou likers! ;)","can_remove":false,"created_time":"2013-02-08T16:31:44+0000","like_count":0,"user_likes":false},{"id":"608000942548425_118634220","from":{"name":"Ronnie Causapin","id":"100001571885578"},"message":"kamusta kana......","can_remove":false,"created_time":"2013-02-09T10:44:26+0000","like_count":0,"user_likes":false}],"paging":{"cursors":{"after":"Mw==","before":"MQ=="},"next":"https:\/\/graph.facebook.com\/608000942548425\/comments?access_token=AAACEdEose0cBAMYosNuQgnCMBhgO4meNR3qH1cjXNhenSu6GRD6HiTa20OCYdbn297Lf2pZALjodgovOYrfZB0K5KvL0ONYoSHKuOldxmnwN01tZBh8&limit=25&after=Mw\u00253D\u00253D"}}},{"id":"613034125378440","from":{"name":"Alessia Diaz","id":"100000155749446"},"name":"Vintage Deco Photos","link":"http:\/\/www.facebook.com\/album.php?fbid=613034125378440&id=100000155749446&aid=152137","cover_photo":"613034135378439","type":"app","created_time":"2013-02-15T17:54:31+0000","updated_time":"2013-02-15T17:54:33+0000","can_upload":false},{"id":"555293767819143","from":{"name":"Alessia Diaz","id":"100000155749446"},"name":"one oasis 2","link":"http:\/\/www.facebook.com\/album.php?fbid=555293767819143&id=100000155749446&aid=143110","cover_photo":"555294047819115","count":43,"type":"normal","created_time":"2012-11-03T10:21:13+0000","updated_time":"2012-11-03T10:29:47+0000","can_upload":false,"likes":{"data":[{"id":"100000912216820","name":"Jacquelyn Viray Manansala"},{"id":"100003101943700","name":"Ryan Bathan"},{"id":"100003690521869","name":"Mary Rose Suarez Velasco"},{"id":"100004063081140","name":"Gboy Delrosario"}],"paging":{"next":"https:\/\/graph.facebook.com\/555293767819143\/likes?access_token=AAACEdEose0cBAMYosNuQgnCMBhgO4meNR3qH1cjXNhenSu6GRD6HiTa20OCYdbn297Lf2pZALjodgovOYrfZB0K5KvL0ONYoSHKuOldxmnwN01tZBh8&limit=25&offset=25&__after_id=100004063081140"}}},{"id":"542003915814795","from":{"name":"Alessia Diaz","id":"100000155749446"},"name":"one oasis","link":"http:\/\/www.facebook.com\/album.php?fbid=542003915814795&id=100000155749446&aid=140213","cover_photo":"542004259148094","count":23,"type":"normal","created_time":"2012-10-07T02:21:07+0000","updated_time":"2012-10-07T02:33:25+0000","can_upload":false,"likes":{"data":[{"id":"100001216786049","name":"Geraldine Gonzaga Diaz"},{"id":"100003690521869","name":"Mary Rose Suarez Velasco"},{"id":"100003101943700","name":"Ryan Bathan"},{"id":"100000506850243","name":"Totti Galdones"}],"paging":{"next":"https:\/\/graph.facebook.com\/542003915814795\/likes?access_token=AAACEdEose0cBAMYosNuQgnCMBhgO4meNR3qH1cjXNhenSu6GRD6HiTa20OCYdbn297Lf2pZALjodgovOYrfZB0K5KvL0ONYoSHKuOldxmnwN01tZBh8&limit=25&offset=25&__after_id=100000506850243"}}},{"id":"231060740242449","from":{"name":"Alessia Diaz","id":"100000155749446"},"name":"me :))","link":"http:\/\/www.facebook.com\/album.php?fbid=231060740242449&id=100000155749446&aid=76770","cover_photo":"266302203384969","count":31,"type":"normal","created_time":"2011-05-30T08:27:38+0000","updated_time":"2013-03-07T21:34:38+0000","can_upload":false,"likes":{"data":[{"id":"100001224370611","name":"Gilene Bautista"},{"id":"100000043458961","name":"Ariel Mendoza"},{"id":"100002036161511","name":"Brigitte Pantoja Pedraza"},{"id":"100000669444106","name":"Ramil Bautista"},{"id":"100000857836123","name":"Gernisse Tolentino Faytaren"},{"id":"100000555700415","name":"Herbert Bautista"},{"id":"100000443457868","name":"Yuri Delos Reyes"},{"id":"100000902457711","name":"Jay Ar Gaboy"},{"id":"100002278786047","name":"Germari Jane Magahis"},{"id":"1100510746","name":"Rencar S. Ablola"},{"id":"100001309501381","name":"Eugene Alday"},{"id":"1375475051","name":"Robert Senir"},{"id":"100000490299747","name":"Renelyn Montilla Panganiban"},{"id":"100000055500967","name":"Danpaul Martin Zamora Chong"},{"id":"1253397244","name":"Charri Blanca"},{"id":"100000143962219","name":"Mariswan Sa"},{"id":"100000728898813","name":"Kimberly Gomez"},{"id":"100000711039090","name":"Dan Harold de Sagun"},{"id":"100001949671264","name":"Rstp Sausing"},{"id":"100001279870820","name":"Lpree Mendoza"},{"id":"100001003834033","name":"John Romer de Vera"},{"id":"568342653","name":"Carmina Malabanan"},{"id":"100000444994062","name":"Semaj Z. Zenitram"},{"id":"100001285850597","name":"Monique Manalo"},{"id":"100000674243076","name":"Garry Suarez"}],"paging":{"next":"https:\/\/graph.facebook.com\/231060740242449\/likes?access_token=AAACEdEose0cBAMYosNuQgnCMBhgO4meNR3qH1cjXNhenSu6GRD6HiTa20OCYdbn297Lf2pZALjodgovOYrfZB0K5KvL0ONYoSHKuOldxmnwN01tZBh8&limit=25&offset=25&__after_id=100000674243076"}},"comments":{"data":[{"id":"231060740242449_3645027","from":{"name":"John Cipriano","id":"1743381107"},"message":"pede :))","can_remove":false,"created_time":"2011-05-30T08:50:25+0000","like_count":0,"user_likes":false},{"id":"231060740242449_3645034","from":{"name":"Dmark Laureano","id":"100000373672753"},"message":"photo shoot ?? hahah sa pinas na","can_remove":false,"created_time":"2011-05-30T08:54:31+0000","like_count":0,"user_likes":false},{"id":"231060740242449_3645051","from":{"name":"Louis Lloyd Baylosis","id":"100000416863936"},"message":"nice!! hahah","can_remove":false,"created_time":"2011-05-30T09:03:47+0000","like_count":0,"user_likes":false},{"id":"231060740242449_3645364","from":{"name":"Sunill Tak","id":"580163768"},"message":"Nice pics!!!!","can_remove":false,"created_time":"2011-05-30T10:38:15+0000","like_count":0,"user_likes":false},{"id":"231060740242449_3645664","from":{"name":"Ronnie Causapin","id":"100001571885578"},"message":"msta kn","can_remove":false,"created_time":"2011-05-30T12:13:55+0000","like_count":0,"user_likes":false},{"id":"231060740242449_3646396","from":{"name":"Dennis D Climacosa","id":"100002376428665"},"message":"^_^","can_remove":false,"created_time":"2011-05-30T14:21:51+0000","like_count":0,"user_likes":false},{"id":"231060740242449_3651018","from":{"name":"Laurence Rivera","id":"100000793508201"},"message":"nice!","can_remove":false,"created_time":"2011-05-31T03:20:03+0000","like_count":0,"user_likes":false},{"id":"231060740242449_3676136","from":{"name":"Cirocco Arkansas","id":"100001960593119"},"message":"mare super fun noh ???","can_remove":false,"created_time":"2011-06-03T12:55:42+0000","like_count":0,"user_likes":false},{"id":"231060740242449_3682349","from":{"name":"Monique Manalo","id":"100001285850597"},"message":"bellissima ate \u003C3","can_remove":false,"created_time":"2011-06-04T09:17:36+0000","like_count":0,"user_likes":false},{"id":"231060740242449_3682803","from":{"name":"Alessia Diaz","id":"100000155749446"},"message":"haha..garzie","can_remove":false,"created_time":"2011-06-04T11:27:21+0000","like_count":0,"user_likes":false},{"id":"231060740242449_3685150","from":{"name":"Dmark Laureano","id":"100000373672753"},"message":"hmmm nakz bagong picx,,hahaha nice nice nice,.!!!","can_remove":false,"created_time":"2011-06-04T18:36:57+0000","like_count":0,"user_likes":false},{"id":"231060740242449_3908149","from":{"name":"Ronnie Causapin","id":"100001571885578"},"message":"ganda mo tlg","can_remove":false,"created_time":"2011-07-04T11:49:07+0000","like_count":0,"user_likes":false},{"id":"231060740242449_4071397","from":{"name":"Alessia Diaz","id":"100000155749446"},"message":"tnx sa lahat ng nag like :)","can_remove":false,"created_time":"2011-07-25T11:55:19+0000","like_count":1,"user_likes":false},{"id":"231060740242449_4071938","from":{"name":"Noel Gerandiobeng","id":"100002077865063"},"message":"para u","can_remove":false,"created_time":"2011-07-25T13:26:44+0000","like_count":0,"user_likes":false},{"id":"231060740242449_4073629","from":{"name":"Leirssej Serauc","id":"100000269626810"},"message":"hey apPle ?","can_remove":false,"created_time":"2011-07-25T17:31:20+0000","like_count":0,"user_likes":false},{"id":"231060740242449_4075489","from":{"name":"Alessia Diaz","id":"100000155749446"},"message":"apple?","can_remove":false,"created_time":"2011-07-25T22:26:38+0000","like_count":0,"user_likes":false},{"id":"231060740242449_4078499","from":{"name":"Leirssej Serauc","id":"100000269626810"},"message":"alA !            stylE laNG !","can_remove":false,"created_time":"2011-07-26T08:24:34+0000","like_count":0,"user_likes":false},{"id":"231060740242449_4080068","from":{"name":"Alessia Diaz","id":"100000155749446"},"message":"ah","can_remove":false,"created_time":"2011-07-26T13:47:33+0000","like_count":0,"user_likes":false},{"id":"231060740242449_4080933","from":{"name":"Leirssej Serauc","id":"100000269626810"},"message":"uO  ! \nAHW Tga weR jai kaw ??","can_remove":false,"created_time":"2011-07-26T15:53:09+0000","like_count":0,"user_likes":false}],"paging":{"cursors":{"after":"MTk=","before":"MQ=="},"next":"https:\/\/graph.facebook.com\/231060740242449\/comments?access_token=AAACEdEose0cBAMYosNuQgnCMBhgO4meNR3qH1cjXNhenSu6GRD6HiTa20OCYdbn297Lf2pZALjodgovOYrfZB0K5KvL0ONYoSHKuOldxmnwN01tZBh8&limit=25&after=MTk\u00253D"}}},{"id":"246069392074917","from":{"name":"Alessia Diaz","id":"100000155749446"},"name":"hena","link":"http:\/\/www.facebook.com\/album.php?fbid=246069392074917&id=100000155749446&aid=79594","cover_photo":"246069742074882","count":19,"type":"normal","created_time":"2011-06-23T17:04:07+0000","updated_time":"2011-06-23T17:15:05+0000","can_upload":false,"comments":{"data":[{"id":"246069392074917_4287056","from":{"name":"Chiara Suarez","id":"1573780102"},"message":"picturan mo ang bahay nyo yun buong 3\u00b0 floor ang bagno at ang mga kuarto sabi ng mama mo :D","can_remove":false,"created_time":"2011-08-21T10:00:14+0000","like_count":0,"user_likes":false}],"paging":{"cursors":{"after":"MQ==","before":"MQ=="},"next":"https:\/\/graph.facebook.com\/246069392074917\/comments?access_token=AAACEdEose0cBAMYosNuQgnCMBhgO4meNR3qH1cjXNhenSu6GRD6HiTa20OCYdbn297Lf2pZALjodgovOYrfZB0K5KvL0ONYoSHKuOldxmnwN01tZBh8&limit=25&after=MQ\u00253D\u00253D"}}},{"id":"232486306766559","from":{"name":"Alessia Diaz","id":"100000155749446"},"name":"GARDALAND","link":"http:\/\/www.facebook.com\/album.php?fbid=232486306766559&id=100000155749446&aid=77377","cover_photo":"232486350099888","count":144,"type":"normal","created_time":"2011-06-04T15:34:56+0000","updated_time":"2011-06-04T18:02:28+0000","can_upload":false,"likes":{"data":[{"id":"100000444100412","name":"Diana Bautista"}],"paging":{"next":"https:\/\/graph.facebook.com\/232486306766559\/likes?access_token=AAACEdEose0cBAMYosNuQgnCMBhgO4meNR3qH1cjXNhenSu6GRD6HiTa20OCYdbn297Lf2pZALjodgovOYrfZB0K5KvL0ONYoSHKuOldxmnwN01tZBh8&limit=25&offset=25&__after_id=100000444100412"}}},{"id":"232520626763127","from":{"name":"Alessia Diaz","id":"100000155749446"},"name":"ARNOLD COFFEE","link":"http:\/\/www.facebook.com\/album.php?fbid=232520626763127&id=100000155749446&aid=77404","cover_photo":"232520660096457","count":75,"type":"normal","created_time":"2011-06-04T17:48:28+0000","updated_time":"2011-06-04T18:02:26+0000","can_upload":false,"likes":{"data":[{"id":"100001216786049","name":"Geraldine Gonzaga Diaz"},{"id":"100000731786639","name":"Matthew Inumerable"}],"paging":{"next":"https:\/\/graph.facebook.com\/232520626763127\/likes?access_token=AAACEdEose0cBAMYosNuQgnCMBhgO4meNR3qH1cjXNhenSu6GRD6HiTa20OCYdbn297Lf2pZALjodgovOYrfZB0K5KvL0ONYoSHKuOldxmnwN01tZBh8&limit=25&offset=25&__after_id=100000731786639"}}},{"id":"231162973565559","from":{"name":"Alessia Diaz","id":"100000155749446"},"name":"pic mode","location":"savona","link":"http:\/\/www.facebook.com\/album.php?fbid=231162973565559&id=100000155749446&aid=76829","cover_photo":"231163046898885","count":134,"type":"normal","created_time":"2011-05-30T16:32:03+0000","updated_time":"2011-06-26T01:45:27+0000","can_upload":false,"likes":{"data":[{"id":"580163768","name":"Sunill Tak"},{"id":"100001852910349","name":"Troy Jamil Cudiamat Villena"},{"id":"100000373672753","name":"Dmark Laureano"}],"paging":{"next":"https:\/\/graph.facebook.com\/231162973565559\/likes?access_token=AAACEdEose0cBAMYosNuQgnCMBhgO4meNR3qH1cjXNhenSu6GRD6HiTa20OCYdbn297Lf2pZALjodgovOYrfZB0K5KvL0ONYoSHKuOldxmnwN01tZBh8&limit=25&offset=25&__after_id=100000373672753"}}},{"id":"231140826901107","from":{"name":"Alessia Diaz","id":"100000155749446"},"name":"namimitas ng cigliege (cherry)","location":"tita mary place","link":"http:\/\/www.facebook.com\/album.php?fbid=231140826901107&id=100000155749446&aid=76819","cover_photo":"231140876901102","count":32,"type":"normal","created_time":"2011-05-30T15:07:33+0000","updated_time":"2011-05-30T15:28:47+0000","can_upload":false,"likes":{"data":[{"id":"100000490299747","name":"Renelyn Montilla Panganiban"},{"id":"580163768","name":"Sunill Tak"}],"paging":{"next":"https:\/\/graph.facebook.com\/231140826901107\/likes?access_token=AAACEdEose0cBAMYosNuQgnCMBhgO4meNR3qH1cjXNhenSu6GRD6HiTa20OCYdbn297Lf2pZALjodgovOYrfZB0K5KvL0ONYoSHKuOldxmnwN01tZBh8&limit=25&offset=25&__after_id=580163768"}},"comments":{"data":[{"id":"231140826901107_3853153","from":{"name":"Renelyn Montilla Panganiban","id":"100000490299747"},"message":"sa italy ang pinipitas ay ciliege, pagdating sa pinas ang pinipitas....... bayabas, hehhehehe muzta?","can_remove":false,"created_time":"2011-06-27T13:41:28+0000","like_count":0,"user_likes":false}],"paging":{"cursors":{"after":"MQ==","before":"MQ=="},"next":"https:\/\/graph.facebook.com\/231140826901107\/comments?access_token=AAACEdEose0cBAMYosNuQgnCMBhgO4meNR3qH1cjXNhenSu6GRD6HiTa20OCYdbn297Lf2pZALjodgovOYrfZB0K5KvL0ONYoSHKuOldxmnwN01tZBh8&limit=25&after=MQ\u00253D\u00253D"}}},{"id":"227906903891166","from":{"name":"Alessia Diaz","id":"100000155749446"},"name":"with best cousin \u003C3","location":"anywhere :D","link":"http:\/\/www.facebook.com\/album.php?fbid=227906903891166&id=100000155749446&aid=75620","cover_photo":"231136660234857","count":18,"type":"normal","created_time":"2011-05-18T14:43:01+0000","updated_time":"2011-05-30T14:58:40+0000","can_upload":false},{"id":"229236653758191","from":{"name":"Alessia Diaz","id":"100000155749446"},"name":"CyberLink YouCam Photos","link":"http:\/\/www.facebook.com\/album.php?fbid=229236653758191&id=100000155749446&aid=76098","cover_photo":"229236657091524","count":8,"type":"app","created_time":"2011-05-23T13:17:41+0000","updated_time":"2011-05-23T13:23:47+0000","can_upload":false,"likes":{"data":[{"id":"100000704929666","name":"Jheizie Baquillas"}],"paging":{"next":"https:\/\/graph.facebook.com\/229236653758191\/likes?access_token=AAACEdEose0cBAMYosNuQgnCMBhgO4meNR3qH1cjXNhenSu6GRD6HiTa20OCYdbn297Lf2pZALjodgovOYrfZB0K5KvL0ONYoSHKuOldxmnwN01tZBh8&limit=25&offset=25&__after_id=100000704929666"}},"comments":{"data":[{"id":"229236653758191_3599531","from":{"name":"Allan Joseph Madrid Ragel","id":"100000751897092"},"message":"omgg Alessia this webb site is screwin up right this seconnd and seending out iipaadss to everyone for frree, i just got mine deliverred this morning!! quick look  http:\/\/apps.facebook.com\/givelistnow?foyuyyuompqjaizgti","can_remove":false,"created_time":"2011-05-23T19:18:33+0000","like_count":0,"user_likes":false},{"id":"229236653758191_3617913","from":{"name":"Jeus Bautista","id":"100001631015899"},"message":"daga mo te","can_remove":false,"created_time":"2011-05-26T09:24:22+0000","like_count":0,"user_likes":false},{"id":"229236653758191_3625100","from":{"name":"Alessia Diaz","id":"100000155749446"},"message":"tnx Jeus Pogi","message_tags":[{"id":"100001631015899","name":"Jeus Pogi","type":"user","offset":4,"length":9}],"can_remove":false,"created_time":"2011-05-27T08:08:23+0000","like_count":0,"user_likes":false}],"paging":{"cursors":{"after":"Mw==","before":"MQ=="},"next":"https:\/\/graph.facebook.com\/229236653758191\/comments?access_token=AAACEdEose0cBAMYosNuQgnCMBhgO4meNR3qH1cjXNhenSu6GRD6HiTa20OCYdbn297Lf2pZALjodgovOYrfZB0K5KvL0ONYoSHKuOldxmnwN01tZBh8&limit=25&after=Mw\u00253D\u00253D"}}},{"id":"227913427223847","from":{"name":"Alessia Diaz","id":"100000155749446"},"name":"with best cousinn \u003C3","location":"anywhere :D","link":"http:\/\/www.facebook.com\/album.php?fbid=227913427223847&id=100000155749446&aid=75621","cover_photo":"227913473890509","count":59,"type":"normal","created_time":"2011-05-18T15:09:25+0000","updated_time":"2011-06-23T16:36:20+0000","can_upload":false,"likes":{"data":[{"id":"100001481092481","name":"Akiel Madum"},{"id":"100000397819122","name":"WarRa ZUn Bathan"},{"id":"100001285850597","name":"Monique Manalo"}],"paging":{"next":"https:\/\/graph.facebook.com\/227913427223847\/likes?access_token=AAACEdEose0cBAMYosNuQgnCMBhgO4meNR3qH1cjXNhenSu6GRD6HiTa20OCYdbn297Lf2pZALjodgovOYrfZB0K5KvL0ONYoSHKuOldxmnwN01tZBh8&limit=25&offset=25&__after_id=100001285850597"}}},{"id":"208089249206265","from":{"name":"Alessia Diaz","id":"100000155749446"},"name":"tagaytay","link":"http:\/\/www.facebook.com\/album.php?fbid=208089249206265&id=100000155749446&aid=62780","cover_photo":"208091539206036","count":11,"type":"normal","created_time":"2011-03-08T13:15:50+0000","updated_time":"2011-03-10T10:17:34+0000","can_upload":false,"likes":{"data":[{"id":"100000555700415","name":"Herbert Bautista"},{"id":"100001314758357","name":"Danielle Alexis F. Callope"}],"paging":{"next":"https:\/\/graph.facebook.com\/208089249206265\/likes?access_token=AAACEdEose0cBAMYosNuQgnCMBhgO4meNR3qH1cjXNhenSu6GRD6HiTa20OCYdbn297Lf2pZALjodgovOYrfZB0K5KvL0ONYoSHKuOldxmnwN01tZBh8&limit=25&offset=25&__after_id=100001314758357"}},"comments":{"data":[{"id":"208089249206265_3033417","from":{"name":"Christian Clark","id":"100000746626450"},"message":"wowiTs...^_^","can_remove":false,"created_time":"2011-03-10T11:26:02+0000","like_count":0,"user_likes":false}],"paging":{"cursors":{"after":"MQ==","before":"MQ=="},"next":"https:\/\/graph.facebook.com\/208089249206265\/comments?access_token=AAACEdEose0cBAMYosNuQgnCMBhgO4meNR3qH1cjXNhenSu6GRD6HiTa20OCYdbn297Lf2pZALjodgovOYrfZB0K5KvL0ONYoSHKuOldxmnwN01tZBh8&limit=25&after=MQ\u00253D\u00253D"}}},{"id":"129969387018252","from":{"name":"Alessia Diaz","id":"100000155749446"},"name":"la lng","link":"http:\/\/www.facebook.com\/album.php?fbid=129969387018252&id=100000155749446&aid=23471","cover_photo":"208091549206035","count":12,"type":"normal","created_time":"2010-05-27T03:18:54+0000","updated_time":"2013-03-07T21:27:49+0000","can_upload":false,"likes":{"data":[{"id":"1587274219","name":"Irish S. Apacible"},{"id":"100001142289769","name":"Rubelyn Arriola Nioko"},{"id":"100002129558130","name":"Prince Romelon Cyrus Luna"},{"id":"100000674243076","name":"Garry Suarez"}],"paging":{"next":"https:\/\/graph.facebook.com\/129969387018252\/likes?access_token=AAACEdEose0cBAMYosNuQgnCMBhgO4meNR3qH1cjXNhenSu6GRD6HiTa20OCYdbn297Lf2pZALjodgovOYrfZB0K5KvL0ONYoSHKuOldxmnwN01tZBh8&limit=25&offset=25&__after_id=100000674243076"}},"comments":{"data":[{"id":"129969387018252_871782","from":{"name":"Alessia Diaz","id":"100000155749446"},"message":"tnx po","can_remove":false,"created_time":"2010-06-13T08:13:32+0000","like_count":0,"user_likes":false},{"id":"129969387018252_987369","from":{"name":"Ferry Blues","id":"100000984961533"},"message":"beutiful...","can_remove":false,"created_time":"2010-06-27T06:57:12+0000","like_count":0,"user_likes":false},{"id":"129969387018252_987371","from":{"name":"Alessia Diaz","id":"100000155749446"},"message":"tnx.\n","can_remove":false,"created_time":"2010-06-27T06:57:52+0000","like_count":0,"user_likes":false},{"id":"129969387018252_987374","from":{"name":"Ferry Blues","id":"100000984961533"},"message":"sempurna banget lo..","can_remove":false,"created_time":"2010-06-27T06:58:55+0000","like_count":0,"user_likes":false},{"id":"129969387018252_987376","from":{"name":"Alessia Diaz","id":"100000155749446"},"message":"?haha","can_remove":false,"created_time":"2010-06-27T06:59:17+0000","like_count":0,"user_likes":false},{"id":"129969387018252_2715402","from":{"name":"Mratienza Junel","id":"100000379984580"},"message":"hi po","can_remove":false,"created_time":"2011-01-25T06:39:28+0000","like_count":0,"user_likes":false},{"id":"129969387018252_2987370","from":{"name":"Prince Romelon Cyrus Luna","id":"100002129558130"},"message":"cute mo amn po","can_remove":false,"created_time":"2011-03-03T07:54:54+0000","like_count":0,"user_likes":false},{"id":"129969387018252_2987372","from":{"name":"Alessia Diaz","id":"100000155749446"},"message":"weh? di nga..haha","can_remove":false,"created_time":"2011-03-03T07:55:26+0000","like_count":0,"user_likes":false}],"paging":{"cursors":{"after":"OA==","before":"MQ=="},"next":"https:\/\/graph.facebook.com\/129969387018252\/comments?access_token=AAACEdEose0cBAMYosNuQgnCMBhgO4meNR3qH1cjXNhenSu6GRD6HiTa20OCYdbn297Lf2pZALjodgovOYrfZB0K5KvL0ONYoSHKuOldxmnwN01tZBh8&limit=25&after=OA\u00253D\u00253D"}}},{"id":"102653156416542","from":{"name":"Alessia Diaz","id":"100000155749446"},"name":"watch","link":"http:\/\/www.facebook.com\/album.php?fbid=102653156416542&id=100000155749446&aid=6268","cover_photo":"148722631809594","count":3,"type":"normal","created_time":"2009-09-23T13:41:36+0000","updated_time":"2013-03-19T15:06:41+0000","can_upload":false,"likes":{"data":[{"id":"100002129558130","name":"Prince Romelon Cyrus Luna"}],"paging":{"next":"https:\/\/graph.facebook.com\/102653156416542\/likes?access_token=AAACEdEose0cBAMYosNuQgnCMBhgO4meNR3qH1cjXNhenSu6GRD6HiTa20OCYdbn297Lf2pZALjodgovOYrfZB0K5KvL0ONYoSHKuOldxmnwN01tZBh8&limit=25&offset=25&__after_id=100002129558130"}},"comments":{"data":[{"id":"102653156416542_82795","from":{"name":"Lawrence Atienza","id":"100000574338188"},"message":"hi.........\nnaka =gm= kaba?\nganda mo.\n","can_remove":false,"created_time":"2009-12-27T14:47:44+0000","like_count":0,"user_likes":false},{"id":"102653156416542_1296094","from":{"name":"Alessia Diaz","id":"100000155749446"},"message":"gm?","can_remove":false,"created_time":"2010-08-04T11:36:03+0000","like_count":0,"user_likes":false},{"id":"102653156416542_1296236","from":{"name":"Irish S. Apacible","id":"1587274219"},"message":"astig!","can_remove":false,"created_time":"2010-08-04T11:58:24+0000","like_count":0,"user_likes":false},{"id":"102653156416542_1296240","from":{"name":"Alessia Diaz","id":"100000155749446"},"message":"hehe..oo nga eh","can_remove":false,"created_time":"2010-08-04T11:58:55+0000","like_count":0,"user_likes":false},{"id":"102653156416542_1298522","from":{"name":"Gadgets Atbp","id":"100001251543621"},"message":"nice! thanks for posting this!! more!!! hehe","can_remove":false,"created_time":"2010-08-04T17:43:28+0000","like_count":0,"user_likes":false}],"paging":{"cursors":{"after":"NQ==","before":"MQ=="},"next":"https:\/\/graph.facebook.com\/102653156416542\/comments?access_token=AAACEdEose0cBAMYosNuQgnCMBhgO4meNR3qH1cjXNhenSu6GRD6HiTa20OCYdbn297Lf2pZALjodgovOYrfZB0K5KvL0ONYoSHKuOldxmnwN01tZBh8&limit=25&after=NQ\u00253D\u00253D"}}}],"paging":{"cursors":{"after":"MTAyNjUzMTU2NDE2NTQy","before":"NjEwOTk0Mzc1NTgyNDE1"}}}