{"data":[{"id":"360223064060798","from":{"name":"Thomas Alfieri","id":"100002193230672"},"name":"Cover Photos","link":"http:\/\/www.facebook.com\/album.php?fbid=360223064060798&id=100002193230672&aid=83254","cover_photo":"360223070727464","count":1,"type":"normal","created_time":"2012-09-20T01:59:33+0000","updated_time":"2012-09-20T01:59:35+0000","can_upload":false},{"id":"359776027438835","from":{"name":"Thomas Alfieri","id":"100002193230672"},"name":"Untitled Album","link":"http:\/\/www.facebook.com\/album.php?fbid=359776027438835&id=100002193230672&aid=83115","cover_photo":"359776090772162","count":46,"type":"normal","created_time":"2012-09-18T18:19:43+0000","updated_time":"2012-09-18T18:58:07+0000","can_upload":false,"likes":{"data":[{"id":"1772142601","name":"John Bateskas"}],"paging":{"next":"https:\/\/graph.facebook.com\/359776027438835\/likes?access_token=AAACEdEose0cBAJwErCNmIPZA6el8rxxyY5ULyI6xBIzYxuyekLKT4jiLPBr1teydoTPlSXlbBEkmB07tIO62Pi4QqIsy3oMtz1ihC5OyZAvdarWSZBe&limit=25&offset=25&__after_id=1772142601"}}},{"id":"359162194166885","from":{"name":"Thomas Alfieri","id":"100002193230672"},"name":"Untitled Album","link":"http:\/\/www.facebook.com\/album.php?fbid=359162194166885&id=100002193230672&aid=82863","cover_photo":"359163604166744","count":24,"type":"normal","created_time":"2012-09-16T22:05:54+0000","updated_time":"2012-09-16T22:35:31+0000","can_upload":false},{"id":"343409265742178","from":{"name":"Thomas Alfieri","id":"100002193230672"},"name":"Untitled Album","link":"http:\/\/www.facebook.com\/album.php?fbid=343409265742178&id=100002193230672&aid=77793","cover_photo":"343409275742177","count":26,"type":"normal","created_time":"2012-07-31T22:34:56+0000","updated_time":"2012-09-04T23:46:33+0000","can_upload":false,"comments":{"data":[{"id":"343409265742178_2291356","from":{"name":"Joe Greene","id":"100001478560157"},"message":"your hot. we hould hook up","can_remove":false,"created_time":"2012-09-09T15:40:58+0000","like_count":0,"user_likes":false},{"id":"343409265742178_2291357","from":{"name":"Joe Greene","id":"100001478560157"},"message":"should*","can_remove":false,"created_time":"2012-09-09T15:41:07+0000","like_count":0,"user_likes":false}],"paging":{"next":"https:\/\/graph.facebook.com\/343409265742178\/comments?access_token=AAACEdEose0cBAJwErCNmIPZA6el8rxxyY5ULyI6xBIzYxuyekLKT4jiLPBr1teydoTPlSXlbBEkmB07tIO62Pi4QqIsy3oMtz1ihC5OyZAvdarWSZBe&limit=25&offset=25&__after_id=343409265742178_2291357"}}},{"id":"351780034905101","from":{"name":"Thomas Alfieri","id":"100002193230672"},"name":"Mobile Uploads","link":"http:\/\/www.facebook.com\/album.php?fbid=351780034905101&id=100002193230672&aid=80659","cover_photo":"351780041571767","count":1,"type":"mobile","created_time":"2012-08-26T23:02:02+0000","updated_time":"2012-08-26T23:02:03+0000","can_upload":false},{"id":"338097172940054","from":{"name":"Thomas Alfieri","id":"100002193230672"},"name":"Profile Pictures","link":"http:\/\/www.facebook.com\/album.php?fbid=338097172940054&id=100002193230672&aid=76270","cover_photo":"338097179606720","count":1,"type":"profile","created_time":"2012-07-15T16:18:31+0000","updated_time":"2012-07-15T16:18:35+0000","can_upload":false}],"paging":{"cursors":{"after":"MzM4MDk3MTcyOTQwMDU0","before":"MzYwMjIzMDY0MDYwNzk4"}}}