{"data":[{"id":"117771118279800","from":{"name":"Alizoneya Montilla Zambrano","id":"100001407366208"},"name":"Profile Pictures","link":"http:\/\/www.facebook.com\/album.php?fbid=117771118279800&id=100001407366208&aid=11016","cover_photo":"514809585242616","count":62,"type":"profile","created_time":"2010-09-28T03:25:03+0000","updated_time":"2013-04-15T20:04:57+0000","can_upload":false},{"id":"512566228800285","from":{"name":"Alizoneya Montilla Zambrano","id":"100001407366208"},"name":"PhotoMania Photos","description":"Get your Photo Effects with PhotoMania! Link: http:\/\/apps.facebook.com\/photomaniafx\/?r=album_c3","location":"PhotoMania","link":"http:\/\/www.facebook.com\/album.php?fbid=512566228800285&id=100001407366208&aid=1073741830","cover_photo":"512566245466950","count":6,"type":"normal","created_time":"2013-04-09T17:07:48+0000","updated_time":"2013-04-15T19:49:46+0000","can_upload":false,"likes":{"data":[{"id":"100001057969865","name":"Jeison Rico"},{"id":"100003351656421","name":"Angie Milena Carvajal Ordonez"},{"id":"100002792978218","name":"Yelitza Garcia Garcia"}],"paging":{"next":"https:\/\/graph.facebook.com\/512566228800285\/likes?access_token=AAACEdEose0cBAMYosNuQgnCMBhgO4meNR3qH1cjXNhenSu6GRD6HiTa20OCYdbn297Lf2pZALjodgovOYrfZB0K5KvL0ONYoSHKuOldxmnwN01tZBh8&limit=25&offset=25&__after_id=100002792978218"}},"comments":{"data":[{"id":"512566228800285_4952221","from":{"name":"Yelitza Garcia Garcia","id":"100002792978218"},"message":"bonita","can_remove":false,"created_time":"2013-04-09T22:51:21+0000","like_count":0,"user_likes":false},{"id":"512566228800285_4954736","from":{"name":"Kenide Montilla Zambrano","id":"100003644437046"},"message":"uyyyyy hermanita stas linda","can_remove":false,"created_time":"2013-04-10T20:22:36+0000","like_count":0,"user_likes":false},{"id":"512566228800285_4961257","from":{"name":"Daniel Garcia","id":"100000460372532"},"message":"que nena tan linda","can_remove":false,"created_time":"2013-04-12T23:10:07+0000","like_count":0,"user_likes":false}],"paging":{"cursors":{"after":"Mw==","before":"MQ=="},"next":"https:\/\/graph.facebook.com\/512566228800285\/comments?access_token=AAACEdEose0cBAMYosNuQgnCMBhgO4meNR3qH1cjXNhenSu6GRD6HiTa20OCYdbn297Lf2pZALjodgovOYrfZB0K5KvL0ONYoSHKuOldxmnwN01tZBh8&limit=25&after=Mw\u00253D\u00253D"}}},{"id":"384469098276666","from":{"name":"Alizoneya Montilla Zambrano","id":"100001407366208"},"name":"mis creaciones pizap","link":"http:\/\/www.facebook.com\/album.php?fbid=384469098276666&id=100001407366208&aid=87363","cover_photo":"514804125243162","count":16,"type":"app","created_time":"2012-06-19T15:52:18+0000","updated_time":"2013-04-15T19:46:06+0000","can_upload":false,"likes":{"data":[{"id":"100001289141391","name":"Jhonatan Baos"}],"paging":{"next":"https:\/\/graph.facebook.com\/384469098276666\/likes?access_token=AAACEdEose0cBAMYosNuQgnCMBhgO4meNR3qH1cjXNhenSu6GRD6HiTa20OCYdbn297Lf2pZALjodgovOYrfZB0K5KvL0ONYoSHKuOldxmnwN01tZBh8&limit=25&offset=25&__after_id=100001289141391"}},"comments":{"data":[{"id":"384469098276666_3943944","from":{"name":"Jhonatan Baos","id":"100001289141391"},"message":"ohhhhhh q linda q tas amiguita","can_remove":false,"created_time":"2012-06-19T16:49:50+0000","like_count":0,"user_likes":false}],"paging":{"cursors":{"after":"MQ==","before":"MQ=="},"next":"https:\/\/graph.facebook.com\/384469098276666\/comments?access_token=AAACEdEose0cBAMYosNuQgnCMBhgO4meNR3qH1cjXNhenSu6GRD6HiTa20OCYdbn297Lf2pZALjodgovOYrfZB0K5KvL0ONYoSHKuOldxmnwN01tZBh8&limit=25&after=MQ\u00253D\u00253D"}}},{"id":"508752755848299","from":{"name":"Alizoneya Montilla Zambrano","id":"100001407366208"},"name":"Timeline Photos","description":"mi ni\u00f1a hermosa","link":"http:\/\/www.facebook.com\/album.php?fbid=508752755848299&id=100001407366208&aid=1073741829","cover_photo":"508752709181637","count":1,"type":"wall","created_time":"2013-03-31T01:56:39+0000","updated_time":"2013-03-31T01:58:19+0000","can_upload":false},{"id":"318349771555266","from":{"name":"Alizoneya Montilla Zambrano","id":"100001407366208"},"name":"Cover Photos","link":"http:\/\/www.facebook.com\/album.php?fbid=318349771555266&id=100001407366208&aid=75133","cover_photo":"508750155848559","count":44,"type":"normal","created_time":"2012-03-06T15:29:28+0000","updated_time":"2013-03-31T01:44:19+0000","can_upload":false},{"id":"434359896620919","from":{"name":"Alizoneya Montilla Zambrano","id":"100001407366208"},"name":"my familia","location":"Sotar\u00e1","place":{"id":"109147619104999","name":"Sotar\u00e1, Cauca","location":{"street":"","zip":"","latitude":2.25667,"longitude":-76.6186}},"link":"http:\/\/www.facebook.com\/album.php?fbid=434359896620919&id=100001407366208&aid=99652","cover_photo":"434359919954250","count":48,"type":"normal","created_time":"2012-10-15T23:21:12+0000","updated_time":"2012-10-15T23:50:18+0000","can_upload":false,"likes":{"data":[{"id":"100001057969865","name":"Jeison Rico"}],"paging":{"next":"https:\/\/graph.facebook.com\/434359896620919\/likes?access_token=AAACEdEose0cBAMYosNuQgnCMBhgO4meNR3qH1cjXNhenSu6GRD6HiTa20OCYdbn297Lf2pZALjodgovOYrfZB0K5KvL0ONYoSHKuOldxmnwN01tZBh8&limit=25&offset=25&__after_id=100001057969865"}},"comments":{"data":[{"id":"434359896620919_4357017","from":{"name":"Samuel Zu\u00f1iga","id":"1503943672"},"message":"ajjj q envidia de ese peluche","can_remove":false,"created_time":"2012-10-16T01:45:46+0000","like_count":0,"user_likes":false}],"paging":{"cursors":{"after":"MQ==","before":"MQ=="},"next":"https:\/\/graph.facebook.com\/434359896620919\/comments?access_token=AAACEdEose0cBAMYosNuQgnCMBhgO4meNR3qH1cjXNhenSu6GRD6HiTa20OCYdbn297Lf2pZALjodgovOYrfZB0K5KvL0ONYoSHKuOldxmnwN01tZBh8&limit=25&after=MQ\u00253D\u00253D"}}},{"id":"410108072379435","from":{"name":"Alizoneya Montilla Zambrano","id":"100001407366208"},"name":"mis amigos del cole","link":"http:\/\/www.facebook.com\/album.php?fbid=410108072379435&id=100001407366208&aid=92743","cover_photo":"410109619045947","count":12,"type":"normal","created_time":"2012-08-11T01:33:00+0000","updated_time":"2012-09-08T23:50:27+0000","can_upload":false,"likes":{"data":[{"id":"100001407366208","name":"Alizoneya Montilla Zambrano"},{"id":"100003899783980","name":"Jhoan Guevara"}],"paging":{"next":"https:\/\/graph.facebook.com\/410108072379435\/likes?access_token=AAACEdEose0cBAMYosNuQgnCMBhgO4meNR3qH1cjXNhenSu6GRD6HiTa20OCYdbn297Lf2pZALjodgovOYrfZB0K5KvL0ONYoSHKuOldxmnwN01tZBh8&limit=25&offset=25&__after_id=100003899783980"}}},{"id":"418225004901075","from":{"name":"Alizoneya Montilla Zambrano","id":"100001407366208"},"name":"mis amigos","link":"http:\/\/www.facebook.com\/album.php?fbid=418225004901075&id=100001407366208&aid=95371","cover_photo":"418228021567440","count":43,"type":"normal","created_time":"2012-09-03T01:04:45+0000","updated_time":"2012-09-03T20:12:05+0000","can_upload":false,"likes":{"data":[{"id":"100001407366208","name":"Alizoneya Montilla Zambrano"},{"id":"100001289141391","name":"Jhonatan Baos"},{"id":"100003899783980","name":"Jhoan Guevara"}],"paging":{"next":"https:\/\/graph.facebook.com\/418225004901075\/likes?access_token=AAACEdEose0cBAMYosNuQgnCMBhgO4meNR3qH1cjXNhenSu6GRD6HiTa20OCYdbn297Lf2pZALjodgovOYrfZB0K5KvL0ONYoSHKuOldxmnwN01tZBh8&limit=25&offset=25&__after_id=100003899783980"}}},{"id":"366962373360672","from":{"name":"Alizoneya Montilla Zambrano","id":"100001407366208"},"name":"prom 2011","link":"http:\/\/www.facebook.com\/album.php?fbid=366962373360672&id=100001407366208&aid=84249","cover_photo":"368849843171925","count":3,"type":"normal","created_time":"2012-05-19T18:32:01+0000","updated_time":"2012-08-10T20:28:27+0000","can_upload":false},{"id":"404767112913531","from":{"name":"Alizoneya Montilla Zambrano","id":"100001407366208"},"name":"Untitled Album","link":"http:\/\/www.facebook.com\/album.php?fbid=404767112913531&id=100001407366208&aid=91184","cover_photo":"404767116246864","count":1,"type":"normal","created_time":"2012-07-26T17:40:16+0000","updated_time":"2012-07-26T17:40:20+0000","can_upload":false},{"id":"395374037186172","from":{"name":"Alizoneya Montilla Zambrano","id":"100001407366208"},"name":"piZap.com Photos","link":"http:\/\/www.facebook.com\/album.php?fbid=395374037186172&id=100001407366208&aid=88557","cover_photo":"395374043852838","count":3,"type":"app","created_time":"2012-07-01T15:29:03+0000","updated_time":"2012-07-25T14:04:41+0000","can_upload":false,"comments":{"data":[{"id":"395374037186172_3994317","from":{"name":"Jesus Armando Castro Medina","id":"100000973637222"},"message":"uyyyyyyyyyyyyyy","can_remove":false,"created_time":"2012-07-03T01:40:14+0000","like_count":0,"user_likes":false}],"paging":{"cursors":{"after":"MQ==","before":"MQ=="},"next":"https:\/\/graph.facebook.com\/395374037186172\/comments?access_token=AAACEdEose0cBAMYosNuQgnCMBhgO4meNR3qH1cjXNhenSu6GRD6HiTa20OCYdbn297Lf2pZALjodgovOYrfZB0K5KvL0ONYoSHKuOldxmnwN01tZBh8&limit=25&after=MQ\u00253D\u00253D"}}},{"id":"318314974892079","from":{"name":"Alizoneya Montilla Zambrano","id":"100001407366208"},"name":"Untitled Album","description":"MIS AMIGOS","link":"http:\/\/www.facebook.com\/album.php?fbid=318314974892079&id=100001407366208&aid=75124","cover_photo":"318315058225404","count":3,"type":"normal","created_time":"2012-03-06T14:17:10+0000","updated_time":"2012-08-31T21:55:16+0000","can_upload":false},{"id":"366961526694090","from":{"name":"Alizoneya Montilla Zambrano","id":"100001407366208"},"name":"nuestra graduasion","link":"http:\/\/www.facebook.com\/album.php?fbid=366961526694090&id=100001407366208&aid=84248","cover_photo":"366961556694087","count":3,"type":"normal","created_time":"2012-05-19T18:30:09+0000","updated_time":"2012-06-14T13:08:23+0000","can_upload":false,"likes":{"data":[{"id":"100001407366208","name":"Alizoneya Montilla Zambrano"},{"id":"100001496299688","name":"Eylin Dahyana Quinayaz"},{"id":"1736513554","name":"Melissa Jativa"}],"paging":{"next":"https:\/\/graph.facebook.com\/366961526694090\/likes?access_token=AAACEdEose0cBAMYosNuQgnCMBhgO4meNR3qH1cjXNhenSu6GRD6HiTa20OCYdbn297Lf2pZALjodgovOYrfZB0K5KvL0ONYoSHKuOldxmnwN01tZBh8&limit=25&offset=25&__after_id=1736513554"}}},{"id":"366962663360643","from":{"name":"Alizoneya Montilla Zambrano","id":"100001407366208"},"name":"momentos cheveres","link":"http:\/\/www.facebook.com\/album.php?fbid=366962663360643&id=100001407366208&aid=84250","cover_photo":"366962713360638","count":5,"type":"normal","created_time":"2012-05-19T18:32:31+0000","updated_time":"2012-06-14T12:54:01+0000","can_upload":false,"likes":{"data":[{"id":"1736513554","name":"Melissa Jativa"}],"paging":{"next":"https:\/\/graph.facebook.com\/366962663360643\/likes?access_token=AAACEdEose0cBAMYosNuQgnCMBhgO4meNR3qH1cjXNhenSu6GRD6HiTa20OCYdbn297Lf2pZALjodgovOYrfZB0K5KvL0ONYoSHKuOldxmnwN01tZBh8&limit=25&offset=25&__after_id=1736513554"}},"comments":{"data":[{"id":"366962663360643_3842177","from":{"name":"Andres Perafan","id":"100002339873023"},"message":"a carachas hola","can_remove":false,"created_time":"2012-05-22T21:01:24+0000","like_count":0,"user_likes":false}],"paging":{"cursors":{"after":"MQ==","before":"MQ=="},"next":"https:\/\/graph.facebook.com\/366962663360643\/comments?access_token=AAACEdEose0cBAMYosNuQgnCMBhgO4meNR3qH1cjXNhenSu6GRD6HiTa20OCYdbn297Lf2pZALjodgovOYrfZB0K5KvL0ONYoSHKuOldxmnwN01tZBh8&limit=25&after=MQ\u00253D\u00253D"}}}],"paging":{"cursors":{"after":"MzY2OTYyNjYzMzYwNjQz","before":"MTE3NzcxMTE4Mjc5ODAw"}}}