{"data":[{"id":"104455976380022","from":{"name":"Nicole Coleman","id":"100004468598110"},"name":"Mobile Uploads","link":"http:\/\/www.facebook.com\/album.php?fbid=104455976380022&id=100004468598110&aid=11030","cover_photo":"132053003620319","count":27,"type":"mobile","created_time":"2012-10-07T15:27:01+0000","updated_time":"2012-12-25T23:54:48+0000","can_upload":false},{"id":"108535439305409","from":{"name":"Nicole Coleman","id":"100004468598110"},"name":"Cover Photos","link":"http:\/\/www.facebook.com\/album.php?fbid=108535439305409&id=100004468598110&aid=18353","cover_photo":"131393523686267","count":4,"type":"normal","created_time":"2012-10-14T22:46:27+0000","updated_time":"2012-12-23T22:31:35+0000","can_upload":false},{"id":"126682160824070","from":{"name":"Nicole Coleman","id":"100004468598110"},"name":"Timeline Photos","link":"http:\/\/www.facebook.com\/album.php?fbid=126682160824070&id=100004468598110&aid=28421","cover_photo":"129213797237573","count":5,"type":"wall","created_time":"2012-12-09T15:47:05+0000","updated_time":"2012-12-17T12:14:21+0000","can_upload":false},{"id":"106519212840365","from":{"name":"Nicole Coleman","id":"100004468598110"},"name":"LG Social+ Photos","link":"http:\/\/www.facebook.com\/album.php?fbid=106519212840365&id=100004468598110&aid=15565","cover_photo":"106637566161863","count":29,"type":"app","created_time":"2012-10-10T20:38:43+0000","updated_time":"2012-10-11T01:15:09+0000","can_upload":false,"likes":{"data":[{"id":"100000624639784","name":"Kimberly Wilson"}],"paging":{"next":"https:\/\/graph.facebook.com\/106519212840365\/likes?access_token=AAACEdEose0cBAJwErCNmIPZA6el8rxxyY5ULyI6xBIzYxuyekLKT4jiLPBr1teydoTPlSXlbBEkmB07tIO62Pi4QqIsy3oMtz1ihC5OyZAvdarWSZBe&limit=25&offset=25&__after_id=100000624639784"}}},{"id":"106515456174074","from":{"name":"Nicole Coleman","id":"100004468598110"},"name":"Profile Pictures","link":"http:\/\/www.facebook.com\/album.php?fbid=106515456174074&id=100004468598110&aid=15553","cover_photo":"106515462840740","count":1,"type":"profile","created_time":"2012-10-10T20:31:54+0000","updated_time":"2012-10-10T20:31:56+0000","can_upload":false}],"paging":{"cursors":{"after":"MTA2NTE1NDU2MTc0MDc0","before":"MTA0NDU1OTc2MzgwMDIy"}}}