{"data":[{"id":"101132146726751","from":{"name":"Tatiana Story","id":"100004898972288"},"name":"Timeline Photos","link":"http:\/\/www.facebook.com\/album.php?fbid=101132146726751&id=100004898972288&aid=2069","cover_photo":"151291681710797","count":107,"type":"wall","created_time":"2012-12-21T02:26:23+0000","updated_time":"2013-04-15T16:48:11+0000","can_upload":false},{"id":"101129790060320","from":{"name":"Tatiana Story","id":"100004898972288"},"name":"Profile Pictures","link":"http:\/\/www.facebook.com\/album.php?fbid=101129790060320&id=100004898972288&aid=2063","cover_photo":"149159928590639","count":15,"type":"profile","created_time":"2012-12-21T02:14:54+0000","updated_time":"2013-04-08T20:56:00+0000","can_upload":false},{"id":"102713793235253","from":{"name":"Tatiana Story","id":"100004898972288"},"name":"Mobile Uploads","link":"http:\/\/www.facebook.com\/album.php?fbid=102713793235253&id=100004898972288&aid=4699","cover_photo":"138031103036855","count":3,"type":"mobile","created_time":"2012-12-23T07:38:06+0000","updated_time":"2013-03-08T06:32:55+0000","can_upload":false},{"id":"101132040060095","from":{"name":"Tatiana Story","id":"100004898972288"},"name":"Cover Photos","link":"http:\/\/www.facebook.com\/album.php?fbid=101132040060095&id=100004898972288&aid=2068","cover_photo":"126943720812260","count":8,"type":"normal","created_time":"2012-12-21T02:25:55+0000","updated_time":"2013-02-05T06:31:29+0000","can_upload":false},{"id":"101132370060062","from":{"name":"Tatiana Story","id":"100004898972288"},"name":"The Many Face of Me","description":"taken everywhere i am :)","link":"http:\/\/www.facebook.com\/album.php?fbid=101132370060062&id=100004898972288&aid=2070","cover_photo":"101141230059176","count":12,"type":"normal","created_time":"2012-12-21T02:27:00+0000","updated_time":"2013-03-07T00:06:20+0000","can_upload":false,"likes":{"data":[{"id":"100001141041297","name":"Umberto Para"},{"id":"100004825865594","name":"Winston Carl Newell"},{"id":"18703388","name":"Stephanie Scheker"}],"paging":{"next":"https:\/\/graph.facebook.com\/101132370060062\/likes?access_token=AAACEdEose0cBAMYosNuQgnCMBhgO4meNR3qH1cjXNhenSu6GRD6HiTa20OCYdbn297Lf2pZALjodgovOYrfZB0K5KvL0ONYoSHKuOldxmnwN01tZBh8&limit=25&offset=25&__after_id=18703388"}}},{"id":"112583578914941","from":{"name":"Tatiana Story","id":"100004898972288"},"name":"Story - Nights","description":"We rock the parties that move your bodies.  If you haven't been here you should ask yourself why? This is our Story....what's yours?!?!","location":"STORY Miami","place":{"id":"239073682882493","name":"STORY Miami","location":{"street":"136 Collins Avenue","city":"Miami Beach","state":"FL","country":"United States","zip":"33139","latitude":25.770562232936,"longitude":-80.134152277367}},"link":"http:\/\/www.facebook.com\/album.php?fbid=112583578914941&id=100004898972288&aid=18094","cover_photo":"112583588914940","count":62,"type":"normal","created_time":"2013-01-03T02:36:38+0000","updated_time":"2013-01-30T20:39:16+0000","can_upload":false,"likes":{"data":[{"id":"100004898972288","name":"Tatiana Story"},{"id":"100000905396772","name":"Jessica Lipps"},{"id":"100004874264257","name":"Anthony Story"},{"id":"606531265","name":"Augusto Torres"},{"id":"822147854","name":"Bibi N Carlos"},{"id":"100000239760941","name":"Kim Martin"},{"id":"100004911270115","name":"Jenny Story-Miami"},{"id":"577438225","name":"Tatiana Stewart"}],"paging":{"next":"https:\/\/graph.facebook.com\/112583578914941\/likes?access_token=AAACEdEose0cBAMYosNuQgnCMBhgO4meNR3qH1cjXNhenSu6GRD6HiTa20OCYdbn297Lf2pZALjodgovOYrfZB0K5KvL0ONYoSHKuOldxmnwN01tZBh8&limit=25&offset=25&__after_id=577438225"}},"comments":{"data":[{"id":"112583578914941_28277","from":{"name":"Tatiana Story","id":"100004898972288"},"message":"Jenny Story-Miami, Kim Martin, Jade Story, Fernando Alva Mix, Michael Geller, Michelle Morse,","message_tags":[{"id":"100004911270115","name":"Jenny Story-Miami","type":"user","offset":0,"length":17},{"id":"100000239760941","name":"Kim Martin","type":"user","offset":19,"length":10},{"id":"100004869311411","name":"Jade Story","type":"user","offset":31,"length":10},{"id":"100000268637125","name":"Fernando Alva Mix","type":"user","offset":43,"length":17},{"id":"1751461762","name":"Michael Geller","type":"user","offset":62,"length":14},{"id":"1404402986","name":"Michelle Morse","type":"user","offset":78,"length":14}],"can_remove":false,"created_time":"2013-01-03T02:45:10+0000","like_count":3,"user_likes":false},{"id":"112583578914941_28498","from":{"name":"Bibi N Carlos","id":"822147854"},"message":"Bad ass!!cant wait to go!! Miss u :)","can_remove":false,"created_time":"2013-01-03T05:23:02+0000","like_count":0,"user_likes":false}],"paging":{"cursors":{"after":"Mg==","before":"MQ=="},"next":"https:\/\/graph.facebook.com\/112583578914941\/comments?access_token=AAACEdEose0cBAMYosNuQgnCMBhgO4meNR3qH1cjXNhenSu6GRD6HiTa20OCYdbn297Lf2pZALjodgovOYrfZB0K5KvL0ONYoSHKuOldxmnwN01tZBh8&limit=25&after=Mg\u00253D\u00253D"}}},{"id":"101239356716030","from":{"name":"Tatiana Story","id":"100004898972288"},"name":"Party Time","link":"http:\/\/www.facebook.com\/album.php?fbid=101239356716030&id=100004898972288&aid=2250","cover_photo":"101240006715965","count":43,"type":"normal","created_time":"2012-12-21T09:11:26+0000","updated_time":"2013-01-27T21:52:55+0000","can_upload":false,"likes":{"data":[{"id":"633386945","name":"Jawad Hussain"},{"id":"100000239760941","name":"Kim Martin"},{"id":"822147854","name":"Bibi N Carlos"}],"paging":{"next":"https:\/\/graph.facebook.com\/101239356716030\/likes?access_token=AAACEdEose0cBAMYosNuQgnCMBhgO4meNR3qH1cjXNhenSu6GRD6HiTa20OCYdbn297Lf2pZALjodgovOYrfZB0K5KvL0ONYoSHKuOldxmnwN01tZBh8&limit=25&offset=25&__after_id=822147854"}}}],"paging":{"cursors":{"after":"MTAxMjM5MzU2NzE2MDMw","before":"MTAxMTMyMTQ2NzI2NzUx"}}}