{"data":[{"id":"101279096562533","from":{"name":"James Miller","id":"100000413304113"},"name":"The Rock & Roll Time capsule","description":"Me Playing guitar in the Rock & Roll Time capsule gig \u0040 Swampgrass Willy's 10-23-2009","location":"Swampgrass Willy's,Palm Beach Gardens,Fl.","link":"http:\/\/www.facebook.com\/album.php?fbid=101279096562533&id=100000413304113&aid=2872","cover_photo":"101280109895765","count":31,"type":"normal","created_time":"2009-11-06T01:57:23+0000","updated_time":"2009-11-06T02:26:30+0000","can_upload":false,"likes":{"data":[{"id":"100000522462910","name":"David Barrett"}],"paging":{"next":"https:\/\/graph.facebook.com\/101279096562533\/likes?access_token=AAACEdEose0cBAJwErCNmIPZA6el8rxxyY5ULyI6xBIzYxuyekLKT4jiLPBr1teydoTPlSXlbBEkmB07tIO62Pi4QqIsy3oMtz1ihC5OyZAvdarWSZBe&limit=25&offset=25&__after_id=100000522462910"}},"comments":{"data":[{"id":"101279096562533_273570","from":{"name":"Alan Skeel","id":"100000594165835"},"message":"fucking awesome dude im proud of you n hope top hear you play again someday","can_remove":false,"created_time":"2010-04-11T17:13:54+0000","like_count":0,"user_likes":false}],"paging":{"next":"https:\/\/graph.facebook.com\/101279096562533\/comments?access_token=AAACEdEose0cBAJwErCNmIPZA6el8rxxyY5ULyI6xBIzYxuyekLKT4jiLPBr1teydoTPlSXlbBEkmB07tIO62Pi4QqIsy3oMtz1ihC5OyZAvdarWSZBe&limit=25&offset=25&__after_id=101279096562533_273570"}}}],"paging":{"cursors":{"after":"MTAxMjc5MDk2NTYyNTMz","before":"MTAxMjc5MDk2NTYyNTMz"},"previous":"https:\/\/graph.facebook.com\/100000413304113\/albums?limit=500&access_token=AAACEdEose0cBAJwErCNmIPZA6el8rxxyY5ULyI6xBIzYxuyekLKT4jiLPBr1teydoTPlSXlbBEkmB07tIO62Pi4QqIsy3oMtz1ihC5OyZAvdarWSZBe&before=MTAxMjc5MDk2NTYyNTMz"}}