{"data":[{"id":"180820545368038","from":{"name":"Denise Rubin","id":"100003202827561"},"name":"Timeline Photos","link":"http:\/\/www.facebook.com\/album.php?fbid=180820545368038&id=100003202827561&aid=38318","cover_photo":"305920039524754","count":55,"type":"wall","created_time":"2012-03-23T19:30:11+0000","updated_time":"2013-02-22T22:18:25+0000","can_upload":false},{"id":"254088604707898","from":{"name":"Denise Rubin","id":"100003202827561"},"name":"Cover Photos","link":"http:\/\/www.facebook.com\/album.php?fbid=254088604707898&id=100003202827561&aid=55730","cover_photo":"320778298038928","count":8,"type":"normal","created_time":"2012-07-31T20:45:02+0000","updated_time":"2013-01-23T20:19:15+0000","can_upload":false},{"id":"307936175989807","from":{"name":"Denise Rubin","id":"100003202827561"},"name":"Holiday Album 2012","description":"DENISE RUBIN 2012 - BEST HOLIDAY PART EVER \u0040 BRIO  \/ DENISE RUBIN REAL ESTATE GROUP - CELEBRATE A SUCCESSFUL YEAR !\nSANTA DENISE GIVES EACH TEAM MEMBER A BEAUTIFUL GIFT \nHAPPY & HEALTHY NEW YEAR EVERYBODY :)","link":"http:\/\/www.facebook.com\/album.php?fbid=307936175989807&id=100003202827561&aid=72245","cover_photo":"307938302656261","count":40,"type":"normal","created_time":"2012-12-26T19:29:49+0000","updated_time":"2012-12-26T23:44:52+0000","can_upload":false,"likes":{"data":[{"id":"100000956575033","name":"John Walters"},{"id":"1035746665","name":"Erdinc Engin"},{"id":"100003717490925","name":"OldMasters Atelier"},{"id":"1408552921","name":"Daniel Tedesco"},{"id":"100003756688512","name":"Michael Piccolo"},{"id":"100003791715382","name":"Kivoi Junior"},{"id":"1261062515","name":"Riddel Alvarez"},{"id":"100003280130596","name":"Ka  Tosi"},{"id":"639832422","name":"Fabian Alexander"}],"paging":{"next":"https:\/\/graph.facebook.com\/307936175989807\/likes?access_token=AAACEdEose0cBAJwErCNmIPZA6el8rxxyY5ULyI6xBIzYxuyekLKT4jiLPBr1teydoTPlSXlbBEkmB07tIO62Pi4QqIsy3oMtz1ihC5OyZAvdarWSZBe&limit=25&offset=25&__after_id=639832422"}}},{"id":"303090056474419","from":{"name":"Denise Rubin","id":"100003202827561"},"name":"Untitled Album","description":"Prudential Office Holiday Party!!","location":"Brio Tuscan Grille","place":{"id":"125254174189279","name":"Brio Tuscan Grille","location":{"street":"","city":"Hallandale Beach","state":"FL","country":"United States","zip":"33009","latitude":25.978059807764,"longitude":-80.14131976388}},"link":"http:\/\/www.facebook.com\/album.php?fbid=303090056474419&id=100003202827561&aid=71000","cover_photo":"303091269807631","count":10,"type":"normal","created_time":"2012-12-14T21:11:59+0000","updated_time":"2012-12-14T21:16:16+0000","can_upload":false,"likes":{"data":[{"id":"100004091411309","name":"Esam Esam"},{"id":"100003791715382","name":"Kivoi Junior"},{"id":"100004744293142","name":"Heatitaly Ceffo"}],"paging":{"next":"https:\/\/graph.facebook.com\/303090056474419\/likes?access_token=AAACEdEose0cBAJwErCNmIPZA6el8rxxyY5ULyI6xBIzYxuyekLKT4jiLPBr1teydoTPlSXlbBEkmB07tIO62Pi4QqIsy3oMtz1ihC5OyZAvdarWSZBe&limit=25&offset=25&__after_id=100004744293142"}},"comments":{"data":[{"id":"303090056474419_1418505","from":{"name":"Esam Esam","id":"100004091411309"},"message":"Nice pic","can_remove":false,"created_time":"2012-12-17T13:54:43+0000","like_count":0,"user_likes":false}],"paging":{"next":"https:\/\/graph.facebook.com\/303090056474419\/comments?access_token=AAACEdEose0cBAJwErCNmIPZA6el8rxxyY5ULyI6xBIzYxuyekLKT4jiLPBr1teydoTPlSXlbBEkmB07tIO62Pi4QqIsy3oMtz1ihC5OyZAvdarWSZBe&limit=25&offset=25&__after_id=303090056474419_1418505"}}},{"id":"294784570638301","from":{"name":"Denise Rubin","id":"100003202827561"},"name":"Thanksgiving 2012","link":"http:\/\/www.facebook.com\/album.php?fbid=294784570638301&id=100003202827561&aid=69076","cover_photo":"294784580638300","count":46,"type":"normal","created_time":"2012-11-23T18:48:18+0000","updated_time":"2012-11-27T17:33:12+0000","can_upload":false,"likes":{"data":[{"id":"1340485197","name":"Lena Vinokur"},{"id":"1354960514","name":"Rei Mesa"},{"id":"100002399843469","name":"Shiroiy D. Cama"},{"id":"100004091411309","name":"Esam Esam"},{"id":"100000158778776","name":"Lmh Mag"},{"id":"583752427","name":"Arnulfo Benavides"},{"id":"1408552921","name":"Daniel Tedesco"},{"id":"100004479365342","name":"Fatino Nisae"},{"id":"100004655256958","name":"Massakadza Gilbert"},{"id":"100002242985776","name":"Eduardo Zuniga"},{"id":"1301464312","name":"Gilad Gueta"},{"id":"100000492854066","name":"Mike Goralski"},{"id":"1290413390","name":"Stefan Winkler"},{"id":"100001344804789","name":"Elizabeth Anne Fairris"}],"paging":{"next":"https:\/\/graph.facebook.com\/294784570638301\/likes?access_token=AAACEdEose0cBAJwErCNmIPZA6el8rxxyY5ULyI6xBIzYxuyekLKT4jiLPBr1teydoTPlSXlbBEkmB07tIO62Pi4QqIsy3oMtz1ihC5OyZAvdarWSZBe&limit=25&offset=25&__after_id=100001344804789"}},"comments":{"data":[{"id":"294784570638301_1330838","from":{"name":"Fatino Nisae","id":"100004479365342"},"message":"vous etes treeeeeeeeeeeeeeeees belle vraiment","can_remove":false,"created_time":"2012-11-23T20:24:57+0000","like_count":0,"user_likes":false},{"id":"294784570638301_1335136","from":{"name":"Castor Perez","id":"100000095993754"},"message":"bellicimaaa","can_remove":false,"created_time":"2012-11-25T00:06:51+0000","like_count":0,"user_likes":false}],"paging":{"next":"https:\/\/graph.facebook.com\/294784570638301\/comments?access_token=AAACEdEose0cBAJwErCNmIPZA6el8rxxyY5ULyI6xBIzYxuyekLKT4jiLPBr1teydoTPlSXlbBEkmB07tIO62Pi4QqIsy3oMtz1ihC5OyZAvdarWSZBe&limit=25&offset=25&__after_id=294784570638301_1335136"}}},{"id":"294020034048088","from":{"name":"Denise Rubin","id":"100003202827561"},"name":"Untitled Album","description":"Denise's B-Day 2012","link":"http:\/\/www.facebook.com\/album.php?fbid=294020034048088&id=100003202827561&aid=68872","cover_photo":"294020047381420","count":11,"type":"normal","created_time":"2012-11-21T17:10:39+0000","updated_time":"2012-11-21T17:20:51+0000","can_upload":false,"likes":{"data":[{"id":"100000294020501","name":"Bruno Facchini"},{"id":"1433391327","name":"Charles Brown"}],"paging":{"next":"https:\/\/graph.facebook.com\/294020034048088\/likes?access_token=AAACEdEose0cBAJwErCNmIPZA6el8rxxyY5ULyI6xBIzYxuyekLKT4jiLPBr1teydoTPlSXlbBEkmB07tIO62Pi4QqIsy3oMtz1ihC5OyZAvdarWSZBe&limit=25&offset=25&__after_id=1433391327"}}},{"id":"247612062022219","from":{"name":"Denise Rubin","id":"100003202827561"},"name":"Mobile Uploads","link":"http:\/\/www.facebook.com\/album.php?fbid=247612062022219&id=100003202827561&aid=53552","cover_photo":"292254090891349","count":23,"type":"mobile","created_time":"2012-07-12T23:29:27+0000","updated_time":"2012-11-16T21:54:20+0000","can_upload":false},{"id":"283398375110254","from":{"name":"Denise Rubin","id":"100003202827561"},"name":"Untitled Album","link":"http:\/\/www.facebook.com\/album.php?fbid=283398375110254&id=100003202827561&aid=65925","type":"normal","created_time":"2012-10-24T13:24:51+0000","updated_time":"2012-11-01T18:15:51+0000","can_upload":false},{"id":"283397875110304","from":{"name":"Denise Rubin","id":"100003202827561"},"name":"Doggie fun!!","link":"http:\/\/www.facebook.com\/album.php?fbid=283397875110304&id=100003202827561&aid=65924","cover_photo":"283397891776969","count":3,"type":"normal","created_time":"2012-10-24T13:23:18+0000","updated_time":"2012-10-24T13:23:50+0000","can_upload":false,"likes":{"data":[{"id":"1051365041","name":"Jazmin Morocho Diz"}],"paging":{"next":"https:\/\/graph.facebook.com\/283397875110304\/likes?access_token=AAACEdEose0cBAJwErCNmIPZA6el8rxxyY5ULyI6xBIzYxuyekLKT4jiLPBr1teydoTPlSXlbBEkmB07tIO62Pi4QqIsy3oMtz1ihC5OyZAvdarWSZBe&limit=25&offset=25&__after_id=1051365041"}}},{"id":"245175378932554","from":{"name":"Denise Rubin","id":"100003202827561"},"name":"Vacation June 2012 (1 of 2)","description":"Thailand (Bangkok) and Japan (Tokyo)","link":"http:\/\/www.facebook.com\/album.php?fbid=245175378932554&id=100003202827561&aid=52703","cover_photo":"245179285598830","count":129,"type":"normal","created_time":"2012-07-05T21:11:48+0000","updated_time":"2012-07-06T13:58:14+0000","can_upload":false,"likes":{"data":[{"id":"100003202827561","name":"Denise Rubin"},{"id":"100003717490925","name":"OldMasters Atelier"},{"id":"100003540373381","name":"Sajjad Manzzor"},{"id":"600149161","name":"Rosy Lofer"}],"paging":{"next":"https:\/\/graph.facebook.com\/245175378932554\/likes?access_token=AAACEdEose0cBAJwErCNmIPZA6el8rxxyY5ULyI6xBIzYxuyekLKT4jiLPBr1teydoTPlSXlbBEkmB07tIO62Pi4QqIsy3oMtz1ihC5OyZAvdarWSZBe&limit=25&offset=25&__after_id=600149161"}},"comments":{"data":[{"id":"245175378932554_845201","from":{"name":"Sajjad Manzzor","id":"100003540373381"},"message":"beatifull pictures","can_remove":false,"created_time":"2012-07-09T17:40:14+0000","like_count":0,"user_likes":false}],"paging":{"next":"https:\/\/graph.facebook.com\/245175378932554\/comments?access_token=AAACEdEose0cBAJwErCNmIPZA6el8rxxyY5ULyI6xBIzYxuyekLKT4jiLPBr1teydoTPlSXlbBEkmB07tIO62Pi4QqIsy3oMtz1ihC5OyZAvdarWSZBe&limit=25&offset=25&__after_id=245175378932554_845201"}}},{"id":"232372826879476","from":{"name":"Denise Rubin","id":"100003202827561"},"name":"Ocean III","link":"http:\/\/www.facebook.com\/album.php?fbid=232372826879476&id=100003202827561&aid=49859","cover_photo":"232372873546138","count":12,"type":"normal","created_time":"2012-06-12T20:45:56+0000","updated_time":"2012-06-12T20:55:52+0000","can_upload":false},{"id":"232370533546372","from":{"name":"Denise Rubin","id":"100003202827561"},"name":"Untitled Album","description":"Golden Shores","link":"http:\/\/www.facebook.com\/album.php?fbid=232370533546372&id=100003202827561&aid=49858","cover_photo":"232370576879701","count":3,"type":"normal","created_time":"2012-06-12T20:41:00+0000","updated_time":"2012-06-12T20:45:24+0000","can_upload":false},{"id":"232305800219512","from":{"name":"Denise Rubin","id":"100003202827561"},"name":"Ryan's 30th birthday","link":"http:\/\/www.facebook.com\/album.php?fbid=232305800219512&id=100003202827561&aid=49848","cover_photo":"232306216886137","count":27,"type":"normal","created_time":"2012-06-12T18:08:29+0000","updated_time":"2012-06-12T20:07:26+0000","can_upload":false,"likes":{"data":[{"id":"100003717490925","name":"OldMasters Atelier"}],"paging":{"next":"https:\/\/graph.facebook.com\/232305800219512\/likes?access_token=AAACEdEose0cBAJwErCNmIPZA6el8rxxyY5ULyI6xBIzYxuyekLKT4jiLPBr1teydoTPlSXlbBEkmB07tIO62Pi4QqIsy3oMtz1ihC5OyZAvdarWSZBe&limit=25&offset=25&__after_id=100003717490925"}}},{"id":"116190185164408","from":{"name":"Denise Rubin","id":"100003202827561"},"name":"Profile Pictures","link":"http:\/\/www.facebook.com\/album.php?fbid=116190185164408&id=100003202827561&aid=18550","cover_photo":"116190188497741","count":3,"type":"profile","created_time":"2011-12-14T19:45:32+0000","updated_time":"2012-06-08T17:02:21+0000","can_upload":false},{"id":"186639374786155","from":{"name":"Denise Rubin","id":"100003202827561"},"name":"Sony Ericsson Open","link":"http:\/\/www.facebook.com\/album.php?fbid=186639374786155&id=100003202827561&aid=40004","cover_photo":"186639461452813","count":7,"type":"normal","created_time":"2012-04-02T17:59:25+0000","updated_time":"2012-04-02T18:00:26+0000","can_upload":false},{"id":"157905310992895","from":{"name":"Denise Rubin","id":"100003202827561"},"name":"THE PARC AT TURNBERRY ISLE","description":"FABULOUS \"THE PARC\" AT TURNBERRY.PRIVATE ELEVATOR ENTRY TO NEW LUXURY BLDG,2BED+DEN OR 3RD BEDRM NOW WITH FRENCH DOORS,GORGEOUS CONDO WITH 4 TERRACES!VIEWS TO TAKE YOUR BREATH AWAY OF DIREC OCEAN OVER GOLDEN BEACH W\/NO OBSTRUCTIONS,ALSO MARINA+CITY VIEWS,GOURMET STATE OF THE ART OPEN ITALIAN KITCHEN W WOOD CABINETS,GRANITE COUNTERTOPS,STAINLESS STEEL APPLIANCES,MARBLE FLOORS THROUGHOUT LIVING ARES!\"IMMACULATE\"UNIT W 2HOUSEKEEPERS!NATURALLY LIGHT UNIT,SPACIOUS AND BRIGHT!","link":"http:\/\/www.facebook.com\/album.php?fbid=157905310992895&id=100003202827561&aid=32033","cover_photo":"157905317659561","count":16,"type":"normal","created_time":"2012-02-15T16:15:36+0000","updated_time":"2012-02-15T16:16:20+0000","can_upload":false},{"id":"157412594375500","from":{"name":"Denise Rubin","id":"100003202827561"},"name":"OCEANIA TH9","description":"lol.. my boss keeps putting cupcakes ON MY DESK LOL..I ALREADY HAVE LIKE 3 BIG COOKIES, 2 CUPCAKES , a lollypop and  this big thing full of heart candies. lol thanks god I'm on a diet because i would murder all of that !! She is very sweet xoxo","link":"http:\/\/www.facebook.com\/album.php?fbid=157412594375500&id=100003202827561&aid=31924","cover_photo":"157412747708818","count":24,"type":"normal","created_time":"2012-02-14T21:20:28+0000","updated_time":"2012-02-14T21:21:15+0000","can_upload":false}],"paging":{"cursors":{"after":"MTU3NDEyNTk0Mzc1NTAw","before":"MTgwODIwNTQ1MzY4MDM4"}}}