{"data":[{"id":"373555936056730","from":{"name":"Yvonne Rosemeier","id":"100002069790582"},"name":"Instagram Photos","link":"http:\/\/www.facebook.com\/album.php?fbid=373555936056730&id=100002069790582&aid=93884","cover_photo":"447600828652240","count":31,"type":"app","created_time":"2012-10-14T21:00:44+0000","updated_time":"2013-03-29T20:28:41+0000","can_upload":false},{"id":"241656815913310","from":{"name":"Yvonne Rosemeier","id":"100002069790582"},"name":"Cover Photos","link":"http:\/\/www.facebook.com\/album.php?fbid=241656815913310&id=100002069790582&aid=62665","cover_photo":"421821481230175","count":10,"type":"normal","created_time":"2012-02-02T18:33:58+0000","updated_time":"2013-01-30T16:11:45+0000","can_upload":false},{"id":"109279909151002","from":{"name":"Yvonne Rosemeier","id":"100002069790582"},"name":"Profile Pictures","link":"http:\/\/www.facebook.com\/album.php?fbid=109279909151002&id=100002069790582&aid=18418","cover_photo":"421818134563843","count":10,"type":"profile","created_time":"2011-03-09T22:30:44+0000","updated_time":"2013-01-30T15:59:05+0000","can_upload":false},{"id":"110651752347151","from":{"name":"Yvonne Rosemeier","id":"100002069790582"},"name":"Timeline Photos","description":"Holiday Spirit.","link":"http:\/\/www.facebook.com\/album.php?fbid=110651752347151&id=100002069790582&aid=19545","cover_photo":"413434392068884","count":58,"type":"wall","created_time":"2011-03-15T20:38:42+0000","updated_time":"2013-01-19T20:49:07+0000","can_upload":false},{"id":"413431322069191","from":{"name":"Yvonne Rosemeier","id":"100002069790582"},"name":"Untitled Album","description":"The Loft New Treats","location":"The Loft & YR Couture","place":{"id":"131221153616160","name":"The Loft & YR Couture","location":{"street":"3190A Commodore Ave","city":"Miami","state":"FL","country":"United States","zip":"33133","latitude":25.727631,"longitude":-80.244974}},"link":"http:\/\/www.facebook.com\/album.php?fbid=413431322069191&id=100002069790582&aid=102909","cover_photo":"413431505402506","count":16,"type":"normal","created_time":"2013-01-19T20:41:12+0000","updated_time":"2013-01-19T20:46:13+0000","can_upload":false,"likes":{"data":[{"id":"100000194800062","name":"Joanne Higbee"},{"id":"100001762104301","name":"Michael Cirillo"},{"id":"865755081","name":"Mike Burns"},{"id":"1171624387","name":"Kelly Stretch Klaic"},{"id":"1659504023","name":"Qubert Que"},{"id":"100002347725280","name":"Norma Lopez"},{"id":"704404874","name":"Andres Lemos"},{"id":"100001212704539","name":"Shesha Knak Flores"}],"paging":{"next":"https:\/\/graph.facebook.com\/413431322069191\/likes?access_token=AAACEdEose0cBAMYosNuQgnCMBhgO4meNR3qH1cjXNhenSu6GRD6HiTa20OCYdbn297Lf2pZALjodgovOYrfZB0K5KvL0ONYoSHKuOldxmnwN01tZBh8&limit=25&offset=25&__after_id=100001212704539"}},"comments":{"data":[{"id":"413431322069191_10435086","from":{"name":"Qubert Que","id":"1659504023"},"message":"Quibo Yvonne luv Ur store u have the best customized jewelry","can_remove":false,"created_time":"2013-01-19T21:30:12+0000","like_count":0,"user_likes":false},{"id":"413431322069191_10435102","from":{"name":"Kelly Stretch Klaic","id":"1171624387"},"message":"Uh hello ladies! Call me next time, I'll come by to watch the fashion show!!","can_remove":false,"created_time":"2013-01-19T21:36:50+0000","like_count":1,"user_likes":false},{"id":"413431322069191_10438046","from":{"name":"Yvonne Rosemeier","id":"100002069790582"},"message":"Next photo shoot your in Kelly Stretch Klaic.","message_tags":[{"id":"1171624387","name":"Kelly Stretch Klaic","type":"user","offset":25,"length":19}],"can_remove":false,"created_time":"2013-01-20T19:04:39+0000","like_count":0,"user_likes":false}],"paging":{"cursors":{"after":"Mw==","before":"MQ=="},"next":"https:\/\/graph.facebook.com\/413431322069191\/comments?access_token=AAACEdEose0cBAMYosNuQgnCMBhgO4meNR3qH1cjXNhenSu6GRD6HiTa20OCYdbn297Lf2pZALjodgovOYrfZB0K5KvL0ONYoSHKuOldxmnwN01tZBh8&limit=25&after=Mw\u00253D\u00253D"}}},{"id":"377805275631796","from":{"name":"Yvonne Rosemeier","id":"100002069790582"},"name":"Untitled Album","description":"This Week New Arrivals","location":"The Loft & YR Couture","place":{"id":"131221153616160","name":"The Loft & YR Couture","location":{"street":"3190A Commodore Ave","city":"Miami","state":"FL","country":"United States","zip":"33133","latitude":25.727631,"longitude":-80.244974}},"link":"http:\/\/www.facebook.com\/album.php?fbid=377805275631796&id=100002069790582&aid=95070","cover_photo":"377805302298460","count":13,"type":"normal","created_time":"2012-10-25T21:17:10+0000","updated_time":"2012-10-25T22:18:10+0000","can_upload":false,"comments":{"data":[{"id":"377805275631796_10157564","from":{"name":"Cj McCann","id":"100000313402558"},"message":"Me like it!!!","can_remove":false,"created_time":"2012-10-25T23:35:18+0000","like_count":0,"user_likes":false}],"paging":{"cursors":{"after":"MQ==","before":"MQ=="},"next":"https:\/\/graph.facebook.com\/377805275631796\/comments?access_token=AAACEdEose0cBAMYosNuQgnCMBhgO4meNR3qH1cjXNhenSu6GRD6HiTa20OCYdbn297Lf2pZALjodgovOYrfZB0K5KvL0ONYoSHKuOldxmnwN01tZBh8&limit=25&after=MQ\u00253D\u00253D"}}},{"id":"219985811413744","from":{"name":"Yvonne Rosemeier","id":"100002069790582"},"name":"Mobile Uploads","link":"http:\/\/www.facebook.com\/album.php?fbid=219985811413744&id=100002069790582&aid=57361","cover_photo":"355424404536550","count":100,"type":"mobile","created_time":"2011-12-29T22:39:53+0000","updated_time":"2012-08-25T18:26:44+0000","can_upload":false},{"id":"315580825187575","from":{"name":"Yvonne Rosemeier","id":"100002069790582"},"name":"YR Couture","location":"The Loft","link":"http:\/\/www.facebook.com\/album.php?fbid=315580825187575&id=100002069790582&aid=78134","cover_photo":"315580851854239","count":1,"type":"normal","created_time":"2012-05-26T19:39:10+0000","updated_time":"2012-05-28T19:19:36+0000","can_upload":false},{"id":"241657399246585","from":{"name":"Yvonne Rosemeier","id":"100002069790582"},"name":"Untitled Album","link":"http:\/\/www.facebook.com\/album.php?fbid=241657399246585&id=100002069790582&aid=62666","cover_photo":"241657445913247","count":45,"type":"normal","created_time":"2012-02-02T18:35:10+0000","updated_time":"2012-02-03T20:24:38+0000","can_upload":false,"likes":{"data":[{"id":"1655457782","name":"Manuel Portuondo"},{"id":"704404874","name":"Andres Lemos"}],"paging":{"next":"https:\/\/graph.facebook.com\/241657399246585\/likes?access_token=AAACEdEose0cBAMYosNuQgnCMBhgO4meNR3qH1cjXNhenSu6GRD6HiTa20OCYdbn297Lf2pZALjodgovOYrfZB0K5KvL0ONYoSHKuOldxmnwN01tZBh8&limit=25&offset=25&__after_id=704404874"}},"comments":{"data":[{"id":"241657399246585_1464698","from":{"name":"Tom Falco","id":"1641918981"},"message":"Yvonne, stealing photos from the Grapevine and other places is against the law. Just so you know. It's copyright infringement.","can_remove":false,"created_time":"2012-02-02T19:15:14+0000","like_count":0,"user_likes":false},{"id":"241657399246585_1464802","from":{"name":"Giana M. Leyva","id":"1296572575"},"message":"Tom, don't be like that... That's not you...","can_remove":false,"created_time":"2012-02-02T19:40:07+0000","like_count":0,"user_likes":false},{"id":"241657399246585_1465114","from":{"name":"Sheri A Friedman","id":"627770553"},"message":"pretty dress Yvonne... \u003C3","can_remove":false,"created_time":"2012-02-02T20:57:42+0000","like_count":0,"user_likes":false},{"id":"241657399246585_1465137","from":{"name":"Yvonne Rosemeier","id":"100002069790582"},"message":"I love you too Tom.  This photos were from my previous events and maybe in the future you should write down about that copyright infringement in the grapevine right under the event.  I will remind us to use our own cameras in our events as to not get in trouble with you and the law :)","can_remove":false,"created_time":"2012-02-02T21:06:23+0000","like_count":0,"user_likes":false},{"id":"241657399246585_1465145","from":{"name":"Yvonne Rosemeier","id":"100002069790582"},"message":"Thank you Sheri.  I visit Blue Moon this saturday to see your participating artist.  Can't wait.","can_remove":false,"created_time":"2012-02-02T21:13:28+0000","like_count":1,"user_likes":false},{"id":"241657399246585_1465166","from":{"name":"Tom Falco","id":"1641918981"},"message":"It is in the Grapevine and it is the law: Here it is, very clear on page one of the Grapevine: \u00a9 All content in the Coconut Grove Grapevine is copyrighted by law. This means text, photos, ads and all images. Any content that is picked up and used in full or part unless otherwise stated must not be modified or altered. This especially is true of photos and graphics. No photo or image may be picked up, morphed and reused. If content is used on-line, an actual clickable link must go back to the source on the Grapevine. We will prosecute to the fullest extent of the law for any violations. NOTE: the Copyright Law required a copyright notice to protect works until 1977. In 1978, however, the law changed and abolished the requirement for copyright notice. This means that every published work (be it on paper or digital media) automatically gets copyright protection, whether expressed with a notice or not. \n\nThe Coconut Grove Grapevine is protected under the section 230 of the Communications Decency Act, this protects us from what others say in the comments section and it also gives us legal reason to sue those who cyber stalk and harass us on a continual basis.","can_remove":false,"created_time":"2012-02-02T21:22:13+0000","like_count":0,"user_likes":false},{"id":"241657399246585_1465204","from":{"name":"Yvonne Rosemeier","id":"100002069790582"},"message":"And which are the photos that belong to your grapevine Tom because I am definitely deleting them from my computer, records, life, Facebook and wherever since I don't like bad energy and I am feeling it from you.  If they are from my inauguration it is going to hurt but I don't want them.  you see my friendship was so sincere I really though you were at my event because you like me and I was so busy I could not take pictures that night.  and by the way I was working on my Facebook and just imported photos I wanted to have and by mistake posted them that's why my album is untitled.  I will make sure I don't come across your photos or articles as to don't get into further problems.  you have a section to posted or forward your articles and some people like me can get confused as to what to do or not.  I would have appreciated a phone call from you instead of your  public lecture.  Thanks again.","can_remove":false,"created_time":"2012-02-02T21:37:37+0000","like_count":0,"user_likes":false},{"id":"241657399246585_1465414","from":{"name":"Giana M. Leyva","id":"1296572575"},"message":"You guys, this is very sad... I propose we all sit and talk... I am not happy :(","can_remove":false,"created_time":"2012-02-02T22:32:11+0000","like_count":0,"user_likes":false},{"id":"241657399246585_1465431","from":{"name":"Yvonne Rosemeier","id":"100002069790582"},"message":"I am very very sad too Gigi.  I don't think I deserved this.","can_remove":false,"created_time":"2012-02-02T22:34:47+0000","like_count":0,"user_likes":false},{"id":"241657399246585_1465435","from":{"name":"Giana M. Leyva","id":"1296572575"},"message":"This is very unlike Tom...","can_remove":false,"created_time":"2012-02-02T22:35:31+0000","like_count":0,"user_likes":false}],"paging":{"cursors":{"after":"MTA=","before":"MQ=="},"next":"https:\/\/graph.facebook.com\/241657399246585\/comments?access_token=AAACEdEose0cBAMYosNuQgnCMBhgO4meNR3qH1cjXNhenSu6GRD6HiTa20OCYdbn297Lf2pZALjodgovOYrfZB0K5KvL0ONYoSHKuOldxmnwN01tZBh8&limit=25&after=MTA\u00253D"}}},{"id":"198043773607948","from":{"name":"Yvonne Rosemeier","id":"100002069790582"},"name":"The Loft in Coconut Grove","description":"Fahion-Gifts-Wines and Events.  www.theloftmiami.com","location":"3190 Commodore Plaza, Coconut Grove FL 33133","link":"http:\/\/www.facebook.com\/album.php?fbid=198043773607948&id=100002069790582&aid=52768","cover_photo":"198043820274610","count":30,"type":"normal","created_time":"2011-11-20T19:15:45+0000","updated_time":"2011-11-20T20:10:52+0000","can_upload":false,"likes":{"data":[{"id":"1570747808","name":"Oswald Franco"},{"id":"627770553","name":"Sheri A Friedman"}],"paging":{"next":"https:\/\/graph.facebook.com\/198043773607948\/likes?access_token=AAACEdEose0cBAMYosNuQgnCMBhgO4meNR3qH1cjXNhenSu6GRD6HiTa20OCYdbn297Lf2pZALjodgovOYrfZB0K5KvL0ONYoSHKuOldxmnwN01tZBh8&limit=25&offset=25&__after_id=627770553"}}},{"id":"188268127918846","from":{"name":"Yvonne Rosemeier","id":"100002069790582"},"name":"October 30, 2011","link":"http:\/\/www.facebook.com\/album.php?fbid=188268127918846&id=100002069790582&aid=50827","cover_photo":"188268164585509","count":10,"type":"normal","created_time":"2011-10-31T02:14:22+0000","updated_time":"2011-10-31T02:52:43+0000","can_upload":false,"comments":{"data":[{"id":"188268127918846_1148073","from":{"name":"Anthony Perez","id":"100000316624461"},"message":"Wuts up Yvonne. Good to see you. I like the chain with the cross. Do u have that for men. How much???","can_remove":false,"created_time":"2011-11-23T22:13:08+0000","like_count":0,"user_likes":false}],"paging":{"cursors":{"after":"MQ==","before":"MQ=="},"next":"https:\/\/graph.facebook.com\/188268127918846\/comments?access_token=AAACEdEose0cBAMYosNuQgnCMBhgO4meNR3qH1cjXNhenSu6GRD6HiTa20OCYdbn297Lf2pZALjodgovOYrfZB0K5KvL0ONYoSHKuOldxmnwN01tZBh8&limit=25&after=MQ\u00253D\u00253D"}}},{"id":"177641928981466","from":{"name":"Yvonne Rosemeier","id":"100002069790582"},"name":"October 5, 2011","link":"http:\/\/www.facebook.com\/album.php?fbid=177641928981466&id=100002069790582&aid=47901","cover_photo":"177641958981463","count":1,"type":"normal","created_time":"2011-10-05T22:48:27+0000","updated_time":"2011-10-05T22:48:33+0000","can_upload":false},{"id":"177641268981532","from":{"name":"Yvonne Rosemeier","id":"100002069790582"},"name":"October 5, 2011","location":"Galas Peru","place":{"id":"197899280223322","name":"Galas Peru","location":{"street":"La Paz 390 Miraflores","city":"Lima","state":"","country":"Peru","zip":"LI18","latitude":-12.1211901,"longitude":-77.0268402}},"link":"http:\/\/www.facebook.com\/album.php?fbid=177641268981532&id=100002069790582&aid=47900","cover_photo":"177641305648195","count":1,"type":"normal","created_time":"2011-10-05T22:46:40+0000","updated_time":"2011-10-05T22:47:19+0000","can_upload":false},{"id":"110237302388596","from":{"name":"Yvonne Rosemeier","id":"100002069790582"},"name":"March 13, 2011","link":"http:\/\/www.facebook.com\/album.php?fbid=110237302388596&id=100002069790582&aid=19215","cover_photo":"110237305721929","count":4,"type":"normal","created_time":"2011-03-14T00:48:11+0000","updated_time":"2011-03-14T00:48:46+0000","can_upload":false},{"id":"110212609057732","from":{"name":"Yvonne Rosemeier","id":"100002069790582"},"name":"YR COUTURE MODELS","link":"http:\/\/www.facebook.com\/album.php?fbid=110212609057732&id=100002069790582&aid=19196","cover_photo":"110212629057730","count":26,"type":"normal","created_time":"2011-03-13T22:17:19+0000","updated_time":"2011-03-13T22:21:37+0000","can_upload":false},{"id":"110210472391279","from":{"name":"Yvonne Rosemeier","id":"100002069790582"},"name":"March 13, 2011","link":"http:\/\/www.facebook.com\/album.php?fbid=110210472391279&id=100002069790582&aid=19195","cover_photo":"110210505724609","count":23,"type":"normal","created_time":"2011-03-13T22:05:54+0000","updated_time":"2011-03-13T22:10:45+0000","can_upload":false},{"id":"110191439059849","from":{"name":"Yvonne Rosemeier","id":"100002069790582"},"name":"YR Couture Models","link":"http:\/\/www.facebook.com\/album.php?fbid=110191439059849&id=100002069790582&aid=19184","cover_photo":"110191485726511","count":23,"type":"normal","created_time":"2011-03-13T20:33:31+0000","updated_time":"2011-03-13T20:38:14+0000","can_upload":false}],"paging":{"cursors":{"after":"MTEwMTkxNDM5MDU5ODQ5","before":"MzczNTU1OTM2MDU2NzMw"}}}