{"data":[{"id":"300950813308300","from":{"name":"Evi Polynzev","id":"100001801518392"},"name":"Mobile Uploads","link":"http:\/\/www.facebook.com\/album.php?fbid=300950813308300&id=100001801518392&aid=67440","cover_photo":"401577836578930","count":1,"type":"mobile","created_time":"2012-03-31T20:06:16+0000","updated_time":"2012-11-06T21:14:12+0000","can_upload":false},{"id":"384971431572904","from":{"name":"Evi Polynzev","id":"100001801518392"},"name":"Cover Photos","link":"http:\/\/www.facebook.com\/album.php?fbid=384971431572904&id=100001801518392&aid=85638","cover_photo":"386705211399526","count":2,"type":"normal","created_time":"2012-09-22T16:24:53+0000","updated_time":"2012-09-27T20:19:41+0000","can_upload":false},{"id":"104310726305644","from":{"name":"Evi Polynzev","id":"100001801518392"},"name":"Profile Pictures","link":"http:\/\/www.facebook.com\/album.php?fbid=104310726305644&id=100001801518392&aid=7066","cover_photo":"384968964906484","count":6,"type":"profile","created_time":"2010-11-04T13:39:06+0000","updated_time":"2013-04-12T19:33:46+0000","can_upload":false},{"id":"156032197800163","from":{"name":"Evi Polynzev","id":"100001801518392"},"name":"Timeline Photos","link":"http:\/\/www.facebook.com\/album.php?fbid=156032197800163&id=100001801518392&aid=37982","cover_photo":"156032201133496","count":1,"type":"wall","created_time":"2011-06-15T12:49:01+0000","updated_time":"2011-06-15T12:49:01+0000","can_upload":false},{"id":"141701672566549","from":{"name":"Evi Polynzev","id":"100001801518392"},"name":"London :D","link":"http:\/\/www.facebook.com\/album.php?fbid=141701672566549&id=100001801518392&aid=29037","cover_photo":"141701692566547","count":29,"type":"normal","created_time":"2011-04-09T15:51:36+0000","updated_time":"2011-04-09T16:04:14+0000","can_upload":false,"likes":{"data":[{"id":"100000120470217","name":"Bianca Metz"},{"id":"100001433288336","name":"Mascha Valeska"},{"id":"600080213","name":"An See"}],"paging":{"next":"https:\/\/graph.facebook.com\/141701672566549\/likes?access_token=AAACEdEose0cBAMYosNuQgnCMBhgO4meNR3qH1cjXNhenSu6GRD6HiTa20OCYdbn297Lf2pZALjodgovOYrfZB0K5KvL0ONYoSHKuOldxmnwN01tZBh8&limit=25&offset=25&__after_id=600080213"}}}],"paging":{"cursors":{"after":"MTQxNzAxNjcyNTY2NTQ5","before":"MzAwOTUwODEzMzA4MzAw"}}}