{"data":[{"id":"121277354598861","from":{"name":"Jose Roberto Gomes","id":"100001497917588"},"name":"Profile Pictures","link":"http:\/\/www.facebook.com\/album.php?fbid=121277354598861&id=100001497917588&aid=16287","cover_photo":"504114096315183","count":11,"type":"profile","created_time":"2010-11-05T13:23:53+0000","updated_time":"2013-04-03T10:08:55+0000","can_upload":false},{"id":"478174998909093","from":{"name":"Jose Roberto Gomes","id":"100001497917588"},"name":"Instagram Photos","link":"http:\/\/www.facebook.com\/album.php?fbid=478174998909093&id=100001497917588&aid=107665","cover_photo":"503926279667298","count":17,"type":"app","created_time":"2013-02-02T11:16:38+0000","updated_time":"2013-04-02T20:38:17+0000","can_upload":false},{"id":"397562120303715","from":{"name":"Jose Roberto Gomes","id":"100001497917588"},"name":"Cover Photos","link":"http:\/\/www.facebook.com\/album.php?fbid=397562120303715&id=100001497917588&aid=90299","cover_photo":"503733236353269","count":7,"type":"normal","created_time":"2012-07-28T18:04:25+0000","updated_time":"2013-04-02T09:59:50+0000","can_upload":false},{"id":"483890401670886","from":{"name":"Jose Roberto Gomes","id":"100001497917588"},"name":"iOS Photos","link":"http:\/\/www.facebook.com\/album.php?fbid=483890401670886&id=100001497917588&aid=108443","cover_photo":"488090631250863","count":8,"type":"app","created_time":"2013-02-14T15:55:38+0000","updated_time":"2013-02-24T18:20:04+0000","can_upload":false,"likes":{"data":[{"id":"100004724915388","name":"Vanda de Paula"}],"paging":{"next":"https:\/\/graph.facebook.com\/483890401670886\/likes?access_token=AAACEdEose0cBAJwErCNmIPZA6el8rxxyY5ULyI6xBIzYxuyekLKT4jiLPBr1teydoTPlSXlbBEkmB07tIO62Pi4QqIsy3oMtz1ihC5OyZAvdarWSZBe&limit=25&offset=25&__after_id=100004724915388"}},"comments":{"data":[{"id":"483890401670886_4682120","from":{"name":"Vanda de Paula","id":"100004724915388"},"message":"eh Jose Roberto gomes nem chamou sua priminha pra ir pra praia neh.","can_remove":false,"created_time":"2013-02-24T00:27:35+0000","like_count":0,"user_likes":false},{"id":"483890401670886_4682122","from":{"name":"Vanda de Paula","id":"100004724915388"},"message":":P","can_remove":false,"created_time":"2013-02-24T00:28:08+0000","like_count":0,"user_likes":false}],"paging":{"next":"https:\/\/graph.facebook.com\/483890401670886\/comments?access_token=AAACEdEose0cBAJwErCNmIPZA6el8rxxyY5ULyI6xBIzYxuyekLKT4jiLPBr1teydoTPlSXlbBEkmB07tIO62Pi4QqIsy3oMtz1ihC5OyZAvdarWSZBe&limit=25&offset=25&__after_id=483890401670886_4682122"}}},{"id":"483968781663048","from":{"name":"Jose Roberto Gomes","id":"100001497917588"},"name":"Untitled Album","description":"carnaval merces 2013","link":"http:\/\/www.facebook.com\/album.php?fbid=483968781663048&id=100001497917588&aid=108455","cover_photo":"483968871663039","count":38,"type":"normal","created_time":"2013-02-14T19:26:43+0000","updated_time":"2013-02-14T19:59:41+0000","can_upload":false,"likes":{"data":[{"id":"1815392312","name":"Cariina Menezzes Siilva"}],"paging":{"next":"https:\/\/graph.facebook.com\/483968781663048\/likes?access_token=AAACEdEose0cBAJwErCNmIPZA6el8rxxyY5ULyI6xBIzYxuyekLKT4jiLPBr1teydoTPlSXlbBEkmB07tIO62Pi4QqIsy3oMtz1ihC5OyZAvdarWSZBe&limit=25&offset=25&__after_id=1815392312"}}},{"id":"380756301984297","from":{"name":"Jose Roberto Gomes","id":"100001497917588"},"name":"Untitled Album","description":"Rio+20","link":"http:\/\/www.facebook.com\/album.php?fbid=380756301984297&id=100001497917588&aid=86530","cover_photo":"380756805317580","count":10,"type":"normal","created_time":"2012-06-20T22:49:24+0000","updated_time":"2012-06-20T22:56:43+0000","can_upload":false},{"id":"376253775767883","from":{"name":"Jose Roberto Gomes","id":"100001497917588"},"name":"Untitled Album","link":"http:\/\/www.facebook.com\/album.php?fbid=376253775767883&id=100001497917588&aid=85652","cover_photo":"376253989101195","count":3,"type":"normal","created_time":"2012-06-12T22:20:38+0000","updated_time":"2012-06-12T22:28:35+0000","can_upload":false},{"id":"373138802746047","from":{"name":"Jose Roberto Gomes","id":"100001497917588"},"name":"Untitled Album","location":"varios  lugares do Brasil","link":"http:\/\/www.facebook.com\/album.php?fbid=373138802746047&id=100001497917588&aid=84963","cover_photo":"373139102746017","count":23,"type":"normal","created_time":"2012-06-06T23:07:49+0000","updated_time":"2012-06-06T23:32:33+0000","can_upload":false,"likes":{"data":[{"id":"100001649621333","name":"Serginho Falc\u00e3o"}],"paging":{"next":"https:\/\/graph.facebook.com\/373138802746047\/likes?access_token=AAACEdEose0cBAJwErCNmIPZA6el8rxxyY5ULyI6xBIzYxuyekLKT4jiLPBr1teydoTPlSXlbBEkmB07tIO62Pi4QqIsy3oMtz1ihC5OyZAvdarWSZBe&limit=25&offset=25&__after_id=100001649621333"}}},{"id":"166918323368097","from":{"name":"Jose Roberto Gomes","id":"100001497917588"},"name":"luan","link":"http:\/\/www.facebook.com\/album.php?fbid=166918323368097&id=100001497917588&aid=41097","cover_photo":"166918363368093","count":4,"type":"normal","created_time":"2011-05-15T20:41:29+0000","updated_time":"2011-05-15T20:48:01+0000","can_upload":false,"comments":{"data":[{"id":"166918323368097_2279985","from":{"name":"Valdemar Castro","id":"100000575443312"},"message":"priminho lindoooo!!","can_remove":false,"created_time":"2011-08-21T16:50:04+0000","like_count":0,"user_likes":false}],"paging":{"next":"https:\/\/graph.facebook.com\/166918323368097\/comments?access_token=AAACEdEose0cBAJwErCNmIPZA6el8rxxyY5ULyI6xBIzYxuyekLKT4jiLPBr1teydoTPlSXlbBEkmB07tIO62Pi4QqIsy3oMtz1ihC5OyZAvdarWSZBe&limit=25&offset=25&__after_id=166918323368097_2279985"}}}],"paging":{"cursors":{"after":"MTY2OTE4MzIzMzY4MDk3","before":"MTIxMjc3MzU0NTk4ODYx"}}}