{"data":[{"id":"161234517227188","from":{"name":"Elisabeth Bayolo","id":"100000219228011"},"name":"Profile Pictures","link":"http:\/\/www.facebook.com\/album.php?fbid=161234517227188&id=100000219228011&aid=39088","cover_photo":"646619938688641","count":37,"type":"profile","created_time":"2010-09-21T02:45:16+0000","updated_time":"2013-04-14T01:31:15+0000","can_upload":false},{"id":"526974920653144","from":{"name":"Elisabeth Bayolo","id":"100000219228011"},"name":"Timeline Photos","link":"http:\/\/www.facebook.com\/album.php?fbid=526974920653144&id=100000219228011&aid=138951","cover_photo":"642928072391161","count":26,"type":"wall","created_time":"2012-09-11T01:31:43+0000","updated_time":"2013-04-14T01:31:10+0000","can_upload":false},{"id":"172212306129409","from":{"name":"Elisabeth Bayolo","id":"100000219228011"},"name":"Mobile Uploads","link":"http:\/\/www.facebook.com\/album.php?fbid=172212306129409&id=100000219228011&aid=46480","cover_photo":"646037362080232","count":178,"type":"mobile","created_time":"2010-11-01T13:53:51+0000","updated_time":"2013-04-12T17:53:04+0000","can_upload":false},{"id":"414519808565323","from":{"name":"Elisabeth Bayolo","id":"100000219228011"},"name":"Cover Photos","link":"http:\/\/www.facebook.com\/album.php?fbid=414519808565323&id=100000219228011&aid=115845","cover_photo":"622134527803849","count":4,"type":"normal","created_time":"2012-03-19T03:59:50+0000","updated_time":"2013-02-25T16:34:54+0000","can_upload":false},{"id":"530459666971336","from":{"name":"Elisabeth Bayolo","id":"100000219228011"},"name":"Instagram Photos","link":"http:\/\/www.facebook.com\/album.php?fbid=530459666971336&id=100000219228011&aid=139814","cover_photo":"535788736438429","count":8,"type":"app","created_time":"2012-09-18T02:39:25+0000","updated_time":"2012-09-29T17:55:58+0000","can_upload":false},{"id":"220444724639500","from":{"name":"Elisabeth Bayolo","id":"100000219228011"},"name":"my other half \")","link":"http:\/\/www.facebook.com\/album.php?fbid=220444724639500&id=100000219228011&aid=73255","cover_photo":"220444741306165","count":3,"type":"normal","created_time":"2011-04-28T18:22:10+0000","updated_time":"2011-04-28T18:22:46+0000","can_upload":false,"likes":{"data":[{"id":"100000219228011","name":"Elisabeth Bayolo"},{"id":"100000802406848","name":"Billy Villanueva"},{"id":"100000465480107","name":"Cynthia Reeves"}],"paging":{"next":"https:\/\/graph.facebook.com\/220444724639500\/likes?access_token=AAACEdEose0cBAMYosNuQgnCMBhgO4meNR3qH1cjXNhenSu6GRD6HiTa20OCYdbn297Lf2pZALjodgovOYrfZB0K5KvL0ONYoSHKuOldxmnwN01tZBh8&limit=25&offset=25&__after_id=100000465480107"}},"comments":{"data":[{"id":"220444724639500_3304243","from":{"name":"Krunk Steve","id":"100001962206622"},"message":"noo lol","can_remove":false,"created_time":"2011-04-28T18:42:04+0000","like_count":0,"user_likes":false},{"id":"220444724639500_3304246","from":{"name":"Elisabeth Bayolo","id":"100000219228011"},"message":"lol","can_remove":false,"created_time":"2011-04-28T18:42:32+0000","like_count":0,"user_likes":false},{"id":"220444724639500_3304250","from":{"name":"Krunk Steve","id":"100001962206622"},"message":"dont stay like that","can_remove":false,"created_time":"2011-04-28T18:42:53+0000","like_count":1,"user_likes":false},{"id":"220444724639500_3304253","from":{"name":"Elisabeth Bayolo","id":"100000219228011"},"message":"im not its jus boredom .. its not tht serious","can_remove":false,"created_time":"2011-04-28T18:43:19+0000","like_count":1,"user_likes":false},{"id":"220444724639500_3304259","from":{"name":"Krunk Steve","id":"100001962206622"},"message":"i kno","can_remove":false,"created_time":"2011-04-28T18:43:33+0000","like_count":0,"user_likes":false},{"id":"220444724639500_3304260","from":{"name":"Elisabeth Bayolo","id":"100000219228011"},"message":"nd even if i wanted to dress like a boy no onee can tell me shyt bout it","can_remove":false,"created_time":"2011-04-28T18:43:34+0000","like_count":0,"user_likes":false},{"id":"220444724639500_3304262","from":{"name":"Krunk Steve","id":"100001962206622"},"message":"thats on u","can_remove":false,"created_time":"2011-04-28T18:43:47+0000","like_count":0,"user_likes":false},{"id":"220444724639500_3304422","from":{"name":"Nayy Fbgm Nayy","id":"1826447133"},"message":"lmao omg my nigga","can_remove":false,"created_time":"2011-04-28T19:00:00+0000","like_count":0,"user_likes":false},{"id":"220444724639500_3304429","from":{"name":"Elisabeth Bayolo","id":"100000219228011"},"message":"lmao!!!! yeaaa ok daddyy","can_remove":false,"created_time":"2011-04-28T19:00:36+0000","like_count":0,"user_likes":false},{"id":"220444724639500_3304430","from":{"name":"Elisabeth Bayolo","id":"100000219228011"},"message":"nayy tell her who run diz","can_remove":false,"created_time":"2011-04-28T19:00:41+0000","like_count":0,"user_likes":false},{"id":"220444724639500_3304432","from":{"name":"Elisabeth Bayolo","id":"100000219228011"},"message":"\")","can_remove":false,"created_time":"2011-04-28T19:00:52+0000","like_count":0,"user_likes":false},{"id":"220444724639500_3304439","from":{"name":"Elisabeth Bayolo","id":"100000219228011"},"message":"if you sayy soo ...","can_remove":false,"created_time":"2011-04-28T19:01:59+0000","like_count":0,"user_likes":false},{"id":"220444724639500_3304471","from":{"name":"Nayy Fbgm Nayy","id":"1826447133"},"message":"lmfao ayee yu already knw yu gt it ina chokeholdd liz\t","can_remove":false,"created_time":"2011-04-28T19:05:07+0000","like_count":0,"user_likes":false},{"id":"220444724639500_3304484","from":{"name":"Elisabeth Bayolo","id":"100000219228011"},"message":"ya tu sabeee","can_remove":false,"created_time":"2011-04-28T19:07:08+0000","like_count":0,"user_likes":false},{"id":"220444724639500_3326023","from":{"name":"Elisabeth Bayolo","id":"100000219228011"},"message":"looken likee obrum lmao ..","can_remove":false,"created_time":"2011-05-01T19:34:54+0000","like_count":0,"user_likes":false}],"paging":{"cursors":{"after":"MTk=","before":"MQ=="},"next":"https:\/\/graph.facebook.com\/220444724639500\/comments?access_token=AAACEdEose0cBAMYosNuQgnCMBhgO4meNR3qH1cjXNhenSu6GRD6HiTa20OCYdbn297Lf2pZALjodgovOYrfZB0K5KvL0ONYoSHKuOldxmnwN01tZBh8&limit=25&after=MTk\u00253D"}}},{"id":"108624629154844","from":{"name":"Elisabeth Bayolo","id":"100000219228011"},"name":"CRAZiilOCAliiZ*","link":"http:\/\/www.facebook.com\/album.php?fbid=108624629154844&id=100000219228011&aid=15954","cover_photo":"108624755821498","count":15,"type":"normal","created_time":"2010-03-01T06:03:02+0000","updated_time":"2012-05-19T07:09:10+0000","can_upload":false,"likes":{"data":[{"id":"100002356136509","name":"Guido Arezzo"},{"id":"100002178035130","name":"Lazaro Garcia"},{"id":"100002094952473","name":"Starr Dat Dread"},{"id":"1530986999","name":"Skillz E. Montana Maldonado"},{"id":"1464314481","name":"Ahmad Radi"}],"paging":{"next":"https:\/\/graph.facebook.com\/108624629154844\/likes?access_token=AAACEdEose0cBAMYosNuQgnCMBhgO4meNR3qH1cjXNhenSu6GRD6HiTa20OCYdbn297Lf2pZALjodgovOYrfZB0K5KvL0ONYoSHKuOldxmnwN01tZBh8&limit=25&offset=25&__after_id=1464314481"}}},{"id":"206773652673274","from":{"name":"Elisabeth Bayolo","id":"100000219228011"},"name":"nothing likee old school \")","link":"http:\/\/www.facebook.com\/album.php?fbid=206773652673274&id=100000219228011&aid=62166","cover_photo":"206773736006599","count":16,"type":"normal","created_time":"2011-03-09T20:05:20+0000","updated_time":"2011-03-09T20:06:21+0000","can_upload":false,"likes":{"data":[{"id":"100000219228011","name":"Elisabeth Bayolo"},{"id":"100001830808689","name":"Milvio Coiscou"},{"id":"519449466","name":"Erwin Morel"},{"id":"1530986999","name":"Skillz E. Montana Maldonado"}],"paging":{"next":"https:\/\/graph.facebook.com\/206773652673274\/likes?access_token=AAACEdEose0cBAMYosNuQgnCMBhgO4meNR3qH1cjXNhenSu6GRD6HiTa20OCYdbn297Lf2pZALjodgovOYrfZB0K5KvL0ONYoSHKuOldxmnwN01tZBh8&limit=25&offset=25&__after_id=1530986999"}}},{"id":"205145299502776","from":{"name":"Elisabeth Bayolo","id":"100000219228011"},"name":"my heart & soul","link":"http:\/\/www.facebook.com\/album.php?fbid=205145299502776&id=100000219228011&aid=61307","cover_photo":"206768899340416","count":48,"type":"normal","created_time":"2011-03-03T18:28:38+0000","updated_time":"2011-03-09T20:03:05+0000","can_upload":false,"likes":{"data":[{"id":"100000219228011","name":"Elisabeth Bayolo"},{"id":"554913223","name":"Catalina Costa-bayolo"},{"id":"1826447133","name":"Nayy Fbgm Nayy"},{"id":"731318722","name":"Leilani Acosta"}],"paging":{"next":"https:\/\/graph.facebook.com\/205145299502776\/likes?access_token=AAACEdEose0cBAMYosNuQgnCMBhgO4meNR3qH1cjXNhenSu6GRD6HiTa20OCYdbn297Lf2pZALjodgovOYrfZB0K5KvL0ONYoSHKuOldxmnwN01tZBh8&limit=25&offset=25&__after_id=731318722"}},"comments":{"data":[{"id":"205145299502776_2923096","from":{"name":"Elisabeth Bayolo","id":"100000219228011"},"message":"TOO ADORABLE !!!!","can_remove":false,"created_time":"2011-03-03T18:35:43+0000","like_count":1,"user_likes":false},{"id":"205145299502776_6359630","from":{"name":"Catalina Costa-bayolo","id":"554913223"},"message":"i love my babies","can_remove":false,"created_time":"2012-07-16T20:22:03+0000","like_count":1,"user_likes":false}],"paging":{"cursors":{"after":"Mg==","before":"MQ=="},"next":"https:\/\/graph.facebook.com\/205145299502776\/comments?access_token=AAACEdEose0cBAMYosNuQgnCMBhgO4meNR3qH1cjXNhenSu6GRD6HiTa20OCYdbn297Lf2pZALjodgovOYrfZB0K5KvL0ONYoSHKuOldxmnwN01tZBh8&limit=25&after=Mg\u00253D\u00253D"}}},{"id":"192926430724663","from":{"name":"Elisabeth Bayolo","id":"100000219228011"},"name":"ThR0W bACK !","link":"http:\/\/www.facebook.com\/album.php?fbid=192926430724663&id=100000219228011&aid=55688","cover_photo":"192926444057995","count":46,"type":"normal","created_time":"2011-01-17T21:22:45+0000","updated_time":"2012-05-19T07:11:36+0000","can_upload":false,"likes":{"data":[{"id":"100000219228011","name":"Elisabeth Bayolo"},{"id":"100003676681587","name":"Merts Seven"},{"id":"100000237731296","name":"Yailen Peachez Miranda"}],"paging":{"next":"https:\/\/graph.facebook.com\/192926430724663\/likes?access_token=AAACEdEose0cBAMYosNuQgnCMBhgO4meNR3qH1cjXNhenSu6GRD6HiTa20OCYdbn297Lf2pZALjodgovOYrfZB0K5KvL0ONYoSHKuOldxmnwN01tZBh8&limit=25&offset=25&__after_id=100000237731296"}}},{"id":"193450627338910","from":{"name":"Elisabeth Bayolo","id":"100000219228011"},"name":"MiidDlE SCH00l ND HiiGh SCH00l*","link":"http:\/\/www.facebook.com\/album.php?fbid=193450627338910&id=100000219228011&aid=55945","cover_photo":"193451794005460","count":48,"type":"normal","created_time":"2011-01-19T19:40:14+0000","updated_time":"2011-01-20T03:27:19+0000","can_upload":false,"likes":{"data":[{"id":"100000219228011","name":"Elisabeth Bayolo"},{"id":"616298441","name":"Vedat Tat"}],"paging":{"next":"https:\/\/graph.facebook.com\/193450627338910\/likes?access_token=AAACEdEose0cBAMYosNuQgnCMBhgO4meNR3qH1cjXNhenSu6GRD6HiTa20OCYdbn297Lf2pZALjodgovOYrfZB0K5KvL0ONYoSHKuOldxmnwN01tZBh8&limit=25&offset=25&__after_id=616298441"}}}],"paging":{"cursors":{"after":"MTkzNDUwNjI3MzM4OTEw","before":"MTYxMjM0NTE3MjI3MTg4"}}}