{"data":[{"id":"363635793653121","from":{"name":"Yaremis Terras","id":"100000201100242"},"name":"Instagram Photos","link":"http:\/\/www.facebook.com\/album.php?fbid=363635793653121&id=100000201100242&aid=107322","cover_photo":"634291536587544","count":1627,"type":"app","created_time":"2012-01-15T19:02:43+0000","updated_time":"2013-04-16T02:29:54+0000","can_upload":false,"likes":{"data":[{"id":"100000201100242","name":"Yaremis Terras"},{"id":"100001606086092","name":"Renato Salazar"},{"id":"100000721206224","name":"Tony Zamora"},{"id":"1234668506","name":"Anthony Cintron"},{"id":"100000250449865","name":"Hulda Arosemena"},{"id":"100002014537092","name":"Roly Aleman"},{"id":"559347932","name":"Marcela Paoliello"},{"id":"1008793906","name":"Armando Fuster"},{"id":"100000427923836","name":"Yiset Gonzalez"},{"id":"1361181647","name":"Maribel Casanova"},{"id":"1035139347","name":"Eli Nodal"},{"id":"1347777069","name":"Chico Lyfe"},{"id":"1079703944","name":"Mis Ty"},{"id":"100000419767700","name":"Yessi Owns U"},{"id":"100000446896314","name":"Anaily Romay"},{"id":"1115665653","name":"Irene C Amador"},{"id":"1645056152","name":"Kathy Sampedro"},{"id":"100002571842330","name":"Sergio Flores"},{"id":"1436917903","name":"Jon Sergio"},{"id":"100000224243834","name":"Justice Prevails"},{"id":"100000479929259","name":"Hector Rios"},{"id":"1151252270","name":"Luis Guerrero"},{"id":"631534193","name":"Christian Delgado"},{"id":"1373141646","name":"Joyce Cruz"},{"id":"1564010866","name":"Manny Palma"}],"paging":{"next":"https:\/\/graph.facebook.com\/363635793653121\/likes?access_token=AAACEdEose0cBAMYosNuQgnCMBhgO4meNR3qH1cjXNhenSu6GRD6HiTa20OCYdbn297Lf2pZALjodgovOYrfZB0K5KvL0ONYoSHKuOldxmnwN01tZBh8&limit=25&offset=25&__after_id=1564010866"}},"comments":{"data":[{"id":"363635793653121_5423753","from":{"name":"Arsi Rey","id":"503139164"},"message":"so cute ....","can_remove":false,"created_time":"2012-01-17T20:15:22+0000","like_count":1,"user_likes":false},{"id":"363635793653121_5424066","from":{"name":"Yaremis Terras","id":"100000201100242"},"message":":)ty","can_remove":false,"created_time":"2012-01-17T21:21:48+0000","like_count":0,"user_likes":false},{"id":"363635793653121_5452831","from":{"name":"Krystina L Gonzalez","id":"1213112659"},"message":"I love toms! I sell them at my job come see me :)","can_remove":false,"created_time":"2012-01-21T20:40:57+0000","like_count":1,"user_likes":false},{"id":"363635793653121_5472511","from":{"name":"Yaremis Terras","id":"100000201100242"},"message":"mee too!!!","can_remove":false,"created_time":"2012-01-24T19:40:37+0000","like_count":0,"user_likes":false},{"id":"363635793653121_5472512","from":{"name":"Yaremis Terras","id":"100000201100242"},"message":"\u003C3","can_remove":false,"created_time":"2012-01-24T19:40:40+0000","like_count":0,"user_likes":false},{"id":"363635793653121_5476830","from":{"name":"Jennifer Escalante","id":"100000529219178"},"message":"she so big n pretty","can_remove":false,"created_time":"2012-01-25T13:18:21+0000","like_count":1,"user_likes":false},{"id":"363635793653121_5663036","from":{"name":"Tremendo Mamey Menendez","id":"100001943124946"},"message":"\u00bfque ni\u00f1a mas guapa ? como la madre y la buela besos desde espa\u00f1a...........","can_remove":false,"created_time":"2012-02-27T14:19:20+0000","like_count":1,"user_likes":false},{"id":"363635793653121_5685747","from":{"name":"Irene C Amador","id":"1115665653"},"message":"Can I have some","can_remove":false,"created_time":"2012-03-03T06:38:42+0000","like_count":1,"user_likes":false}],"paging":{"cursors":{"after":"OA==","before":"MQ=="},"next":"https:\/\/graph.facebook.com\/363635793653121\/comments?access_token=AAACEdEose0cBAMYosNuQgnCMBhgO4meNR3qH1cjXNhenSu6GRD6HiTa20OCYdbn297Lf2pZALjodgovOYrfZB0K5KvL0ONYoSHKuOldxmnwN01tZBh8&limit=25&after=OA\u00253D\u00253D"}}},{"id":"345060798843954","from":{"name":"Yaremis Terras","id":"100000201100242"},"name":"Cover Photos","link":"http:\/\/www.facebook.com\/album.php?fbid=345060798843954&id=100000201100242&aid=103031","cover_photo":"631467396869958","count":57,"type":"normal","created_time":"2011-12-20T18:00:24+0000","updated_time":"2013-04-09T14:48:43+0000","can_upload":false},{"id":"156909920992377","from":{"name":"Yaremis Terras","id":"100000201100242"},"name":"Profile Pictures","link":"http:\/\/www.facebook.com\/album.php?fbid=156909920992377&id=100000201100242&aid=36691","cover_photo":"628934533789911","count":207,"type":"profile","created_time":"2010-09-05T02:59:35+0000","updated_time":"2013-04-03T20:22:03+0000","can_upload":false},{"id":"273774702639231","from":{"name":"Yaremis Terras","id":"100000201100242"},"name":"Mobile Uploads","link":"http:\/\/www.facebook.com\/album.php?fbid=273774702639231&id=100000201100242&aid=87576","cover_photo":"624844534198911","count":360,"type":"mobile","created_time":"2011-08-19T07:06:56+0000","updated_time":"2013-03-26T16:36:47+0000","can_upload":false},{"id":"100553063294730","from":{"name":"Yaremis Terras","id":"100000201100242"},"name":"Timeline Photos","link":"http:\/\/www.facebook.com\/album.php?fbid=100553063294730&id=100000201100242&aid=1162","cover_photo":"547737938576238","count":49,"type":"wall","created_time":"2009-08-29T22:54:34+0000","updated_time":"2012-11-07T18:37:10+0000","can_upload":false},{"id":"404249532925080","from":{"name":"Yaremis Terras","id":"100000201100242"},"name":"Tweegram Photos","link":"http:\/\/www.facebook.com\/album.php?fbid=404249532925080&id=100000201100242&aid=115753","cover_photo":"404249542925079","count":2,"type":"app","created_time":"2012-03-07T21:27:38+0000","updated_time":"2012-03-08T15:11:29+0000","can_upload":false},{"id":"174980752518627","from":{"name":"Yaremis Terras","id":"100000201100242"},"name":"BLackBerry PiXz","link":"http:\/\/www.facebook.com\/album.php?fbid=174980752518627&id=100000201100242&aid=49400","cover_photo":"226345984048770","count":192,"type":"normal","created_time":"2010-11-09T18:12:53+0000","updated_time":"2012-04-17T22:27:04+0000","can_upload":false,"likes":{"data":[{"id":"1235957608","name":"Teresa Maria Hernando"},{"id":"100000695928941","name":"Fernando Garcia"},{"id":"100001818772467","name":"Hector Delgado"},{"id":"100000689262373","name":"Karen 'Chilo' Vallecillo"},{"id":"100002311180065","name":"Dee Hazes"},{"id":"100000721206224","name":"Tony Zamora"},{"id":"100000377235086","name":"D Douboy Franco"},{"id":"1079703944","name":"Mis Ty"},{"id":"100000240574210","name":"Yailen Gallardo"},{"id":"100000446896314","name":"Anaily Romay"},{"id":"1427908114","name":"Jesus AkaThe Realmenice Eltremendo"}],"paging":{"next":"https:\/\/graph.facebook.com\/174980752518627\/likes?access_token=AAACEdEose0cBAMYosNuQgnCMBhgO4meNR3qH1cjXNhenSu6GRD6HiTa20OCYdbn297Lf2pZALjodgovOYrfZB0K5KvL0ONYoSHKuOldxmnwN01tZBh8&limit=25&offset=25&__after_id=1427908114"}},"comments":{"data":[{"id":"174980752518627_3005888","from":{"name":"Diego Contreras","id":"647814112"},"message":"Angie is so pretty, u guys look great dale un abrazo de parte mia!","can_remove":false,"created_time":"2011-03-06T23:13:55+0000","like_count":0,"user_likes":false},{"id":"174980752518627_3118542","from":{"name":"Yaremis Terras","id":"100000201100242"},"message":"thank you primo and i will!!!\u003C3 xoxo to the fam","can_remove":false,"created_time":"2011-03-22T20:40:26+0000","like_count":0,"user_likes":false}],"paging":{"cursors":{"after":"Mg==","before":"MQ=="},"next":"https:\/\/graph.facebook.com\/174980752518627\/comments?access_token=AAACEdEose0cBAMYosNuQgnCMBhgO4meNR3qH1cjXNhenSu6GRD6HiTa20OCYdbn297Lf2pZALjodgovOYrfZB0K5KvL0ONYoSHKuOldxmnwN01tZBh8&limit=25&after=Mg\u00253D\u00253D"}}},{"id":"352934808056553","from":{"name":"Yaremis Terras","id":"100000201100242"},"name":"New yr\/\/ New Beginings \u2661","link":"http:\/\/www.facebook.com\/album.php?fbid=352934808056553&id=100000201100242&aid=104973","cover_photo":"352935138056520","count":27,"type":"normal","created_time":"2011-12-31T23:47:43+0000","updated_time":"2012-01-11T21:45:32+0000","can_upload":false,"likes":{"data":[{"id":"100000201100242","name":"Yaremis Terras"},{"id":"1528052872","name":"Silvio Alexis Morales"},{"id":"100000761043958","name":"Randy Perez"},{"id":"672924318","name":"Marylin Herrera"},{"id":"100000171747324","name":"Natasha Sotto"}],"paging":{"next":"https:\/\/graph.facebook.com\/352934808056553\/likes?access_token=AAACEdEose0cBAMYosNuQgnCMBhgO4meNR3qH1cjXNhenSu6GRD6HiTa20OCYdbn297Lf2pZALjodgovOYrfZB0K5KvL0ONYoSHKuOldxmnwN01tZBh8&limit=25&offset=25&__after_id=100000171747324"}}},{"id":"265431203473581","from":{"name":"Yaremis Terras","id":"100000201100242"},"name":"MyPad for iPad Photos","link":"http:\/\/www.facebook.com\/album.php?fbid=265431203473581&id=100000201100242&aid=86085","cover_photo":"265431213473580","count":37,"type":"app","created_time":"2011-08-03T20:14:23+0000","updated_time":"2011-12-22T19:31:09+0000","can_upload":false,"likes":{"data":[{"id":"100000201100242","name":"Yaremis Terras"},{"id":"100002370326606","name":"Manny Suarez"},{"id":"786248679","name":"Krystal Gacet"}],"paging":{"next":"https:\/\/graph.facebook.com\/265431203473581\/likes?access_token=AAACEdEose0cBAMYosNuQgnCMBhgO4meNR3qH1cjXNhenSu6GRD6HiTa20OCYdbn297Lf2pZALjodgovOYrfZB0K5KvL0ONYoSHKuOldxmnwN01tZBh8&limit=25&offset=25&__after_id=786248679"}}},{"id":"236390239711011","from":{"name":"Yaremis Terras","id":"100000201100242"},"name":"305-NO-FAULT( A Medical and Attorney Referral Service)","link":"http:\/\/www.facebook.com\/album.php?fbid=236390239711011&id=100000201100242&aid=81217","cover_photo":"236390263044342","count":7,"type":"normal","created_time":"2011-06-20T19:50:53+0000","updated_time":"2011-06-20T19:51:22+0000","can_upload":false,"likes":{"data":[{"id":"100000201100242","name":"Yaremis Terras"}],"paging":{"next":"https:\/\/graph.facebook.com\/236390239711011\/likes?access_token=AAACEdEose0cBAMYosNuQgnCMBhgO4meNR3qH1cjXNhenSu6GRD6HiTa20OCYdbn297Lf2pZALjodgovOYrfZB0K5KvL0ONYoSHKuOldxmnwN01tZBh8&limit=25&offset=25&__after_id=100000201100242"}}},{"id":"220678474615521","from":{"name":"Yaremis Terras","id":"100000201100242"},"name":"305-NO-FAULT ( A Medical and Attorney Referral Service)","link":"http:\/\/www.facebook.com\/album.php?fbid=220678474615521&id=100000201100242&aid=74776","cover_photo":"220678521282183","count":5,"type":"normal","created_time":"2011-04-26T14:40:58+0000","updated_time":"2011-04-26T14:41:43+0000","can_upload":false},{"id":"100721063277930","from":{"name":"Yaremis Terras","id":"100000201100242"},"name":"Webcam Photos","link":"http:\/\/www.facebook.com\/album.php?fbid=100721063277930&id=100000201100242&aid=1598","cover_photo":"102598029756900","count":17,"type":"wall","created_time":"2009-09-01T01:12:44+0000","updated_time":"2010-07-21T02:51:05+0000","can_upload":false,"likes":{"data":[{"id":"100001818772467","name":"Hector Delgado"}],"paging":{"next":"https:\/\/graph.facebook.com\/100721063277930\/likes?access_token=AAACEdEose0cBAMYosNuQgnCMBhgO4meNR3qH1cjXNhenSu6GRD6HiTa20OCYdbn297Lf2pZALjodgovOYrfZB0K5KvL0ONYoSHKuOldxmnwN01tZBh8&limit=25&offset=25&__after_id=100001818772467"}}}],"paging":{"cursors":{"after":"MTAwNzIxMDYzMjc3OTMw","before":"MzYzNjM1NzkzNjUzMTIx"}}}