{"data":[{"id":"116445211848760","from":{"name":"Jocelyn Mangat","id":"100004498445304"},"name":"Cover Photos","link":"http:\/\/www.facebook.com\/album.php?fbid=116445211848760&id=100004498445304&aid=22371","cover_photo":"116445218515426","count":1,"type":"normal","created_time":"2012-11-13T10:37:07+0000","updated_time":"2012-11-13T10:37:13+0000","can_upload":false},{"id":"102069569952991","from":{"name":"Jocelyn Mangat","id":"100004498445304"},"name":"Profile Pictures","link":"http:\/\/www.facebook.com\/album.php?fbid=102069569952991&id=100004498445304&aid=5053","cover_photo":"116440378515910","count":4,"type":"profile","created_time":"2012-10-10T02:57:00+0000","updated_time":"2012-11-13T10:21:22+0000","can_upload":false},{"id":"116439671849314","from":{"name":"Jocelyn Mangat","id":"100004498445304"},"name":"Untitled Album","link":"http:\/\/www.facebook.com\/album.php?fbid=116439671849314&id=100004498445304&aid=22367","cover_photo":"116439678515980","count":32,"type":"normal","created_time":"2012-11-13T10:18:15+0000","updated_time":"2012-11-13T10:19:26+0000","can_upload":false,"likes":{"data":[{"id":"100003118926048","name":"Roberto T Navasquez"}],"paging":{"next":"https:\/\/graph.facebook.com\/116439671849314\/likes?access_token=AAACEdEose0cBANxi7k8QsMaWuZCjlezhxCbI9yI8Xhzp5VUPUjvnraUZAiKZCVeQQwGmM7P4RjdOfrm4ou6L1oBLZAereSMJeZARVYmju7ZAnNOt5Qfh1n&limit=25&offset=25&__after_id=100003118926048"}}},{"id":"110010889158859","from":{"name":"Jocelyn Mangat","id":"100004498445304"},"name":"Untitled Album","link":"http:\/\/www.facebook.com\/album.php?fbid=110010889158859&id=100004498445304&aid=18756","cover_photo":"110010952492186","count":88,"type":"normal","created_time":"2012-10-25T14:33:35+0000","updated_time":"2012-10-25T14:38:57+0000","can_upload":false,"likes":{"data":[{"id":"100004498445304","name":"Jocelyn Mangat"},{"id":"100003118926048","name":"Roberto T Navasquez"}],"paging":{"next":"https:\/\/graph.facebook.com\/110010889158859\/likes?access_token=AAACEdEose0cBANxi7k8QsMaWuZCjlezhxCbI9yI8Xhzp5VUPUjvnraUZAiKZCVeQQwGmM7P4RjdOfrm4ou6L1oBLZAereSMJeZARVYmju7ZAnNOt5Qfh1n&limit=25&offset=25&__after_id=100003118926048"}}}]}