{"data":[{"id":"102409473205692","from":{"name":"Nicola Shakespeare","id":"100003099194848"},"name":"Profile Pictures","link":"http:\/\/www.facebook.com\/album.php?fbid=102409473205692&id=100003099194848&aid=6259","cover_photo":"368770306569606","count":7,"type":"profile","created_time":"2011-10-27T17:19:50+0000","updated_time":"2013-03-11T20:47:56+0000","can_upload":false},{"id":"264402173673087","from":{"name":"Nicola Shakespeare","id":"100003099194848"},"name":"We be Crazy","link":"http:\/\/www.facebook.com\/album.php?fbid=264402173673087&id=100003099194848&aid=63356","cover_photo":"264402190339752","count":136,"type":"normal","created_time":"2012-07-08T00:10:29+0000","updated_time":"2012-11-17T01:14:47+0000","can_upload":false,"likes":{"data":[{"id":"100002443228366","name":"Anton Prenga"},{"id":"100001038970395","name":"Reinaldo Teruo Ito"},{"id":"100000264159344","name":"Rhys Jones"}],"paging":{"next":"https:\/\/graph.facebook.com\/264402173673087\/likes?access_token=AAACEdEose0cBAJwErCNmIPZA6el8rxxyY5ULyI6xBIzYxuyekLKT4jiLPBr1teydoTPlSXlbBEkmB07tIO62Pi4QqIsy3oMtz1ihC5OyZAvdarWSZBe&limit=25&offset=25&__after_id=100000264159344"}},"comments":{"data":[{"id":"264402173673087_1432804","from":{"name":"Abid Ali","id":"100003000519577"},"message":"supper  ur the barby doll dear","can_remove":false,"created_time":"2012-11-17T07:19:00+0000","like_count":0,"user_likes":false}],"paging":{"next":"https:\/\/graph.facebook.com\/264402173673087\/comments?access_token=AAACEdEose0cBAJwErCNmIPZA6el8rxxyY5ULyI6xBIzYxuyekLKT4jiLPBr1teydoTPlSXlbBEkmB07tIO62Pi4QqIsy3oMtz1ihC5OyZAvdarWSZBe&limit=25&offset=25&__after_id=264402173673087_1432804"}}},{"id":"256685444444760","from":{"name":"Nicola Shakespeare","id":"100003099194848"},"name":"Cover Photos","link":"http:\/\/www.facebook.com\/album.php?fbid=256685444444760&id=100003099194848&aid=61420","cover_photo":"264402623673042","count":3,"type":"normal","created_time":"2012-06-22T18:10:31+0000","updated_time":"2012-07-08T00:12:14+0000","can_upload":false},{"id":"259122207534417","from":{"name":"Nicola Shakespeare","id":"100003099194848"},"name":"Timeline Photos","link":"http:\/\/www.facebook.com\/album.php?fbid=259122207534417&id=100003099194848&aid=61975","cover_photo":"259122210867750","count":2,"type":"wall","created_time":"2012-06-27T03:37:42+0000","updated_time":"2012-06-27T19:31:30+0000","can_upload":false},{"id":"256674567779181","from":{"name":"Nicola Shakespeare","id":"100003099194848"},"name":"Liebe, die bleibt (Love That Lasts)","link":"http:\/\/www.facebook.com\/album.php?fbid=256674567779181&id=100003099194848&aid=61418","cover_photo":"256674611112510","count":233,"type":"normal","created_time":"2012-06-22T17:50:18+0000","updated_time":"2012-06-22T18:01:46+0000","can_upload":false,"likes":{"data":[{"id":"100002443228366","name":"Anton Prenga"}],"paging":{"next":"https:\/\/graph.facebook.com\/256674567779181\/likes?access_token=AAACEdEose0cBAJwErCNmIPZA6el8rxxyY5ULyI6xBIzYxuyekLKT4jiLPBr1teydoTPlSXlbBEkmB07tIO62Pi4QqIsy3oMtz1ihC5OyZAvdarWSZBe&limit=25&offset=25&__after_id=100002443228366"}}}],"paging":{"cursors":{"after":"MjU2Njc0NTY3Nzc5MTgx","before":"MTAyNDA5NDczMjA1Njky"}}}