{"data":[{"id":"347308548622389","from":{"name":"Makeila Solis","id":"100000297392245"},"name":"MEXICO LINDO!","description":"PEACEFUL AND EXCELLENT PLACE TO RELEASE STRESS!","location":"Hotel Best Western Sierra Mazamitla","place":{"id":"143785282358522","name":"Hotel Best Western Sierra Mazamitla","location":{"street":"Prol. Vicente Guerrero No. 100","city":"Mazamitla","state":"","country":"Mexico","zip":"49500","latitude":19.922135121586,"longitude":-103.02202477435}},"link":"http:\/\/www.facebook.com\/album.php?fbid=347308548622389&id=100000297392245&aid=87816","cover_photo":"347312421955335","count":35,"type":"normal","created_time":"2012-01-26T23:06:31+0000","updated_time":"2012-10-21T06:32:52+0000","can_upload":false,"likes":{"data":[{"id":"100000297392245","name":"Makeila Solis"},{"id":"100000619773499","name":"Blanca Robledo"}],"paging":{"next":"https:\/\/graph.facebook.com\/347308548622389\/likes?access_token=AAACEdEose0cBAJwErCNmIPZA6el8rxxyY5ULyI6xBIzYxuyekLKT4jiLPBr1teydoTPlSXlbBEkmB07tIO62Pi4QqIsy3oMtz1ihC5OyZAvdarWSZBe&limit=25&offset=25&__after_id=100000619773499"}},"comments":{"data":[{"id":"347308548622389_4938874","from":{"name":"Blanca Robledo","id":"100000619773499"},"message":"hermoso lugar.... vdad.. Maricela.... saluditos...!","can_remove":false,"created_time":"2012-03-26T17:17:06+0000","like_count":0,"user_likes":false}],"paging":{"next":"https:\/\/graph.facebook.com\/347308548622389\/comments?access_token=AAACEdEose0cBAJwErCNmIPZA6el8rxxyY5ULyI6xBIzYxuyekLKT4jiLPBr1teydoTPlSXlbBEkmB07tIO62Pi4QqIsy3oMtz1ihC5OyZAvdarWSZBe&limit=25&offset=25&__after_id=347308548622389_4938874"}}},{"id":"493523407334235","from":{"name":"Makeila Solis","id":"100000297392245"},"name":"AMERICAN INDUSTRIAL DESIGNS","description":"Remodeling, Custom Cabinetry, and Landscaping Designs","link":"http:\/\/www.facebook.com\/album.php?fbid=493523407334235&id=100000297392245&aid=117321","cover_photo":"493523417334234","count":24,"type":"normal","created_time":"2012-10-08T04:53:51+0000","updated_time":"2012-10-08T04:57:15+0000","can_upload":false},{"id":"181004781919434","from":{"name":"Makeila Solis","id":"100000297392245"},"name":"HOLIDAY CELEBRATIONS","link":"http:\/\/www.facebook.com\/album.php?fbid=181004781919434&id=100000297392245&aid=42463","cover_photo":"181004858586093","count":5,"type":"normal","created_time":"2011-01-02T03:18:59+0000","updated_time":"2012-10-08T03:10:48+0000","can_upload":false},{"id":"214507895235789","from":{"name":"Makeila Solis","id":"100000297392245"},"name":"CASTANO \"OUR BRAVE TROOPER\"","location":"NEW YORK - MIAMI","link":"http:\/\/www.facebook.com\/album.php?fbid=214507895235789&id=100000297392245&aid=60899","cover_photo":"214511008568811","count":20,"type":"normal","created_time":"2011-05-14T12:49:51+0000","updated_time":"2012-10-08T02:11:14+0000","can_upload":false,"likes":{"data":[{"id":"1471556735","name":"Ted Miller"},{"id":"1147627921","name":"Kanani Lagapa"},{"id":"1409848027","name":"Elizabeth Rindone"}],"paging":{"next":"https:\/\/graph.facebook.com\/214507895235789\/likes?access_token=AAACEdEose0cBAJwErCNmIPZA6el8rxxyY5ULyI6xBIzYxuyekLKT4jiLPBr1teydoTPlSXlbBEkmB07tIO62Pi4QqIsy3oMtz1ihC5OyZAvdarWSZBe&limit=25&offset=25&__after_id=1409848027"}},"comments":{"data":[{"id":"214507895235789_3123682","from":{"name":"Elizabeth Rindone","id":"1409848027"},"message":"So sweet! What a personality. You were all lucky to have each other. RIP Castano. xoxoxo","can_remove":false,"created_time":"2011-05-14T14:15:57+0000","like_count":0,"user_likes":false},{"id":"214507895235789_3123749","from":{"name":"Makeila Solis","id":"100000297392245"},"message":"THANK YOU ELIZABETH!","can_remove":false,"created_time":"2011-05-14T14:28:53+0000","like_count":0,"user_likes":false},{"id":"214507895235789_3126894","from":{"name":"Nicole Infanti","id":"665767874"},"message":"Que lindo ! todo un artista....","can_remove":false,"created_time":"2011-05-15T03:27:47+0000","like_count":0,"user_likes":false}],"paging":{"next":"https:\/\/graph.facebook.com\/214507895235789\/comments?access_token=AAACEdEose0cBAJwErCNmIPZA6el8rxxyY5ULyI6xBIzYxuyekLKT4jiLPBr1teydoTPlSXlbBEkmB07tIO62Pi4QqIsy3oMtz1ihC5OyZAvdarWSZBe&limit=25&offset=25&__after_id=214507895235789_3126894"}}},{"id":"179373458749233","from":{"name":"Makeila Solis","id":"100000297392245"},"name":"MMI-SPC","location":"MIAMI","link":"http:\/\/www.facebook.com\/album.php?fbid=179373458749233&id=100000297392245&aid=41628","cover_photo":"180418905311355","count":54,"type":"normal","created_time":"2010-12-26T18:42:30+0000","updated_time":"2012-10-08T01:45:38+0000","can_upload":false,"comments":{"data":[{"id":"179373458749233_2284640","from":{"name":"Wilma MGasal","id":"100000746856721"},"message":"Thank you!  Beautiful pixs....","can_remove":false,"created_time":"2010-12-31T14:17:36+0000","like_count":0,"user_likes":false}],"paging":{"next":"https:\/\/graph.facebook.com\/179373458749233\/comments?access_token=AAACEdEose0cBAJwErCNmIPZA6el8rxxyY5ULyI6xBIzYxuyekLKT4jiLPBr1teydoTPlSXlbBEkmB07tIO62Pi4QqIsy3oMtz1ihC5OyZAvdarWSZBe&limit=25&offset=25&__after_id=179373458749233_2284640"}}},{"id":"465423366810906","from":{"name":"Makeila Solis","id":"100000297392245"},"name":"Happy Hours!","link":"http:\/\/www.facebook.com\/album.php?fbid=465423366810906&id=100000297392245&aid=109747","cover_photo":"485815908104985","count":8,"type":"normal","created_time":"2012-07-28T23:18:39+0000","updated_time":"2012-10-08T01:57:13+0000","can_upload":false},{"id":"223936044292974","from":{"name":"Makeila Solis","id":"100000297392245"},"name":"OLIVIA BASEMAN","location":"NEW YORK    -MIAMI","link":"http:\/\/www.facebook.com\/album.php?fbid=223936044292974&id=100000297392245&aid=64366","cover_photo":"223936130959632","count":1,"type":"normal","created_time":"2011-06-20T16:15:09+0000","updated_time":"2012-01-09T20:54:58+0000","can_upload":false,"likes":{"data":[{"id":"100000297392245","name":"Makeila Solis"},{"id":"1540359435","name":"Mark Vacker"}],"paging":{"next":"https:\/\/graph.facebook.com\/223936044292974\/likes?access_token=AAACEdEose0cBAJwErCNmIPZA6el8rxxyY5ULyI6xBIzYxuyekLKT4jiLPBr1teydoTPlSXlbBEkmB07tIO62Pi4QqIsy3oMtz1ihC5OyZAvdarWSZBe&limit=25&offset=25&__after_id=1540359435"}}},{"id":"485807961439113","from":{"name":"Makeila Solis","id":"100000297392245"},"name":"Majestic Italy","link":"http:\/\/www.facebook.com\/album.php?fbid=485807961439113&id=100000297392245&aid=115304","cover_photo":"485808214772421","count":16,"type":"normal","created_time":"2012-09-18T23:00:06+0000","updated_time":"2012-09-29T16:55:25+0000","can_upload":false},{"id":"181419251877987","from":{"name":"Makeila Solis","id":"100000297392245"},"name":"MMI ART GALLERY","location":"Mexico","place":{"id":"109486839070556","name":"Mexico","location":{"street":"","zip":"","latitude":23,"longitude":-102}},"link":"http:\/\/www.facebook.com\/album.php?fbid=181419251877987&id=100000297392245&aid=42897","cover_photo":"181423381877574","count":4,"type":"normal","created_time":"2011-01-03T16:23:18+0000","updated_time":"2012-09-18T22:58:51+0000","can_upload":false,"likes":{"data":[{"id":"510452527","name":"Sebastian Elkan"}],"paging":{"next":"https:\/\/graph.facebook.com\/181419251877987\/likes?access_token=AAACEdEose0cBAJwErCNmIPZA6el8rxxyY5ULyI6xBIzYxuyekLKT4jiLPBr1teydoTPlSXlbBEkmB07tIO62Pi4QqIsy3oMtz1ihC5OyZAvdarWSZBe&limit=25&offset=25&__after_id=510452527"}}},{"id":"465339726819270","from":{"name":"Makeila Solis","id":"100000297392245"},"name":"Cover Photos","link":"http:\/\/www.facebook.com\/album.php?fbid=465339726819270&id=100000297392245&aid=109721","cover_photo":"465339730152603","count":1,"type":"normal","created_time":"2012-07-28T18:01:31+0000","updated_time":"2012-07-28T18:01:35+0000","can_upload":false},{"id":"151999954819917","from":{"name":"Makeila Solis","id":"100000297392245"},"name":"Profile Pictures","link":"http:\/\/www.facebook.com\/album.php?fbid=151999954819917&id=100000297392245&aid=25419","cover_photo":"187219174631328","count":5,"type":"profile","created_time":"2010-09-05T03:59:56+0000","updated_time":"2012-10-08T03:18:18+0000","can_upload":false},{"id":"211753328844579","from":{"name":"Makeila Solis","id":"100000297392245"},"name":"MMI -PROFESSIONAL ATHLETES","location":"MIAMI","link":"http:\/\/www.facebook.com\/album.php?fbid=211753328844579&id=100000297392245&aid=59920","cover_photo":"211766555509923","count":11,"type":"normal","created_time":"2011-05-03T12:38:19+0000","updated_time":"2012-07-28T20:14:52+0000","can_upload":false},{"id":"421586731194570","from":{"name":"Makeila Solis","id":"100000297392245"},"name":"SEBASTIAN ELKAN","description":"Sebastian ","link":"http:\/\/www.facebook.com\/album.php?fbid=421586731194570&id=100000297392245&aid=101633","cover_photo":"454278391258737","count":1,"type":"normal","created_time":"2012-05-10T20:08:28+0000","updated_time":"2012-07-28T20:46:50+0000","can_upload":false},{"id":"209820135704565","from":{"name":"Makeila Solis","id":"100000297392245"},"name":"TEENS","location":"Mia","place":{"id":"147709588590951","name":"Miami","location":{"street":"","city":"Miami","state":"FL","country":"United States","zip":"33136","latitude":25.77433401996,"longitude":-80.187926544029}},"link":"http:\/\/www.facebook.com\/album.php?fbid=209820135704565&id=100000297392245&aid=58585","cover_photo":"210549022298343","count":21,"type":"normal","created_time":"2011-04-25T19:28:42+0000","updated_time":"2012-07-28T20:58:43+0000","can_upload":false},{"id":"331661363520441","from":{"name":"Makeila Solis","id":"100000297392245"},"name":"PACO'S PERFORMANCE","description":"Espana to Miami","location":"MIAMI","link":"http:\/\/www.facebook.com\/album.php?fbid=331661363520441&id=100000297392245&aid=84538","cover_photo":"331733860179858","count":125,"type":"normal","created_time":"2012-01-03T23:45:49+0000","updated_time":"2012-01-04T10:35:06+0000","can_upload":false,"likes":{"data":[{"id":"100000297392245","name":"Makeila Solis"}],"paging":{"next":"https:\/\/graph.facebook.com\/331661363520441\/likes?access_token=AAACEdEose0cBAJwErCNmIPZA6el8rxxyY5ULyI6xBIzYxuyekLKT4jiLPBr1teydoTPlSXlbBEkmB07tIO62Pi4QqIsy3oMtz1ihC5OyZAvdarWSZBe&limit=25&offset=25&__after_id=100000297392245"}}},{"id":"102688339751079","from":{"name":"Makeila Solis","id":"100000297392245"},"name":"Young Brilliant Ideas","link":"http:\/\/www.facebook.com\/album.php?fbid=102688339751079&id=100000297392245&aid=5907","cover_photo":"102688539751059","count":4,"type":"normal","created_time":"2009-11-10T20:01:32+0000","updated_time":"2012-07-28T19:00:49+0000","can_upload":false},{"id":"421586987861211","from":{"name":"Makeila Solis","id":"100000297392245"},"name":"MMI - MIAMI TODAY!\"","description":"photos by: Maricela Solis","link":"http:\/\/www.facebook.com\/album.php?fbid=421586987861211&id=100000297392245&aid=101634","cover_photo":"454265527926690","count":20,"type":"normal","created_time":"2012-05-10T20:08:49+0000","updated_time":"2012-07-02T23:32:41+0000","can_upload":false},{"id":"347331555286755","from":{"name":"Makeila Solis","id":"100000297392245"},"name":"Tour to Chapala, Mezcala Jalisco 2009","description":"Beautiful & sad,  Some of us take life for granted.","location":"\u0040 Chapala, Jalisco, Mexico","place":{"id":"211059902256791","name":"Chapala, Jalisco, Mexico","location":{"street":"","city":"Chapala","state":"","country":"Mexico","zip":"","latitude":20.287840849157,"longitude":-103.19080526988}},"link":"http:\/\/www.facebook.com\/album.php?fbid=347331555286755&id=100000297392245&aid=87819","cover_photo":"347336171952960","count":88,"type":"normal","created_time":"2012-01-26T23:51:33+0000","updated_time":"2012-01-28T00:10:05+0000","can_upload":false},{"id":"197714783581767","from":{"name":"Makeila Solis","id":"100000297392245"},"name":"ARNOLD'S DINNER PARTY 2-6-11","location":"MIAMI","link":"http:\/\/www.facebook.com\/album.php?fbid=197714783581767&id=100000297392245&aid=49928","cover_photo":"198438460176066","count":21,"type":"normal","created_time":"2011-03-07T19:10:55+0000","updated_time":"2011-03-10T16:36:41+0000","can_upload":false,"likes":{"data":[{"id":"100000297392245","name":"Makeila Solis"},{"id":"517501080","name":"NeeNee Knightly"},{"id":"1409848027","name":"Elizabeth Rindone"},{"id":"601521143","name":"Roland Jorge"}],"paging":{"next":"https:\/\/graph.facebook.com\/197714783581767\/likes?access_token=AAACEdEose0cBAJwErCNmIPZA6el8rxxyY5ULyI6xBIzYxuyekLKT4jiLPBr1teydoTPlSXlbBEkmB07tIO62Pi4QqIsy3oMtz1ihC5OyZAvdarWSZBe&limit=25&offset=25&__after_id=601521143"}},"comments":{"data":[{"id":"197714783581767_2736564","from":{"name":"Makeila Solis","id":"100000297392245"},"message":"\"THANK YOU ARNOLD FOR THE WONDERFUL DINNER PARTY!\"","can_remove":false,"created_time":"2011-03-07T19:42:54+0000","like_count":0,"user_likes":false},{"id":"197714783581767_2736730","from":{"name":"Sherry Reichert","id":"1299898394"},"message":"MAKEILA, i NEVER DID RECEIVE ANY OF THE PICTURES YOU SAID YOU WERE SENDING! FABSHERRY\u0040AOL.COM 561-740-2122  \"EXCEPTIONAL EVENTS & ENTERTAINMENT\"","can_remove":false,"created_time":"2011-03-07T20:26:40+0000","like_count":0,"user_likes":false},{"id":"197714783581767_2750643","from":{"name":"Elizabeth Rindone","id":"1409848027"},"message":"Great shots, Marci! Thank you for sharing!! xoxox :)","can_remove":false,"created_time":"2011-03-10T17:07:15+0000","like_count":0,"user_likes":false},{"id":"197714783581767_2765951","from":{"name":"JoAnne Varco","id":"1112236271"},"message":"Wonderful photos to celebrate a wonderful occasion. Wish I could have attended with all of you. My life is so blessed. LOLjv","can_remove":false,"created_time":"2011-03-13T18:21:24+0000","like_count":0,"user_likes":false},{"id":"197714783581767_2765961","from":{"name":"Makeila Solis","id":"100000297392245"},"message":"There will bee other moments!","can_remove":false,"created_time":"2011-03-13T18:25:39+0000","like_count":0,"user_likes":false}],"paging":{"next":"https:\/\/graph.facebook.com\/197714783581767\/comments?access_token=AAACEdEose0cBAJwErCNmIPZA6el8rxxyY5ULyI6xBIzYxuyekLKT4jiLPBr1teydoTPlSXlbBEkmB07tIO62Pi4QqIsy3oMtz1ihC5OyZAvdarWSZBe&limit=25&offset=25&__after_id=197714783581767_2765961"}}},{"id":"232066136813298","from":{"name":"Makeila Solis","id":"100000297392245"},"name":"'ELENA PEREZ ANEZ'S ANNIVERSARY CELEBRATION 6-22-2011\"","location":"MIAMI BEACH GOLF COURSE","link":"http:\/\/www.facebook.com\/album.php?fbid=232066136813298&id=100000297392245&aid=64667","cover_photo":"232073173479261","count":67,"type":"normal","created_time":"2011-06-23T19:05:03+0000","updated_time":"2011-06-27T17:01:07+0000","can_upload":false,"likes":{"data":[{"id":"1112236271","name":"JoAnne Varco"},{"id":"1409848027","name":"Elizabeth Rindone"},{"id":"1443920626","name":"Gregory Crosby"}],"paging":{"next":"https:\/\/graph.facebook.com\/232066136813298\/likes?access_token=AAACEdEose0cBAJwErCNmIPZA6el8rxxyY5ULyI6xBIzYxuyekLKT4jiLPBr1teydoTPlSXlbBEkmB07tIO62Pi4QqIsy3oMtz1ihC5OyZAvdarWSZBe&limit=25&offset=25&__after_id=1443920626"}},"comments":{"data":[{"id":"232066136813298_3361756","from":{"name":"Elizabeth Rindone","id":"1409848027"},"message":"What a lovely, lovey afternoon!! xoxo :)  Great pix Marci! Thank you for posting!","can_remove":false,"created_time":"2011-06-24T01:05:02+0000","like_count":0,"user_likes":false},{"id":"232066136813298_3362378","from":{"name":"Makeila Solis","id":"100000297392245"},"message":"i WILL CONTINUE TOMORROW..THIS IS A LONG PROCESS!","can_remove":false,"created_time":"2011-06-24T03:23:39+0000","like_count":0,"user_likes":false},{"id":"232066136813298_3373692","from":{"name":"Nicole Infanti","id":"665767874"},"message":"Enjoying your photos Marci ! it is as if I was there ! besitos and thanks for sharing, Baby!","can_remove":false,"created_time":"2011-06-25T22:43:32+0000","like_count":0,"user_likes":false},{"id":"232066136813298_3384314","from":{"name":"Makeila Solis","id":"100000297392245"},"message":"Thank you Nicole ...miss you!","can_remove":false,"created_time":"2011-06-27T16:57:29+0000","like_count":0,"user_likes":false},{"id":"232066136813298_3390985","from":{"name":"JoAnne Varco","id":"1112236271"},"message":"What a wonderful party. The pictures captured made me feel as if I was there, Marci. Such a memorable time. Thank you for the treat.","can_remove":false,"created_time":"2011-06-28T15:50:46+0000","like_count":0,"user_likes":false},{"id":"232066136813298_3391310","from":{"name":"Makeila Solis","id":"100000297392245"},"message":"\"THANKS JOANN..SOME OF THE PICTURES I HAVE NOT GOT TO YET..I AM TRYING TO FINISH UP ON SOME UNFINISHED BUSINESSES BEFORE I LEAVE ON THE 30 OR JULY 1\"","can_remove":false,"created_time":"2011-06-28T16:50:34+0000","like_count":0,"user_likes":false}],"paging":{"next":"https:\/\/graph.facebook.com\/232066136813298\/comments?access_token=AAACEdEose0cBAJwErCNmIPZA6el8rxxyY5ULyI6xBIzYxuyekLKT4jiLPBr1teydoTPlSXlbBEkmB07tIO62Pi4QqIsy3oMtz1ihC5OyZAvdarWSZBe&limit=25&offset=25&__after_id=232066136813298_3391310"}}}],"paging":{"cursors":{"after":"MjMyMDY2MTM2ODEzMjk4","before":"MzQ3MzA4NTQ4NjIyMzg5"},"previous":"https:\/\/graph.facebook.com\/100000297392245\/albums?limit=500&access_token=AAACEdEose0cBAJwErCNmIPZA6el8rxxyY5ULyI6xBIzYxuyekLKT4jiLPBr1teydoTPlSXlbBEkmB07tIO62Pi4QqIsy3oMtz1ihC5OyZAvdarWSZBe&before=MzQ3MzA4NTQ4NjIyMzg5"}}