{"data":[{"id":"2127033369030","from":{"name":"Gaylia Warner","id":"1041796126"},"name":"Mobile Uploads","link":"http:\/\/www.facebook.com\/album.php?fbid=2127033369030&id=1041796126&aid=119773","cover_photo":"10200356579170709","count":556,"type":"mobile","created_time":"2011-07-22T13:59:35+0000","updated_time":"2013-04-03T21:42:48+0000","can_upload":false},{"id":"2966400872693","from":{"name":"Gaylia Warner","id":"1041796126"},"name":"Untitled Album","link":"http:\/\/www.facebook.com\/album.php?fbid=2966400872693&id=1041796126&aid=141565","cover_photo":"4812208256724","count":295,"type":"normal","created_time":"2012-02-04T02:52:55+0000","updated_time":"2013-04-03T21:30:26+0000","can_upload":false,"likes":{"data":[{"id":"100005163487542","name":"Anita Lopez"},{"id":"100000956575033","name":"John Walters"}],"paging":{"next":"https:\/\/graph.facebook.com\/2966400872693\/likes?access_token=AAACEdEose0cBAJwErCNmIPZA6el8rxxyY5ULyI6xBIzYxuyekLKT4jiLPBr1teydoTPlSXlbBEkmB07tIO62Pi4QqIsy3oMtz1ihC5OyZAvdarWSZBe&limit=25&offset=25&__after_id=100000956575033"}},"comments":{"data":[{"id":"2966400872693_3661196","from":{"name":"Belma Goran","id":"1359983868"},"message":"so beautiful ! no comment....","can_remove":false,"created_time":"2012-03-01T16:48:25+0000","like_count":0,"user_likes":false},{"id":"2966400872693_3753366","from":{"name":"Gaylia Warner","id":"1041796126"},"message":"hey ana how are you .... thanks belma and lol jim","can_remove":false,"created_time":"2012-03-20T16:58:05+0000","like_count":1,"user_likes":false},{"id":"2966400872693_4446586","from":{"name":"Mesha EnjoyLife Warner-Purnell","id":"1195166336"},"message":"Heyyy Auntie Alice!","can_remove":false,"created_time":"2012-08-30T18:23:36+0000","like_count":0,"user_likes":false},{"id":"2966400872693_4447024","from":{"name":"Ivona Zapata","id":"100004100491938"},"message":"You are so beautiful","can_remove":false,"created_time":"2012-08-30T20:12:11+0000","like_count":0,"user_likes":false},{"id":"2966400872693_4450670","from":{"name":"Gaylia Warner","id":"1041796126"},"message":"thank you ivona","can_remove":false,"created_time":"2012-08-31T17:01:30+0000","like_count":1,"user_likes":false},{"id":"2966400872693_4450674","from":{"name":"Gaylia Warner","id":"1041796126"},"message":"i will tell my mom you said hi mrs warner","can_remove":false,"created_time":"2012-08-31T17:02:02+0000","like_count":1,"user_likes":false},{"id":"2966400872693_4455925","from":{"name":"\u30a8\u30ed\u30de\u30b8\u30c3\u30af \u30e2\u30fc\u30ea\u30b9","id":"100000415330799"},"message":"Whay about me Bella.M;=)","can_remove":false,"created_time":"2012-09-02T00:00:12+0000","like_count":1,"user_likes":false},{"id":"2966400872693_4877553","from":{"name":"Falckon Man","id":"100001832413494"},"message":"good pic","can_remove":false,"created_time":"2012-12-10T23:47:27+0000","like_count":0,"user_likes":false},{"id":"2966400872693_4889627","from":{"name":"Real Quick Mixx","id":"100001560055359"},"message":"nice\"\"","can_remove":false,"created_time":"2012-12-13T17:48:45+0000","like_count":0,"user_likes":false},{"id":"2966400872693_4922305","from":{"name":"Christopher Michael","id":"100001276761490"},"message":"BOOM!","can_remove":false,"created_time":"2012-12-21T07:23:26+0000","like_count":0,"user_likes":false},{"id":"2966400872693_4923111","from":{"name":"Stephanie Williamson","id":"100000096317804"},"message":"So gorgeous!! \u003C3","can_remove":false,"created_time":"2012-12-21T12:50:48+0000","like_count":0,"user_likes":false},{"id":"2966400872693_4954329","from":{"name":"Herbert Gordon","id":"100001316261455"},"message":"Happy New Year to you Gaylia.","can_remove":false,"created_time":"2012-12-29T05:25:36+0000","like_count":1,"user_likes":false},{"id":"2966400872693_4954651","from":{"name":"Falckon Almahi","id":"100001113580186"},"message":"will","can_remove":false,"created_time":"2012-12-29T08:41:13+0000","like_count":0,"user_likes":false},{"id":"2966400872693_4985701","from":{"name":"Brian Larry","id":"100000414227002"},"message":"U are a beautiful woman","can_remove":false,"created_time":"2013-01-06T04:14:39+0000","like_count":1,"user_likes":false},{"id":"2966400872693_5006365","from":{"name":"Sabrina D Rafal","id":"100002384428991"},"message":"So so beautiful !","can_remove":false,"created_time":"2013-01-11T08:07:20+0000","like_count":0,"user_likes":false},{"id":"2966400872693_5065014","from":{"name":"Brian Fanning","id":"1039165446"},"message":"Cheers Gaylia,Have a great weekend..","can_remove":false,"created_time":"2013-01-25T16:53:55+0000","like_count":0,"user_likes":false},{"id":"2966400872693_5141650","from":{"name":"Joey Kowal","id":"100000947525544"},"message":"Happy Valentines Day ..Special one","can_remove":false,"created_time":"2013-02-14T23:59:11+0000","like_count":0,"user_likes":false},{"id":"2966400872693_5181247","from":{"name":"Joshua Rosario","id":"100003678522047"},"message":"Que fuerrrteee","can_remove":false,"created_time":"2013-02-26T09:40:05+0000","like_count":0,"user_likes":false},{"id":"2966400872693_5182322","from":{"name":"Waidric Murphy","id":"100000548080765"},"message":"Dat purse look lika cartoon purse...","can_remove":false,"created_time":"2013-02-26T17:37:28+0000","like_count":0,"user_likes":false},{"id":"2966400872693_5190270","from":{"name":"Roland Amankwah","id":"100005353711239"},"message":"nice picts","can_remove":false,"created_time":"2013-03-01T02:41:20+0000","like_count":0,"user_likes":false},{"id":"2966400872693_5199619","from":{"name":"Noel Beres","id":"100000076040528"},"message":"Luscious","can_remove":false,"created_time":"2013-03-03T23:37:02+0000","like_count":0,"user_likes":false},{"id":"2966400872693_5199686","from":{"name":"Peter Hendrickson","id":"100001769535556"},"message":"Beautiful pictures. You are a very gorgeous woman. :)","can_remove":false,"created_time":"2013-03-04T00:03:37+0000","like_count":0,"user_likes":false},{"id":"2966400872693_5199727","from":{"name":"Barbara Myles","id":"100001072936252"},"message":"Daddy say you need to put more clothes when your on the Internet... And call him.","can_remove":false,"created_time":"2013-03-04T00:24:56+0000","like_count":0,"user_likes":false},{"id":"2966400872693_5199914","from":{"name":"Bret Wahlberg","id":"100004883526842"},"message":"Wow very nice love belly shirts to cool","can_remove":false,"created_time":"2013-03-04T01:28:08+0000","like_count":0,"user_likes":false},{"id":"2966400872693_5200916","from":{"name":"Sabrina D Rafal","id":"100002384428991"},"message":"So sexyy baby  ! Much love !","can_remove":false,"created_time":"2013-03-04T09:42:51+0000","like_count":0,"user_likes":false}],"paging":{"next":"https:\/\/graph.facebook.com\/2966400872693\/comments?access_token=AAACEdEose0cBAJwErCNmIPZA6el8rxxyY5ULyI6xBIzYxuyekLKT4jiLPBr1teydoTPlSXlbBEkmB07tIO62Pi4QqIsy3oMtz1ihC5OyZAvdarWSZBe&limit=25&offset=25&__after_id=2966400872693_5200916"}}},{"id":"1528444284677","from":{"name":"Gaylia Warner","id":"1041796126"},"name":"Profile Pictures","link":"http:\/\/www.facebook.com\/album.php?fbid=1528444284677&id=1041796126&aid=73915","cover_photo":"10200343654687605","count":100,"type":"profile","created_time":"2010-09-03T10:03:14+0000","updated_time":"2013-04-01T03:01:49+0000","can_upload":false},{"id":"3378510775183","from":{"name":"Gaylia Warner","id":"1041796126"},"name":"Cover Photos","link":"http:\/\/www.facebook.com\/album.php?fbid=3378510775183&id=1041796126&aid=149885","cover_photo":"10200240712354111","count":13,"type":"normal","created_time":"2012-04-12T18:46:17+0000","updated_time":"2013-03-12T03:21:53+0000","can_upload":false},{"id":"3564471784092","from":{"name":"Gaylia Warner","id":"1041796126"},"name":"Instagram Photos","link":"http:\/\/www.facebook.com\/album.php?fbid=3564471784092&id=1041796126&aid=152680","cover_photo":"4590070303414","count":6,"type":"app","created_time":"2012-05-07T23:12:25+0000","updated_time":"2012-12-21T07:05:17+0000","can_upload":false},{"id":"4152163956029","from":{"name":"Gaylia Warner","id":"1041796126"},"name":"Timeline Photos","link":"http:\/\/www.facebook.com\/album.php?fbid=4152163956029&id=1041796126&aid=165369","cover_photo":"4152491124208","count":1,"type":"wall","created_time":"2012-09-13T20:48:46+0000","updated_time":"2012-09-13T22:56:21+0000","can_upload":false},{"id":"1460688670829","from":{"name":"Gaylia Warner","id":"1041796126"},"name":"Mobile Uploads","link":"http:\/\/www.facebook.com\/album.php?fbid=1460688670829&id=1041796126&aid=61466","cover_photo":"2490457534407","count":56,"type":"normal","created_time":"2010-07-03T07:16:01+0000","updated_time":"2012-08-30T15:39:41+0000","can_upload":false,"likes":{"data":[{"id":"100000494425887","name":"Corey Higgins"},{"id":"100003300499846","name":"Scott Arnold"},{"id":"1525755430","name":"Roger Hernandez"},{"id":"1406445045","name":"Ronnie Bell"},{"id":"100002143183777","name":"Krieg Zeethree Goulsby"},{"id":"100001559651531","name":"Jimmy Saggu"},{"id":"100000053791928","name":"Dominic James Dom"},{"id":"511135237","name":"Adam Currie"},{"id":"745766797","name":"Gabriel Villaverde"},{"id":"1052703887","name":"Marcello Carlino"},{"id":"100001072936252","name":"Barbara Myles"}],"paging":{"next":"https:\/\/graph.facebook.com\/1460688670829\/likes?access_token=AAACEdEose0cBAJwErCNmIPZA6el8rxxyY5ULyI6xBIzYxuyekLKT4jiLPBr1teydoTPlSXlbBEkmB07tIO62Pi4QqIsy3oMtz1ihC5OyZAvdarWSZBe&limit=25&offset=25&__after_id=100001072936252"}},"comments":{"data":[{"id":"1460688670829_1048257","from":{"name":"Barbara Myles","id":"100001072936252"},"message":"How are  you doing gaylia.  This is a beautiful photo of you.  Your dads friend.","can_remove":false,"created_time":"2011-01-11T19:01:20+0000","like_count":0,"user_likes":false},{"id":"1460688670829_4942783","from":{"name":"Corey Higgins","id":"100000494425887"},"message":"As much as i luv ur natural beauty .. the hazel eye are still stunning too Mz G .. Happy Holidays","can_remove":false,"created_time":"2012-12-26T03:16:05+0000","like_count":0,"user_likes":false}],"paging":{"next":"https:\/\/graph.facebook.com\/1460688670829\/comments?access_token=AAACEdEose0cBAJwErCNmIPZA6el8rxxyY5ULyI6xBIzYxuyekLKT4jiLPBr1teydoTPlSXlbBEkmB07tIO62Pi4QqIsy3oMtz1ihC5OyZAvdarWSZBe&limit=25&offset=25&__after_id=1460688670829_4942783"}}},{"id":"2142305910834","from":{"name":"Gaylia Warner","id":"1041796126"},"name":"July 29, 2011 miami life","link":"http:\/\/www.facebook.com\/album.php?fbid=2142305910834&id=1041796126&aid=120533","cover_photo":"2142306830857","count":35,"type":"normal","created_time":"2011-07-29T17:14:53+0000","updated_time":"2012-08-28T01:13:11+0000","can_upload":false,"likes":{"data":[{"id":"1052703887","name":"Marcello Carlino"},{"id":"100002621738504","name":"Daisuke  Yanai"},{"id":"1412300349","name":"Desiree Ann Gullett"},{"id":"1347117289","name":"Ernesto Fabian Dube"},{"id":"100000415330799","name":"\u30a8\u30ed\u30de\u30b8\u30c3\u30af \u30e2\u30fc\u30ea\u30b9"},{"id":"100002143183777","name":"Krieg Zeethree Goulsby"},{"id":"1578619667","name":"Blake Miller"},{"id":"100001468205173","name":"Gary Benetto"},{"id":"1525755430","name":"Roger Hernandez"},{"id":"100000129649462","name":"Marcus Alexander"},{"id":"100000422407288","name":"Bobby Jordan"},{"id":"1013636804","name":"Ruben Lopes"},{"id":"1625872554","name":"El Patron"}],"paging":{"next":"https:\/\/graph.facebook.com\/2142305910834\/likes?access_token=AAACEdEose0cBAJwErCNmIPZA6el8rxxyY5ULyI6xBIzYxuyekLKT4jiLPBr1teydoTPlSXlbBEkmB07tIO62Pi4QqIsy3oMtz1ihC5OyZAvdarWSZBe&limit=25&offset=25&__after_id=1625872554"}},"comments":{"data":[{"id":"2142305910834_2310478","from":{"name":"Bobby Jordan","id":"100000422407288"},"message":"Real Nice Pics!!","can_remove":false,"created_time":"2011-08-02T05:11:43+0000","like_count":0,"user_likes":false},{"id":"2142305910834_2830022","from":{"name":"Roger Hernandez","id":"1525755430"},"message":"Love it","can_remove":false,"created_time":"2011-10-14T18:16:44+0000","like_count":0,"user_likes":false},{"id":"2142305910834_2833157","from":{"name":"Gaylia Warner","id":"1041796126"},"message":"Thanks guys","can_remove":false,"created_time":"2011-10-15T06:01:38+0000","like_count":1,"user_likes":false}],"paging":{"next":"https:\/\/graph.facebook.com\/2142305910834\/comments?access_token=AAACEdEose0cBAJwErCNmIPZA6el8rxxyY5ULyI6xBIzYxuyekLKT4jiLPBr1teydoTPlSXlbBEkmB07tIO62Pi4QqIsy3oMtz1ihC5OyZAvdarWSZBe&limit=25&offset=25&__after_id=2142305910834_2833157"}}},{"id":"1811047629584","from":{"name":"Gaylia Warner","id":"1041796126"},"name":"Mobile Uploads","link":"http:\/\/www.facebook.com\/album.php?fbid=1811047629584&id=1041796126&aid=101626","cover_photo":"2127031328979","count":87,"type":"normal","created_time":"2011-03-17T16:13:13+0000","updated_time":"2012-08-24T20:52:03+0000","can_upload":false,"likes":{"data":[{"id":"100001832413494","name":"Falckon Man"},{"id":"100002621738504","name":"Daisuke  Yanai"},{"id":"100000702123678","name":"Keondra Washington"},{"id":"100000708589192","name":"Ebony Thedominantgirl Sampson"},{"id":"100000303740042","name":"Jonte Realtalkman Jackson"}],"paging":{"next":"https:\/\/graph.facebook.com\/1811047629584\/likes?access_token=AAACEdEose0cBAJwErCNmIPZA6el8rxxyY5ULyI6xBIzYxuyekLKT4jiLPBr1teydoTPlSXlbBEkmB07tIO62Pi4QqIsy3oMtz1ihC5OyZAvdarWSZBe&limit=25&offset=25&__after_id=100000303740042"}}},{"id":"1702276550375","from":{"name":"Gaylia Warner","id":"1041796126"},"name":"January 8, 2011","location":"Miami","link":"http:\/\/www.facebook.com\/album.php?fbid=1702276550375&id=1041796126&aid=93327","cover_photo":"1784537526848","count":20,"type":"normal","created_time":"2011-01-08T17:51:27+0000","updated_time":"2012-07-01T13:47:12+0000","can_upload":false,"likes":{"data":[{"id":"1052703887","name":"Marcello Carlino"},{"id":"100001468205173","name":"Gary Benetto"}],"paging":{"next":"https:\/\/graph.facebook.com\/1702276550375\/likes?access_token=AAACEdEose0cBAJwErCNmIPZA6el8rxxyY5ULyI6xBIzYxuyekLKT4jiLPBr1teydoTPlSXlbBEkmB07tIO62Pi4QqIsy3oMtz1ihC5OyZAvdarWSZBe&limit=25&offset=25&__after_id=100001468205173"}},"comments":{"data":[{"id":"1702276550375_1252190","from":{"name":"Enbar Cohen","id":"1108680284"},"message":"gorgeous.","can_remove":false,"created_time":"2011-03-05T04:50:06+0000","like_count":0,"user_likes":false}],"paging":{"next":"https:\/\/graph.facebook.com\/1702276550375\/comments?access_token=AAACEdEose0cBAJwErCNmIPZA6el8rxxyY5ULyI6xBIzYxuyekLKT4jiLPBr1teydoTPlSXlbBEkmB07tIO62Pi4QqIsy3oMtz1ihC5OyZAvdarWSZBe&limit=25&offset=25&__after_id=1702276550375_1252190"}}},{"id":"1702255989861","from":{"name":"Gaylia Warner","id":"1041796126"},"name":"2011","link":"http:\/\/www.facebook.com\/album.php?fbid=1702255989861&id=1041796126&aid=93321","cover_photo":"1771043949517","count":14,"type":"normal","created_time":"2011-01-08T17:37:30+0000","updated_time":"2011-12-16T23:50:30+0000","can_upload":false,"likes":{"data":[{"id":"1052703887","name":"Marcello Carlino"},{"id":"1204926657","name":"Oscar Berlanga"}],"paging":{"next":"https:\/\/graph.facebook.com\/1702255989861\/likes?access_token=AAACEdEose0cBAJwErCNmIPZA6el8rxxyY5ULyI6xBIzYxuyekLKT4jiLPBr1teydoTPlSXlbBEkmB07tIO62Pi4QqIsy3oMtz1ihC5OyZAvdarWSZBe&limit=25&offset=25&__after_id=1204926657"}},"comments":{"data":[{"id":"1702255989861_1168895","from":{"name":"\u30a8\u30ed\u30de\u30b8\u30c3\u30af \u30e2\u30fc\u30ea\u30b9","id":"100000415330799"},"message":"M;=)","can_remove":false,"created_time":"2011-02-21T03:17:28+0000","like_count":0,"user_likes":false}],"paging":{"next":"https:\/\/graph.facebook.com\/1702255989861\/comments?access_token=AAACEdEose0cBAJwErCNmIPZA6el8rxxyY5ULyI6xBIzYxuyekLKT4jiLPBr1teydoTPlSXlbBEkmB07tIO62Pi4QqIsy3oMtz1ihC5OyZAvdarWSZBe&limit=25&offset=25&__after_id=1702255989861_1168895"}}},{"id":"1603861570062","from":{"name":"Gaylia Warner","id":"1041796126"},"name":"2011 pics","link":"http:\/\/www.facebook.com\/album.php?fbid=1603861570062&id=1041796126&aid=84619","cover_photo":"1765312406232","count":159,"type":"normal","created_time":"2010-10-31T15:45:47+0000","updated_time":"2012-07-01T13:56:19+0000","can_upload":false,"likes":{"data":[{"id":"100001832413494","name":"Falckon Man"},{"id":"100002621738504","name":"Daisuke  Yanai"},{"id":"1347117289","name":"Ernesto Fabian Dube"},{"id":"1204926657","name":"Oscar Berlanga"},{"id":"100000303740042","name":"Jonte Realtalkman Jackson"},{"id":"652675252","name":"Tessa McDuffie"},{"id":"511135237","name":"Adam Currie"},{"id":"1395755637","name":"Dominik Wysocki"},{"id":"1412300349","name":"Desiree Ann Gullett"},{"id":"710034761","name":"Bill Cox"},{"id":"100001397242577","name":"Mert Erdem"},{"id":"1052703887","name":"Marcello Carlino"},{"id":"100001392587948","name":"Julie Luna"},{"id":"100000708589192","name":"Ebony Thedominantgirl Sampson"},{"id":"1053972520","name":"Trishonda Real AzitGettz Thomas"},{"id":"657405246","name":"Courtney Washington"},{"id":"100000422407288","name":"Bobby Jordan"},{"id":"100000985475006","name":"Celes Sanders-Ayala"},{"id":"100001732833860","name":"John Valenzuela Lil-Brother"},{"id":"100002143183777","name":"Krieg Zeethree Goulsby"},{"id":"1545497500","name":"FraganciaEnt Promociones"},{"id":"611456671","name":"D SoSerious LeBeauf"},{"id":"650103205","name":"Chris Freeman Sr"},{"id":"1384961048","name":"Sherina Evans"},{"id":"100000104167210","name":"LaToya Davis"}],"paging":{"next":"https:\/\/graph.facebook.com\/1603861570062\/likes?access_token=AAACEdEose0cBAJwErCNmIPZA6el8rxxyY5ULyI6xBIzYxuyekLKT4jiLPBr1teydoTPlSXlbBEkmB07tIO62Pi4QqIsy3oMtz1ihC5OyZAvdarWSZBe&limit=25&offset=25&__after_id=100000104167210"}},"comments":{"data":[{"id":"1603861570062_1427100","from":{"name":"Jorge De La Torre","id":"751461876"},"message":"...stunning! :))","can_remove":false,"created_time":"2011-03-30T14:38:44+0000","like_count":0,"user_likes":false}],"paging":{"next":"https:\/\/graph.facebook.com\/1603861570062\/comments?access_token=AAACEdEose0cBAJwErCNmIPZA6el8rxxyY5ULyI6xBIzYxuyekLKT4jiLPBr1teydoTPlSXlbBEkmB07tIO62Pi4QqIsy3oMtz1ihC5OyZAvdarWSZBe&limit=25&offset=25&__after_id=1603861570062_1427100"}}},{"id":"1751296295838","from":{"name":"Gaylia Warner","id":"1041796126"},"name":"2010","location":"my life lastbof 2010 and start of 2011","link":"http:\/\/www.facebook.com\/album.php?fbid=1751296295838&id=1041796126&aid=97203","cover_photo":"1751298575895","count":75,"type":"normal","created_time":"2011-02-07T23:09:47+0000","updated_time":"2012-08-28T01:29:28+0000","can_upload":false,"likes":{"data":[{"id":"524489408","name":"Roderick Macklin"},{"id":"630555533","name":"Ashley Alexander"},{"id":"100002143183777","name":"Krieg Zeethree Goulsby"},{"id":"100001220795509","name":"Sam Warda"},{"id":"1052703887","name":"Marcello Carlino"},{"id":"100001091875457","name":"Tito Junior"},{"id":"100000104167210","name":"LaToya Davis"},{"id":"100001392587948","name":"Julie Luna"},{"id":"100000415330799","name":"\u30a8\u30ed\u30de\u30b8\u30c3\u30af \u30e2\u30fc\u30ea\u30b9"},{"id":"650103205","name":"Chris Freeman Sr"},{"id":"613290212","name":"Red Knight"},{"id":"100001468205173","name":"Gary Benetto"}],"paging":{"next":"https:\/\/graph.facebook.com\/1751296295838\/likes?access_token=AAACEdEose0cBAJwErCNmIPZA6el8rxxyY5ULyI6xBIzYxuyekLKT4jiLPBr1teydoTPlSXlbBEkmB07tIO62Pi4QqIsy3oMtz1ihC5OyZAvdarWSZBe&limit=25&offset=25&__after_id=100001468205173"}}},{"id":"1784573407745","from":{"name":"Gaylia Warner","id":"1041796126"},"name":"2010","link":"http:\/\/www.facebook.com\/album.php?fbid=1784573407745&id=1041796126&aid=99839","cover_photo":"1784573607750","count":144,"type":"normal","created_time":"2011-03-01T21:57:49+0000","updated_time":"2011-12-17T01:59:21+0000","can_upload":false,"likes":{"data":[{"id":"524489408","name":"Roderick Macklin"},{"id":"1052703887","name":"Marcello Carlino"},{"id":"100001397242577","name":"Mert Erdem"},{"id":"100001998195188","name":"Mimmo Vassallo"},{"id":"100002143183777","name":"Krieg Zeethree Goulsby"},{"id":"100001732833860","name":"John Valenzuela Lil-Brother"},{"id":"1728462659","name":"Sam Aatef"},{"id":"100000422407288","name":"Bobby Jordan"},{"id":"772727430","name":"Michael Dunston"},{"id":"100001468205173","name":"Gary Benetto"}],"paging":{"next":"https:\/\/graph.facebook.com\/1784573407745\/likes?access_token=AAACEdEose0cBAJwErCNmIPZA6el8rxxyY5ULyI6xBIzYxuyekLKT4jiLPBr1teydoTPlSXlbBEkmB07tIO62Pi4QqIsy3oMtz1ihC5OyZAvdarWSZBe&limit=25&offset=25&__after_id=100001468205173"}},"comments":{"data":[{"id":"1784573407745_1229620","from":{"name":"Erick Largaespada","id":"100002038909389"},"message":"si me gusta y mas si te tengo serca jajajajja","can_remove":false,"created_time":"2011-03-01T22:29:25+0000","like_count":0,"user_likes":false},{"id":"1784573407745_1229627","from":{"name":"Erick Largaespada","id":"100002038909389"},"message":"por que motivo no me contesta","can_remove":false,"created_time":"2011-03-01T22:30:11+0000","like_count":0,"user_likes":false}],"paging":{"next":"https:\/\/graph.facebook.com\/1784573407745\/comments?access_token=AAACEdEose0cBAJwErCNmIPZA6el8rxxyY5ULyI6xBIzYxuyekLKT4jiLPBr1teydoTPlSXlbBEkmB07tIO62Pi4QqIsy3oMtz1ihC5OyZAvdarWSZBe&limit=25&offset=25&__after_id=1784573407745_1229627"}}},{"id":"1222638999736","from":{"name":"Gaylia Warner","id":"1041796126"},"name":"2008..","link":"http:\/\/www.facebook.com\/album.php?fbid=1222638999736&id=1041796126&aid=35258","cover_photo":"1222647079938","count":73,"type":"normal","created_time":"2009-09-26T02:53:00+0000","updated_time":"2011-03-03T18:31:05+0000","can_upload":false,"likes":{"data":[{"id":"1041796126","name":"Gaylia Warner"},{"id":"1052703887","name":"Marcello Carlino"},{"id":"100002049998060","name":"Louie Luna"},{"id":"524489408","name":"Roderick Macklin"}],"paging":{"next":"https:\/\/graph.facebook.com\/1222638999736\/likes?access_token=AAACEdEose0cBAJwErCNmIPZA6el8rxxyY5ULyI6xBIzYxuyekLKT4jiLPBr1teydoTPlSXlbBEkmB07tIO62Pi4QqIsy3oMtz1ihC5OyZAvdarWSZBe&limit=25&offset=25&__after_id=524489408"}},"comments":{"data":[{"id":"1222638999736_113334","from":{"name":"Gaylia Warner","id":"1041796126"},"message":"thanks","can_remove":false,"created_time":"2009-09-26T04:05:36+0000","like_count":0,"user_likes":false},{"id":"1222638999736_708836","from":{"name":"Brandye Craig","id":"506228213"},"message":"awww, you look different!!!!!! fantastic model!!!!!!!","can_remove":false,"created_time":"2010-08-24T23:49:16+0000","like_count":0,"user_likes":false}],"paging":{"next":"https:\/\/graph.facebook.com\/1222638999736\/comments?access_token=AAACEdEose0cBAJwErCNmIPZA6el8rxxyY5ULyI6xBIzYxuyekLKT4jiLPBr1teydoTPlSXlbBEkmB07tIO62Pi4QqIsy3oMtz1ihC5OyZAvdarWSZBe&limit=25&offset=25&__after_id=1222638999736_708836"}}},{"id":"1476285620743","from":{"name":"Gaylia Warner","id":"1041796126"},"name":"new york and 2010 photos ..Love my life","link":"http:\/\/www.facebook.com\/album.php?fbid=1476285620743&id=1041796126&aid=63479","cover_photo":"1476413503940","count":46,"type":"normal","created_time":"2010-07-17T19:23:05+0000","updated_time":"2011-01-25T14:35:30+0000","can_upload":false,"likes":{"data":[{"id":"524489408","name":"Roderick Macklin"}],"paging":{"next":"https:\/\/graph.facebook.com\/1476285620743\/likes?access_token=AAACEdEose0cBAJwErCNmIPZA6el8rxxyY5ULyI6xBIzYxuyekLKT4jiLPBr1teydoTPlSXlbBEkmB07tIO62Pi4QqIsy3oMtz1ihC5OyZAvdarWSZBe&limit=25&offset=25&__after_id=524489408"}}},{"id":"1002560377908","from":{"name":"Gaylia Warner","id":"1041796126"},"name":"gaylia 2008 ,2009","description":"check it out","location":"houston","link":"http:\/\/www.facebook.com\/album.php?fbid=1002560377908&id=1041796126&aid=494","cover_photo":"1222692361070","count":46,"type":"normal","created_time":"2007-12-22T18:37:36+0000","updated_time":"2011-12-17T02:03:32+0000","can_upload":false,"likes":{"data":[{"id":"645918946","name":"Ricky FifWardtx Soto"}],"paging":{"next":"https:\/\/graph.facebook.com\/1002560377908\/likes?access_token=AAACEdEose0cBAJwErCNmIPZA6el8rxxyY5ULyI6xBIzYxuyekLKT4jiLPBr1teydoTPlSXlbBEkmB07tIO62Pi4QqIsy3oMtz1ihC5OyZAvdarWSZBe&limit=25&offset=25&__after_id=645918946"}}},{"id":"1222662160315","from":{"name":"Gaylia Warner","id":"1041796126"},"name":"traveling photos 2007 - 2008","link":"http:\/\/www.facebook.com\/album.php?fbid=1222662160315&id=1041796126&aid=35260","cover_photo":"1222665120389","count":143,"type":"normal","created_time":"2009-09-26T04:06:30+0000","updated_time":"2011-03-03T18:31:55+0000","can_upload":false,"likes":{"data":[{"id":"1052703887","name":"Marcello Carlino"}],"paging":{"next":"https:\/\/graph.facebook.com\/1222662160315\/likes?access_token=AAACEdEose0cBAJwErCNmIPZA6el8rxxyY5ULyI6xBIzYxuyekLKT4jiLPBr1teydoTPlSXlbBEkmB07tIO62Pi4QqIsy3oMtz1ihC5OyZAvdarWSZBe&limit=25&offset=25&__after_id=1052703887"}}}],"paging":{"cursors":{"after":"MTIyMjY2MjE2MDMxNQ==","before":"MjEyNzAzMzM2OTAzMA=="}}}