{"data":[{"id":"1565642059562","from":{"name":"Jackie Schoonover","id":"1190700063"},"name":"Profile Pictures","link":"http:\/\/www.facebook.com\/album.php?fbid=1565642059562&id=1190700063&aid=2073965","cover_photo":"10200456223746725","count":101,"type":"profile","created_time":"2010-09-01T22:26:34+0000","updated_time":"2013-02-15T16:12:37+0000","can_upload":false},{"id":"2184105200754","from":{"name":"Jackie Schoonover","id":"1190700063"},"name":"Mobile Uploads","link":"http:\/\/www.facebook.com\/album.php?fbid=2184105200754&id=1190700063&aid=2127060","cover_photo":"10200456217026557","count":242,"type":"mobile","created_time":"2011-07-18T02:34:59+0000","updated_time":"2013-02-15T16:11:14+0000","can_upload":false},{"id":"2853104325314","from":{"name":"Jackie Schoonover","id":"1190700063"},"name":"Cover Photos","link":"http:\/\/www.facebook.com\/album.php?fbid=2853104325314&id=1190700063&aid=2145722","cover_photo":"4856008156658","count":8,"type":"normal","created_time":"2012-01-03T02:07:21+0000","updated_time":"2012-12-01T07:53:21+0000","can_upload":false},{"id":"4178625182507","from":{"name":"Jackie Schoonover","id":"1190700063"},"name":"Instagram Photos","link":"http:\/\/www.facebook.com\/album.php?fbid=4178625182507&id=1190700063&aid=2167409","cover_photo":"4561861283170","count":3,"type":"app","created_time":"2012-07-07T02:52:47+0000","updated_time":"2012-10-01T21:34:26+0000","can_upload":false},{"id":"1634353097295","from":{"name":"Jackie Schoonover","id":"1190700063"},"name":"Our son Remington. :)","link":"http:\/\/www.facebook.com\/album.php?fbid=1634353097295&id=1190700063&aid=2090049","cover_photo":"1634353537306","count":82,"type":"normal","created_time":"2010-10-22T02:49:42+0000","updated_time":"2012-04-25T22:44:38+0000","can_upload":false,"likes":{"data":[{"id":"503818555","name":"Derek Livingston"},{"id":"100001298643465","name":"Dee Hinman"},{"id":"577275085","name":"Haylee Madl"},{"id":"709365246","name":"Kayla L. Barbour"},{"id":"100001417661968","name":"Berta Harlow"},{"id":"512031780","name":"Kaitlen Seaboldt"},{"id":"669493961","name":"Joyce Jackson"},{"id":"502220901","name":"Lauren R. Larson"},{"id":"510970788","name":"Ivorie Lopez"}],"paging":{"next":"https:\/\/graph.facebook.com\/1634353097295\/likes?access_token=AAACEdEose0cBAJW1StQUSMiKXKbxIni7CK836T2At8W8kZCLPPwZBdiZBS1ZBxiqDKiwhwPF6kLZCRwFccO1RHe1DhodHWddCIjG2TuWXucuHQL4JF96S&limit=25&offset=25&__after_id=510970788"}},"comments":{"data":[{"id":"1634353097295_1134881","from":{"name":"Lauren R. Larson","id":"502220901"},"message":"You need to get a recent pic of your belly on here!!! :)","can_remove":false,"created_time":"2010-12-27T23:42:29+0000","like_count":0,"user_likes":false},{"id":"1634353097295_1259143","from":{"name":"Kayla L. Barbour","id":"709365246"},"message":"you just need to re name the album.... the many AWESOME faces of Remington. :)","can_remove":false,"created_time":"2011-02-11T21:11:50+0000","like_count":4,"user_likes":false},{"id":"1634353097295_1713042","from":{"name":"Kaitlen Seaboldt","id":"512031780"},"message":"Cute","can_remove":false,"created_time":"2011-04-12T23:59:52+0000","like_count":0,"user_likes":false},{"id":"1634353097295_1714022","from":{"name":"Shawna Harlow Schoonover","id":"522624446"},"message":"get one where i can see his face good to save and print silly","can_remove":false,"created_time":"2011-04-13T01:58:39+0000","like_count":0,"user_likes":false},{"id":"1634353097295_1714035","from":{"name":"Shawna Harlow Schoonover","id":"522624446"},"message":"in the french outfits !!!!!!!","can_remove":false,"created_time":"2011-04-13T01:59:44+0000","like_count":1,"user_likes":false},{"id":"1634353097295_2064892","from":{"name":"Gabby L Hawkins","id":"100000078763808"},"message":"He is so cute","can_remove":false,"created_time":"2011-05-26T22:07:32+0000","like_count":0,"user_likes":false},{"id":"1634353097295_2070926","from":{"name":"Roxsanna Cooper Stephenson","id":"504674061"},"message":"He is to cute...","can_remove":false,"created_time":"2011-05-27T15:55:09+0000","like_count":0,"user_likes":false},{"id":"1634353097295_2598726","from":{"name":"Melinda Rosano Smith","id":"679634197"},"message":"WHAT A HANDSOME BABY BOY!!!!","can_remove":false,"created_time":"2011-08-01T18:08:44+0000","like_count":0,"user_likes":false}],"paging":{"next":"https:\/\/graph.facebook.com\/1634353097295\/comments?access_token=AAACEdEose0cBAJW1StQUSMiKXKbxIni7CK836T2At8W8kZCLPPwZBdiZBS1ZBxiqDKiwhwPF6kLZCRwFccO1RHe1DhodHWddCIjG2TuWXucuHQL4JF96S&limit=25&offset=25&__after_id=1634353097295_2598726"}}},{"id":"1811031154136","from":{"name":"Jackie Schoonover","id":"1190700063"},"name":"Mobile Uploads","description":"Mobile Uploads","location":"US","link":"http:\/\/www.facebook.com\/album.php?fbid=1811031154136&id=1190700063&aid=2104167","cover_photo":"1811032474169","count":25,"type":"normal","created_time":"2011-02-07T23:34:30+0000","updated_time":"2011-09-03T21:36:47+0000","can_upload":false},{"id":"2175501025655","from":{"name":"Jackie Schoonover","id":"1190700063"},"name":"Summer '11","link":"http:\/\/www.facebook.com\/album.php?fbid=2175501025655&id=1190700063&aid=2126692","cover_photo":"2175501425665","count":46,"type":"normal","created_time":"2011-07-15T00:39:34+0000","updated_time":"2011-08-12T04:21:16+0000","can_upload":false,"likes":{"data":[{"id":"100001425863878","name":"Tristan Remy"}],"paging":{"next":"https:\/\/graph.facebook.com\/2175501025655\/likes?access_token=AAACEdEose0cBAJW1StQUSMiKXKbxIni7CK836T2At8W8kZCLPPwZBdiZBS1ZBxiqDKiwhwPF6kLZCRwFccO1RHe1DhodHWddCIjG2TuWXucuHQL4JF96S&limit=25&offset=25&__after_id=100001425863878"}}},{"id":"2175496945553","from":{"name":"Jackie Schoonover","id":"1190700063"},"name":"July 4, 2011","link":"http:\/\/www.facebook.com\/album.php?fbid=2175496945553&id=1190700063&aid=2126691","cover_photo":"2175488785349","count":22,"type":"normal","created_time":"2011-07-15T00:36:28+0000","updated_time":"2011-07-15T01:27:29+0000","can_upload":false,"likes":{"data":[{"id":"679634197","name":"Melinda Rosano Smith"},{"id":"100001417661968","name":"Berta Harlow"}],"paging":{"next":"https:\/\/graph.facebook.com\/2175496945553\/likes?access_token=AAACEdEose0cBAJW1StQUSMiKXKbxIni7CK836T2At8W8kZCLPPwZBdiZBS1ZBxiqDKiwhwPF6kLZCRwFccO1RHe1DhodHWddCIjG2TuWXucuHQL4JF96S&limit=25&offset=25&__after_id=100001417661968"}}},{"id":"1975062294812","from":{"name":"Jackie Schoonover","id":"1190700063"},"name":"Mobile Uploads","link":"http:\/\/www.facebook.com\/album.php?fbid=1975062294812&id=1190700063&aid=2117439","cover_photo":"1975062334813","count":72,"type":"normal","created_time":"2011-04-29T14:46:48+0000","updated_time":"2011-07-15T00:38:07+0000","can_upload":false,"likes":{"data":[{"id":"679634197","name":"Melinda Rosano Smith"}],"paging":{"next":"https:\/\/graph.facebook.com\/1975062294812\/likes?access_token=AAACEdEose0cBAJW1StQUSMiKXKbxIni7CK836T2At8W8kZCLPPwZBdiZBS1ZBxiqDKiwhwPF6kLZCRwFccO1RHe1DhodHWddCIjG2TuWXucuHQL4JF96S&limit=25&offset=25&__after_id=679634197"}}},{"id":"1625216428884","from":{"name":"Jackie Schoonover","id":"1190700063"},"name":"Our Life \u003C3 4\/6\/10","description":"Mobile Uploads","location":"US","link":"http:\/\/www.facebook.com\/album.php?fbid=1625216428884&id=1190700063&aid=2089399","cover_photo":"1697504276035","count":56,"type":"normal","created_time":"2010-10-16T03:12:02+0000","updated_time":"2012-12-01T07:21:43+0000","can_upload":false,"likes":{"data":[{"id":"669493961","name":"Joyce Jackson"},{"id":"521090779","name":"Julie Alexander"},{"id":"512031780","name":"Kaitlen Seaboldt"},{"id":"508296556","name":"Autumn Todman"},{"id":"510970788","name":"Ivorie Lopez"}],"paging":{"next":"https:\/\/graph.facebook.com\/1625216428884\/likes?access_token=AAACEdEose0cBAJW1StQUSMiKXKbxIni7CK836T2At8W8kZCLPPwZBdiZBS1ZBxiqDKiwhwPF6kLZCRwFccO1RHe1DhodHWddCIjG2TuWXucuHQL4JF96S&limit=25&offset=25&__after_id=510970788"}},"comments":{"data":[{"id":"1625216428884_941726","from":{"name":"Dee Hinman","id":"100001298643465"},"message":"Ur beautiful momma!! ;)","can_remove":false,"created_time":"2010-10-19T20:47:09+0000","like_count":0,"user_likes":false},{"id":"1625216428884_941727","from":{"name":"Dee Hinman","id":"100001298643465"},"message":"I wanna see pics of that belly!","can_remove":false,"created_time":"2010-10-19T20:47:23+0000","like_count":1,"user_likes":false},{"id":"1625216428884_950593","from":{"name":"Drew James York","id":"1426154337"},"message":"GORGOUS","can_remove":false,"created_time":"2010-10-22T17:02:14+0000","like_count":0,"user_likes":false},{"id":"1625216428884_1585936","from":{"name":"Kayla L. Barbour","id":"709365246"},"message":"why naked? idk if thats ok on fb...","can_remove":false,"created_time":"2011-03-28T16:14:57+0000","like_count":0,"user_likes":false},{"id":"1625216428884_1774544","from":{"name":"Misty Montoya","id":"1079328000"},"message":"He's so cute!!","can_remove":false,"created_time":"2011-04-20T20:39:25+0000","like_count":0,"user_likes":false}],"paging":{"next":"https:\/\/graph.facebook.com\/1625216428884\/comments?access_token=AAACEdEose0cBAJW1StQUSMiKXKbxIni7CK836T2At8W8kZCLPPwZBdiZBS1ZBxiqDKiwhwPF6kLZCRwFccO1RHe1DhodHWddCIjG2TuWXucuHQL4JF96S&limit=25&offset=25&__after_id=1625216428884_1774544"}}},{"id":"1848628094036","from":{"name":"Jackie Schoonover","id":"1190700063"},"name":"March 2, 2011","link":"http:\/\/www.facebook.com\/album.php?fbid=1848628094036&id=1190700063&aid=2106984","cover_photo":"1848628134037","count":1,"type":"normal","created_time":"2011-03-03T01:39:05+0000","updated_time":"2011-03-03T01:39:29+0000","can_upload":false},{"id":"1772158702349","from":{"name":"Jackie Schoonover","id":"1190700063"},"name":"Remi's Arrival \u003C3","link":"http:\/\/www.facebook.com\/album.php?fbid=1772158702349&id=1190700063&aid=2100931","cover_photo":"1772160142385","count":29,"type":"normal","created_time":"2011-01-12T17:59:47+0000","updated_time":"2011-02-06T01:58:48+0000","can_upload":false,"likes":{"data":[{"id":"669493961","name":"Joyce Jackson"}],"paging":{"next":"https:\/\/graph.facebook.com\/1772158702349\/likes?access_token=AAACEdEose0cBAJW1StQUSMiKXKbxIni7CK836T2At8W8kZCLPPwZBdiZBS1ZBxiqDKiwhwPF6kLZCRwFccO1RHe1DhodHWddCIjG2TuWXucuHQL4JF96S&limit=25&offset=25&__after_id=669493961"}},"comments":{"data":[{"id":"1772158702349_1177930","from":{"name":"Joyce Jackson","id":"669493961"},"message":"thanks for sharing the pictures. They are so cute and beautiful and Congrats, Jackie and Drew! and all Christopher's family, too!!","can_remove":false,"created_time":"2011-01-12T18:21:21+0000","like_count":0,"user_likes":false}],"paging":{"next":"https:\/\/graph.facebook.com\/1772158702349\/comments?access_token=AAACEdEose0cBAJW1StQUSMiKXKbxIni7CK836T2At8W8kZCLPPwZBdiZBS1ZBxiqDKiwhwPF6kLZCRwFccO1RHe1DhodHWddCIjG2TuWXucuHQL4JF96S&limit=25&offset=25&__after_id=1772158702349_1177930"}}},{"id":"1725874545274","from":{"name":"Jackie Schoonover","id":"1190700063"},"name":"Timeline Photos","link":"http:\/\/www.facebook.com\/album.php?fbid=1725874545274&id=1190700063&aid=2097224","cover_photo":"1743921916447","count":8,"type":"wall","created_time":"2010-12-21T20:01:33+0000","updated_time":"2013-01-11T19:54:38+0000","can_upload":false},{"id":"1703233819270","from":{"name":"Jackie Schoonover","id":"1190700063"},"name":"The Baby Shower. :D","link":"http:\/\/www.facebook.com\/album.php?fbid=1703233819270&id=1190700063&aid=2095124","cover_photo":"1703234579289","count":9,"type":"normal","created_time":"2010-12-06T02:57:34+0000","updated_time":"2010-12-06T03:03:39+0000","can_upload":false,"likes":{"data":[{"id":"669493961","name":"Joyce Jackson"}],"paging":{"next":"https:\/\/graph.facebook.com\/1703233819270\/likes?access_token=AAACEdEose0cBAJW1StQUSMiKXKbxIni7CK836T2At8W8kZCLPPwZBdiZBS1ZBxiqDKiwhwPF6kLZCRwFccO1RHe1DhodHWddCIjG2TuWXucuHQL4JF96S&limit=25&offset=25&__after_id=669493961"}},"comments":{"data":[{"id":"1703233819270_1080355","from":{"name":"Joyce Jackson","id":"669493961"},"message":"cute and glad your mom did very excellant job for you! I am sure Chris was so pleased, too! I love all of you, too!","can_remove":false,"created_time":"2010-12-06T03:17:17+0000","like_count":0,"user_likes":false}],"paging":{"next":"https:\/\/graph.facebook.com\/1703233819270\/comments?access_token=AAACEdEose0cBAJW1StQUSMiKXKbxIni7CK836T2At8W8kZCLPPwZBdiZBS1ZBxiqDKiwhwPF6kLZCRwFccO1RHe1DhodHWddCIjG2TuWXucuHQL4JF96S&limit=25&offset=25&__after_id=1703233819270_1080355"}}}]}