{"data":[{"id":"1415275585079","from":{"name":"Antonija Vukelja","id":"1328261315"},"name":"Profile Pictures","link":"http:\/\/www.facebook.com\/album.php?fbid=1415275585079&id=1328261315&aid=2058255","cover_photo":"4344858502821","count":89,"type":"profile","created_time":"2010-09-05T19:26:41+0000","updated_time":"2013-01-27T18:30:34+0000","can_upload":false},{"id":"2678499404885","from":{"name":"Antonija Vukelja","id":"1328261315"},"name":"Mobile Uploads","link":"http:\/\/www.facebook.com\/album.php?fbid=2678499404885&id=1328261315&aid=2122600","cover_photo":"4344755100236","count":51,"type":"mobile","created_time":"2012-02-06T15:02:32+0000","updated_time":"2013-02-21T18:46:31+0000","can_upload":false},{"id":"3397623622541","from":{"name":"Antonija Vukelja","id":"1328261315"},"name":"i tako mi u tudjini....","link":"http:\/\/www.facebook.com\/album.php?fbid=3397623622541&id=1328261315&aid=2136996","cover_photo":"3397658103403","count":31,"type":"normal","created_time":"2012-06-17T18:18:59+0000","updated_time":"2012-06-17T18:39:11+0000","can_upload":false,"likes":{"data":[{"id":"100003864430524","name":"Lara Pokrajac"},{"id":"1220955654","name":"Mirjana Juri\u0107"},{"id":"100001836871330","name":"Ruzica Vidovic"},{"id":"1548183366","name":"Nikolina Lugonja"},{"id":"1280374536","name":"Ivka Trupina"},{"id":"100001028557661","name":"Ruzica Dramac Basic"},{"id":"100000728723419","name":"Jelena Brtan"},{"id":"1080127795","name":"Anita Any Matekalo"},{"id":"100003024165338","name":"Jelena Pejazi\u0107 Krpeta"},{"id":"100000877681602","name":"Marijana Duji\u0107"},{"id":"100000902842789","name":"Josipa Marjanovic Pecic"},{"id":"100001440184670","name":"Bilandzija Katarina"},{"id":"100001387682746","name":"Ana Jeli\u010di\u0107-Jake\u0161evi\u0107"},{"id":"1576210639","name":"Katarina-Dejan Bogic"}],"paging":{"next":"https:\/\/graph.facebook.com\/3397623622541\/likes?access_token=AAACEdEose0cBANxi7k8QsMaWuZCjlezhxCbI9yI8Xhzp5VUPUjvnraUZAiKZCVeQQwGmM7P4RjdOfrm4ou6L1oBLZAereSMJeZARVYmju7ZAnNOt5Qfh1n&limit=25&offset=25&__after_id=1576210639"}},"comments":{"data":[{"id":"3397623622541_3339476","from":{"name":"Jelena Pejazi\u0107 Krpeta","id":"100003024165338"},"message":"ba\u0161 vam je lo\u0161e ..... :)))))","can_remove":false,"created_time":"2012-06-17T21:29:43+0000","like_count":0,"user_likes":false},{"id":"3397623622541_3459559","from":{"name":"Antonija Vukelja","id":"1328261315"},"message":"Jesi vidila moja ti,hehe!!!","can_remove":false,"created_time":"2012-07-19T23:50:48+0000","like_count":0,"user_likes":false}],"paging":{"next":"https:\/\/graph.facebook.com\/3397623622541\/comments?access_token=AAACEdEose0cBANxi7k8QsMaWuZCjlezhxCbI9yI8Xhzp5VUPUjvnraUZAiKZCVeQQwGmM7P4RjdOfrm4ou6L1oBLZAereSMJeZARVYmju7ZAnNOt5Qfh1n&limit=25&offset=25&__after_id=3397623622541_3459559"}}},{"id":"3297158750982","from":{"name":"Antonija Vukelja","id":"1328261315"},"name":"Untitled Album","link":"http:\/\/www.facebook.com\/album.php?fbid=3297158750982&id=1328261315&aid=2134876","cover_photo":"3297159030989","count":134,"type":"normal","created_time":"2012-05-25T11:05:17+0000","updated_time":"2013-03-04T12:14:53+0000","can_upload":false,"likes":{"data":[{"id":"1045505440","name":"Magdalena \u0160trkalj"},{"id":"100001781799218","name":"Pajdasica Pilepece"},{"id":"1805638471","name":"Bozana Jozic"},{"id":"1724901765","name":"Suzana Mijatovi\u0107"},{"id":"100001440184670","name":"Bilandzija Katarina"},{"id":"1576210639","name":"Katarina-Dejan Bogic"},{"id":"100001337432710","name":"Vesna Biland\u017eija"},{"id":"100003024165338","name":"Jelena Pejazi\u0107 Krpeta"},{"id":"100000754542800","name":"Dragana Cosic"},{"id":"1840170354","name":"Tijana Vujko"},{"id":"1615137157","name":"Biland\u017eija Dragana"}],"paging":{"next":"https:\/\/graph.facebook.com\/3297158750982\/likes?access_token=AAACEdEose0cBANxi7k8QsMaWuZCjlezhxCbI9yI8Xhzp5VUPUjvnraUZAiKZCVeQQwGmM7P4RjdOfrm4ou6L1oBLZAereSMJeZARVYmju7ZAnNOt5Qfh1n&limit=25&offset=25&__after_id=1615137157"}}},{"id":"1488527216324","from":{"name":"Antonija Vukelja","id":"1328261315"},"name":".. moja djecica i ja,i jos ponesto....","link":"http:\/\/www.facebook.com\/album.php?fbid=1488527216324&id=1328261315&aid=2069966","cover_photo":"1536509055840","count":116,"type":"normal","created_time":"2010-11-08T16:20:05+0000","updated_time":"2012-05-25T10:37:03+0000","can_upload":false,"likes":{"data":[{"id":"100001028557661","name":"Ruzica Dramac Basic"},{"id":"100002491008548","name":"Darijo Strkalj"},{"id":"100001238840055","name":"Frano Tokic"},{"id":"1815533811","name":"Julija Basic"},{"id":"100003303581244","name":"Darijo \u0106osi\u0107"},{"id":"100000764456412","name":"Azra Dajic-Haseljic"},{"id":"100000331888021","name":"Juliana Dodig"},{"id":"100000393859647","name":"Sandra Cviti\u0107"},{"id":"1194357054","name":"Josip Brtan"},{"id":"100000985917945","name":"Marijo Braco \u0106osi\u0107"},{"id":"100002660918753","name":"Ankica Jurisic-Cosic"},{"id":"100000877681602","name":"Marijana Duji\u0107"},{"id":"100002237001469","name":"Brankica \u0106eli\u0107"},{"id":"1112693669","name":"Lada Pokrajac"},{"id":"100001387682746","name":"Ana Jeli\u010di\u0107-Jake\u0161evi\u0107"},{"id":"100002402167745","name":"Renata Vukelja"},{"id":"100002883391406","name":"Seka Seka"},{"id":"1840170354","name":"Tijana Vujko"},{"id":"100001454041749","name":"Magdalena Parlov"},{"id":"1280374536","name":"Ivka Trupina"},{"id":"1576234729","name":"Ana-Ankica Ladan"},{"id":"1381148787","name":"Branka \u010cavar"},{"id":"100000500187572","name":"Dzenana Pori\u010danin Mujak"},{"id":"1502702414","name":"Marija Jakesevic"},{"id":"1052240735","name":"Denijan Bla\u017ei\u0107 Deni"}],"paging":{"next":"https:\/\/graph.facebook.com\/1488527216324\/likes?access_token=AAACEdEose0cBANxi7k8QsMaWuZCjlezhxCbI9yI8Xhzp5VUPUjvnraUZAiKZCVeQQwGmM7P4RjdOfrm4ou6L1oBLZAereSMJeZARVYmju7ZAnNOt5Qfh1n&limit=25&offset=25&__after_id=1052240735"}},"comments":{"data":[{"id":"1488527216324_657604","from":{"name":"Biland\u017eija Dragana","id":"1615137157"},"message":"Falli netko... Ema!!!?","can_remove":false,"created_time":"2010-11-08T18:05:37+0000","like_count":0,"user_likes":false},{"id":"1488527216324_657607","from":{"name":"Antonija Vukelja","id":"1328261315"},"message":"evo je stize hehe...","can_remove":false,"created_time":"2010-11-08T18:06:45+0000","like_count":1,"user_likes":false},{"id":"1488527216324_657611","from":{"name":"Biland\u017eija Dragana","id":"1615137157"},"message":"Gdje ces onako lijepo dijete zaboravit staviti..\nncncn tebe :)","can_remove":false,"created_time":"2010-11-08T18:07:45+0000","like_count":0,"user_likes":false},{"id":"1488527216324_657617","from":{"name":"Antonija Vukelja","id":"1328261315"},"message":"ma nisam je zaboravila samo nisamstigla prije staviti hehe...","can_remove":false,"created_time":"2010-11-08T18:10:05+0000","like_count":0,"user_likes":false},{"id":"1488527216324_657620","from":{"name":"Biland\u017eija Dragana","id":"1615137157"},"message":"Ma super su svi...ali Ema je Ema...kako tebi s njima sad 4.","can_remove":false,"created_time":"2010-11-08T18:10:59+0000","like_count":0,"user_likes":false},{"id":"1488527216324_657625","from":{"name":"Antonija Vukelja","id":"1328261315"},"message":"hehe mos zamislit,ko u vrticu...al i mima bude samnom nisam sama...","can_remove":false,"created_time":"2010-11-08T18:13:56+0000","like_count":0,"user_likes":false},{"id":"1488527216324_657627","from":{"name":"Biland\u017eija Dragana","id":"1615137157"},"message":"Aha onda ti je malo bolje..kad dolazis ovamo..","can_remove":false,"created_time":"2010-11-08T18:15:12+0000","like_count":0,"user_likes":false},{"id":"1488527216324_657631","from":{"name":"Antonija Vukelja","id":"1328261315"},"message":"ma odlicno je..a neznam jos kad cu tamo kad mognem...","can_remove":false,"created_time":"2010-11-08T18:17:59+0000","like_count":1,"user_likes":false}],"paging":{"next":"https:\/\/graph.facebook.com\/1488527216324\/comments?access_token=AAACEdEose0cBANxi7k8QsMaWuZCjlezhxCbI9yI8Xhzp5VUPUjvnraUZAiKZCVeQQwGmM7P4RjdOfrm4ou6L1oBLZAereSMJeZARVYmju7ZAnNOt5Qfh1n&limit=25&offset=25&__after_id=1488527216324_657631"}}},{"id":"1878850414160","from":{"name":"Antonija Vukelja","id":"1328261315"},"name":"ja i draga na jezercetu....","link":"http:\/\/www.facebook.com\/album.php?fbid=1878850414160&id=1328261315&aid=2099379","cover_photo":"1878862214455","count":28,"type":"normal","created_time":"2011-06-29T16:54:40+0000","updated_time":"2012-03-30T16:11:09+0000","can_upload":false,"likes":{"data":[{"id":"100001950788383","name":"Maja Bo\u017ei\u0107"},{"id":"100000754542800","name":"Dragana Cosic"}],"paging":{"next":"https:\/\/graph.facebook.com\/1878850414160\/likes?access_token=AAACEdEose0cBANxi7k8QsMaWuZCjlezhxCbI9yI8Xhzp5VUPUjvnraUZAiKZCVeQQwGmM7P4RjdOfrm4ou6L1oBLZAereSMJeZARVYmju7ZAnNOt5Qfh1n&limit=25&offset=25&__after_id=100000754542800"}}},{"id":"2751359026330","from":{"name":"Antonija Vukelja","id":"1328261315"},"name":"Cover Photos","link":"http:\/\/www.facebook.com\/album.php?fbid=2751359026330&id=1328261315&aid=2123803","cover_photo":"2771432368151","count":5,"type":"normal","created_time":"2012-02-17T19:23:54+0000","updated_time":"2012-02-20T18:45:40+0000","can_upload":false},{"id":"1999449229055","from":{"name":"Antonija Vukelja","id":"1328261315"},"name":"anitina svadba","location":"carevo polje - jajce ","link":"http:\/\/www.facebook.com\/album.php?fbid=1999449229055&id=1328261315&aid=2105319","cover_photo":"1999449269056","count":16,"type":"normal","created_time":"2011-08-29T07:48:17+0000","updated_time":"2012-02-19T11:19:21+0000","can_upload":false,"likes":{"data":[{"id":"100000877681602","name":"Marijana Duji\u0107"},{"id":"1548183366","name":"Nikolina Lugonja"},{"id":"1657989110","name":"Nikolina Ladan"},{"id":"1135677277","name":"Radoslav Tokic"},{"id":"100000754542800","name":"Dragana Cosic"},{"id":"1576210639","name":"Katarina-Dejan Bogic"},{"id":"1365703297","name":"Monika Brki\u0107"},{"id":"1566472810","name":"Ana Leovac"},{"id":"100001843608368","name":"Luca Jaki\u0107 Jakesevic"},{"id":"100001028557661","name":"Ruzica Dramac Basic"},{"id":"100000985917945","name":"Marijo Braco \u0106osi\u0107"},{"id":"1091300756","name":"Marina Mare Brtan"}],"paging":{"next":"https:\/\/graph.facebook.com\/1999449229055\/likes?access_token=AAACEdEose0cBANxi7k8QsMaWuZCjlezhxCbI9yI8Xhzp5VUPUjvnraUZAiKZCVeQQwGmM7P4RjdOfrm4ou6L1oBLZAereSMJeZARVYmju7ZAnNOt5Qfh1n&limit=25&offset=25&__after_id=1091300756"}}},{"id":"1908293390216","from":{"name":"Antonija Vukelja","id":"1328261315"},"name":"15. srpanj 2011 jezero i mi","link":"http:\/\/www.facebook.com\/album.php?fbid=1908293390216&id=1328261315&aid=2101021","cover_photo":"1908293710224","count":19,"type":"normal","created_time":"2011-07-15T15:51:43+0000","updated_time":"2011-07-18T17:40:38+0000","can_upload":false,"likes":{"data":[{"id":"100002106182377","name":"Marinko Trupina"},{"id":"1576210639","name":"Katarina-Dejan Bogic"}],"paging":{"next":"https:\/\/graph.facebook.com\/1908293390216\/likes?access_token=AAACEdEose0cBANxi7k8QsMaWuZCjlezhxCbI9yI8Xhzp5VUPUjvnraUZAiKZCVeQQwGmM7P4RjdOfrm4ou6L1oBLZAereSMJeZARVYmju7ZAnNOt5Qfh1n&limit=25&offset=25&__after_id=1576210639"}}},{"id":"1786915955856","from":{"name":"Antonija Vukelja","id":"1328261315"},"name":"malo dru\u0161tva i malo vi\u0161e mene:)))","link":"http:\/\/www.facebook.com\/album.php?fbid=1786915955856&id=1328261315&aid=2095741","cover_photo":"1786916035858","count":50,"type":"normal","created_time":"2011-05-28T08:55:10+0000","updated_time":"2012-01-26T11:32:32+0000","can_upload":false,"likes":{"data":[{"id":"1724901765","name":"Suzana Mijatovi\u0107"},{"id":"100002106182377","name":"Marinko Trupina"},{"id":"1615137157","name":"Biland\u017eija Dragana"}],"paging":{"next":"https:\/\/graph.facebook.com\/1786915955856\/likes?access_token=AAACEdEose0cBANxi7k8QsMaWuZCjlezhxCbI9yI8Xhzp5VUPUjvnraUZAiKZCVeQQwGmM7P4RjdOfrm4ou6L1oBLZAereSMJeZARVYmju7ZAnNOt5Qfh1n&limit=25&offset=25&__after_id=1615137157"}}},{"id":"1786900195462","from":{"name":"Antonija Vukelja","id":"1328261315"},"name":"kr\u0161tenje 07.05.2011.","link":"http:\/\/www.facebook.com\/album.php?fbid=1786900195462&id=1328261315&aid=2095740","cover_photo":"1786900315465","count":46,"type":"normal","created_time":"2011-05-28T08:45:41+0000","updated_time":"2011-05-28T08:52:40+0000","can_upload":false,"likes":{"data":[{"id":"1576210639","name":"Katarina-Dejan Bogic"}],"paging":{"next":"https:\/\/graph.facebook.com\/1786900195462\/likes?access_token=AAACEdEose0cBANxi7k8QsMaWuZCjlezhxCbI9yI8Xhzp5VUPUjvnraUZAiKZCVeQQwGmM7P4RjdOfrm4ou6L1oBLZAereSMJeZARVYmju7ZAnNOt5Qfh1n&limit=25&offset=25&__after_id=1576210639"}}},{"id":"1085723226476","from":{"name":"Antonija Vukelja","id":"1328261315"},"name":"mix","link":"http:\/\/www.facebook.com\/album.php?fbid=1085723226476&id=1328261315&aid=2014292","cover_photo":"1085735666787","count":46,"type":"normal","created_time":"2009-05-21T12:00:12+0000","updated_time":"2011-03-25T10:58:58+0000","can_upload":false},{"id":"1043522731490","from":{"name":"Antonija Vukelja","id":"1328261315"},"name":"sva\u0161ta ne\u0161to.....","link":"http:\/\/www.facebook.com\/album.php?fbid=1043522731490&id=1328261315&aid=2009444","cover_photo":"1043523171501","count":19,"type":"normal","created_time":"2009-03-02T11:42:25+0000","updated_time":"2010-11-13T22:00:00+0000","can_upload":false},{"id":"1053461419951","from":{"name":"Antonija Vukelja","id":"1328261315"},"name":".........Livno........22.03.09..........","link":"http:\/\/www.facebook.com\/album.php?fbid=1053461419951&id=1328261315&aid=2011152","cover_photo":"1053462299973","count":16,"type":"normal","created_time":"2009-03-27T10:47:11+0000","updated_time":"2010-11-13T21:59:47+0000","can_upload":false,"comments":{"data":[{"id":"1053461419951_6525","from":{"name":"Nikolina Lugonja","id":"1548183366"},"message":"super su dobro si ispala na njima","can_remove":false,"created_time":"2009-04-03T13:13:11+0000","like_count":0,"user_likes":false},{"id":"1053461419951_6526","from":{"name":"Nikolina Lugonja","id":"1548183366"},"message":"lijepo si ispala a sad odo kuci","can_remove":false,"created_time":"2009-04-03T13:15:22+0000","like_count":0,"user_likes":false}],"paging":{"next":"https:\/\/graph.facebook.com\/1053461419951\/comments?access_token=AAACEdEose0cBANxi7k8QsMaWuZCjlezhxCbI9yI8Xhzp5VUPUjvnraUZAiKZCVeQQwGmM7P4RjdOfrm4ou6L1oBLZAereSMJeZARVYmju7ZAnNOt5Qfh1n&limit=25&offset=25&__after_id=1053461419951_6526"}}},{"id":"1064267810104","from":{"name":"Antonija Vukelja","id":"1328261315"},"name":"ne\u0161to.......","link":"http:\/\/www.facebook.com\/album.php?fbid=1064267810104&id=1328261315&aid=2011330","cover_photo":"1064268650125","count":13,"type":"normal","created_time":"2009-03-30T11:13:54+0000","updated_time":"2010-11-13T21:59:35+0000","can_upload":false},{"id":"1102209878632","from":{"name":"Antonija Vukelja","id":"1328261315"},"name":"svadba,svadba i jo\u0161 pone\u0161to..............","link":"http:\/\/www.facebook.com\/album.php?fbid=1102209878632&id=1328261315&aid=2016764","cover_photo":"1102212398695","count":116,"type":"normal","created_time":"2009-07-02T13:22:54+0000","updated_time":"2010-11-13T21:57:36+0000","can_upload":false},{"id":"1314385142881","from":{"name":"Antonija Vukelja","id":"1328261315"},"name":"ja i mi","link":"http:\/\/www.facebook.com\/album.php?fbid=1314385142881&id=1328261315&aid=2043252","cover_photo":"1314379462739","count":30,"type":"normal","created_time":"2010-05-14T13:40:03+0000","updated_time":"2010-11-13T21:58:02+0000","can_upload":false},{"id":"1363002678289","from":{"name":"Antonija Vukelja","id":"1328261315"},"name":"ja i draga u svijetu \u0161e\u0161ira......ahahah","link":"http:\/\/www.facebook.com\/album.php?fbid=1363002678289&id=1328261315&aid=2048625","cover_photo":"1363008238428","count":20,"type":"normal","created_time":"2010-07-11T14:48:11+0000","updated_time":"2010-11-13T21:58:20+0000","can_upload":false},{"id":"1313710886025","from":{"name":"Antonija Vukelja","id":"1328261315"},"name":"ja,ja i samo ja","link":"http:\/\/www.facebook.com\/album.php?fbid=1313710886025&id=1328261315&aid=2043205","cover_photo":"1313714286110","count":19,"type":"normal","created_time":"2010-05-13T17:40:39+0000","updated_time":"2010-11-13T21:58:36+0000","can_upload":false},{"id":"1312702980828","from":{"name":"Antonija Vukelja","id":"1328261315"},"name":"Zadar 2010","link":"http:\/\/www.facebook.com\/album.php?fbid=1312702980828&id=1328261315&aid=2043139","cover_photo":"1312707780948","count":23,"type":"normal","created_time":"2010-05-12T15:56:15+0000","updated_time":"2010-11-13T21:58:50+0000","can_upload":false},{"id":"1299165562401","from":{"name":"Antonija Vukelja","id":"1328261315"},"name":"dragana i ja...","link":"http:\/\/www.facebook.com\/album.php?fbid=1299165562401&id=1328261315&aid=2041983","cover_photo":"1299166362421","count":17,"type":"normal","created_time":"2010-04-27T13:55:59+0000","updated_time":"2010-11-13T21:59:07+0000","can_upload":false,"likes":{"data":[{"id":"1176613267","name":"Glava\u0161 Marko-"},{"id":"1080127795","name":"Anita Any Matekalo"}],"paging":{"next":"https:\/\/graph.facebook.com\/1299165562401\/likes?access_token=AAACEdEose0cBANxi7k8QsMaWuZCjlezhxCbI9yI8Xhzp5VUPUjvnraUZAiKZCVeQQwGmM7P4RjdOfrm4ou6L1oBLZAereSMJeZARVYmju7ZAnNOt5Qfh1n&limit=25&offset=25&__after_id=1080127795"}},"comments":{"data":[{"id":"1299165562401_324929","from":{"name":"Davor Ladan","id":"100000490890262"},"message":"ljepsi je draganin sesir...","can_remove":false,"created_time":"2010-04-28T19:27:09+0000","like_count":0,"user_likes":false},{"id":"1299165562401_326893","from":{"name":"Dijana-didy Zunic","id":"100000462123721"},"message":"nenee davorrr od mojeee rodiceeee antonijeee","can_remove":false,"created_time":"2010-04-30T10:50:50+0000","like_count":0,"user_likes":false},{"id":"1299165562401_327432","from":{"name":"Antonija Vukelja","id":"1328261315"},"message":"da se nesvadjate to je jedan te isti \u0161e\u0161ir ahahaha...:-)))))))","can_remove":false,"created_time":"2010-04-30T19:43:08+0000","like_count":0,"user_likes":false},{"id":"1299165562401_327884","from":{"name":"Dijana-didy Zunic","id":"100000462123721"},"message":"ja se ne sva\u0111ammmm samo sto se daworrr nestooo folirammmm misliii sta jeeeee........","can_remove":false,"created_time":"2010-05-01T05:26:02+0000","like_count":0,"user_likes":false},{"id":"1299165562401_328042","from":{"name":"Davor Ladan","id":"100000490890262"},"message":"naravno da je od dragane ljepsi,pa i vidis sama....","can_remove":false,"created_time":"2010-05-01T09:14:12+0000","like_count":0,"user_likes":false},{"id":"1299165562401_328184","from":{"name":"Dijana-didy Zunic","id":"100000462123721"},"message":"jojjj daworr jako se mutissss mogu ti reciii da mi se dragana aa pogotovo ti ne svicassss da ti kazemm nekkk se obadve lepooo skockajuuu pa da vidisss koja ce biti ljepsaaa a ti cesss izgubitiiiii.....","can_remove":false,"created_time":"2010-05-01T12:50:11+0000","like_count":0,"user_likes":false},{"id":"1299165562401_328505","from":{"name":"Davor Ladan","id":"100000490890262"},"message":"sto je je nesvidjas se ni ti meni nimalo,a ljepota je prolazna,vazno je kakav si iznutra kao osoba....","can_remove":false,"created_time":"2010-05-01T19:15:18+0000","like_count":0,"user_likes":false},{"id":"1299165562401_328967","from":{"name":"Dijana-didy Zunic","id":"100000462123721"},"message":"hahaahahahahahahah ni malooo sta je davoreee sta bi se ti svaco .......","can_remove":false,"created_time":"2010-05-02T06:48:28+0000","like_count":0,"user_likes":false},{"id":"1299165562401_329140","from":{"name":"Davor Ladan","id":"100000490890262"},"message":"ja samo kazem onako kako je,sto bi se svadjo","can_remove":false,"created_time":"2010-05-02T10:40:39+0000","like_count":0,"user_likes":false},{"id":"1299165562401_329766","from":{"name":"Antonija Vukelja","id":"1328261315"},"message":"a ja vas dvoje cccc,mislim no koment stvarno,naravno da je svakom ljep\u0161e ono \u0161to je ne\u010dije,,nemoj te se vi\u0161e ovako svadjat haloooo...","can_remove":false,"created_time":"2010-05-02T20:38:45+0000","like_count":0,"user_likes":false},{"id":"1299165562401_329812","from":{"name":"Dijana-didy Zunic","id":"100000462123721"},"message":"eejjj njemu je krivo mozda sto sammm ja njemu rekla da si ti ljepsa od draganeee i to je istinaaa da si ti ljepsa od njeeee .....","can_remove":false,"created_time":"2010-05-02T21:20:11+0000","like_count":0,"user_likes":false},{"id":"1299165562401_331098","from":{"name":"Davor Ladan","id":"100000490890262"},"message":"e bas nije dragana je ljepsa i od tebe i od te tvoje rodice....da znas,,,,","can_remove":false,"created_time":"2010-05-03T19:53:07+0000","like_count":0,"user_likes":false},{"id":"1299165562401_331216","from":{"name":"Dijana-didy Zunic","id":"100000462123721"},"message":"hahhahha davor jako se mutisss ja sam naravno naljepasa i naravno i moja rodicaaaa pa kako ti je ljepa vodi je sebiiiiii","can_remove":false,"created_time":"2010-05-03T21:07:46+0000","like_count":0,"user_likes":false}],"paging":{"next":"https:\/\/graph.facebook.com\/1299165562401\/comments?access_token=AAACEdEose0cBANxi7k8QsMaWuZCjlezhxCbI9yI8Xhzp5VUPUjvnraUZAiKZCVeQQwGmM7P4RjdOfrm4ou6L1oBLZAereSMJeZARVYmju7ZAnNOt5Qfh1n&limit=25&offset=25&__after_id=1299165562401_331216"}}},{"id":"1092588518104","from":{"name":"Antonija Vukelja","id":"1328261315"},"name":"Zadar, Biograd, Split..............","link":"http:\/\/www.facebook.com\/album.php?fbid=1092588518104&id=1328261315&aid=2015338","cover_photo":"1092591038167","count":43,"type":"normal","created_time":"2009-06-09T11:31:23+0000","updated_time":"2010-11-13T21:59:21+0000","can_upload":false,"likes":{"data":[{"id":"1391467705","name":"Mario Juri\u0107"}],"paging":{"next":"https:\/\/graph.facebook.com\/1092588518104\/likes?access_token=AAACEdEose0cBANxi7k8QsMaWuZCjlezhxCbI9yI8Xhzp5VUPUjvnraUZAiKZCVeQQwGmM7P4RjdOfrm4ou6L1oBLZAereSMJeZARVYmju7ZAnNOt5Qfh1n&limit=25&offset=25&__after_id=1391467705"}}}]}