{"data":[{"id":"2389634104302","from":{"name":"Jamila Aisha Llewelyn","id":"1354343675"},"name":"Mobile Uploads","link":"http:\/\/www.facebook.com\/album.php?fbid=2389634104302&id=1354343675&aid=2141068","cover_photo":"10200577521304542","count":129,"type":"mobile","created_time":"2011-08-16T03:18:20+0000","updated_time":"2013-01-21T00:56:39+0000","can_upload":false},{"id":"4423539310661","from":{"name":"Jamila Aisha Llewelyn","id":"1354343675"},"name":"Timeline Photos","link":"http:\/\/www.facebook.com\/album.php?fbid=4423539310661&id=1354343675&aid=2183336","cover_photo":"4979755095708","count":3,"type":"wall","created_time":"2012-07-06T01:02:30+0000","updated_time":"2012-10-23T07:48:55+0000","can_upload":false},{"id":"4953636682764","from":{"name":"Jamila Aisha Llewelyn","id":"1354343675"},"name":"Star Events Promotions","link":"http:\/\/www.facebook.com\/album.php?fbid=4953636682764&id=1354343675&aid=2196281","cover_photo":"4953636762766","count":1,"type":"normal","created_time":"2012-10-18T07:38:25+0000","updated_time":"2012-10-18T07:41:17+0000","can_upload":false,"likes":{"data":[{"id":"100002404623760","name":"Tiger Male"},{"id":"1139507406","name":"Edwin Lugo Jr."}],"paging":{"next":"https:\/\/graph.facebook.com\/4953636682764\/likes?access_token=AAACEdEose0cBAMYosNuQgnCMBhgO4meNR3qH1cjXNhenSu6GRD6HiTa20OCYdbn297Lf2pZALjodgovOYrfZB0K5KvL0ONYoSHKuOldxmnwN01tZBh8&limit=25&offset=25&__after_id=1139507406"}}},{"id":"1628601718968","from":{"name":"Jamila Aisha Llewelyn","id":"1354343675"},"name":"Profile Pictures","link":"http:\/\/www.facebook.com\/album.php?fbid=1628601718968&id=1354343675&aid=2087170","cover_photo":"4953629882594","count":20,"type":"profile","created_time":"2010-09-03T20:57:39+0000","updated_time":"2012-10-18T07:34:12+0000","can_upload":false},{"id":"4943406267010","from":{"name":"Jamila Aisha Llewelyn","id":"1354343675"},"name":"South Beach Pre-Party: Powered by Star Events Promotions","link":"http:\/\/www.facebook.com\/album.php?fbid=4943406267010&id=1354343675&aid=2196119","cover_photo":"4943406307011","count":73,"type":"normal","created_time":"2012-10-16T09:28:25+0000","updated_time":"2012-10-16T09:36:17+0000","can_upload":false,"likes":{"data":[{"id":"100003154518899","name":"Andra Aston"},{"id":"100001155008754","name":"NanydeeJay Skillz"}],"paging":{"next":"https:\/\/graph.facebook.com\/4943406267010\/likes?access_token=AAACEdEose0cBAMYosNuQgnCMBhgO4meNR3qH1cjXNhenSu6GRD6HiTa20OCYdbn297Lf2pZALjodgovOYrfZB0K5KvL0ONYoSHKuOldxmnwN01tZBh8&limit=25&offset=25&__after_id=100001155008754"}}},{"id":"4943324104956","from":{"name":"Jamila Aisha Llewelyn","id":"1354343675"},"name":"South Beach Pre-Party Powered by Star Events Promotions 10\/4\/12","location":"South Beach","place":{"id":"308827102562955","name":"South Beach","location":{"street":"Lincoln Rd","city":"Miami Beach","state":"FL","country":"United States","zip":"","latitude":25.787896063567,"longitude":-80.131567810507}},"link":"http:\/\/www.facebook.com\/album.php?fbid=4943324104956&id=1354343675&aid=2196117","cover_photo":"4943324264960","count":42,"type":"normal","created_time":"2012-10-16T08:46:28+0000","updated_time":"2012-11-14T23:08:53+0000","can_upload":false,"likes":{"data":[{"id":"100001155008754","name":"NanydeeJay Skillz"}],"paging":{"next":"https:\/\/graph.facebook.com\/4943324104956\/likes?access_token=AAACEdEose0cBAMYosNuQgnCMBhgO4meNR3qH1cjXNhenSu6GRD6HiTa20OCYdbn297Lf2pZALjodgovOYrfZB0K5KvL0ONYoSHKuOldxmnwN01tZBh8&limit=25&offset=25&__after_id=100001155008754"}}},{"id":"4943268023554","from":{"name":"Jamila Aisha Llewelyn","id":"1354343675"},"name":"Taste of South Beach 9\/29\/2012","description":"Taste of South Beach: South Beach Group Powered by Star Events Promotions","location":"South Beach","place":{"id":"308827102562955","name":"South Beach","location":{"street":"Lincoln Rd","city":"Miami Beach","state":"FL","country":"United States","zip":"","latitude":25.787896063567,"longitude":-80.131567810507}},"link":"http:\/\/www.facebook.com\/album.php?fbid=4943268023554&id=1354343675&aid=2196113","cover_photo":"4943268383563","count":60,"type":"normal","created_time":"2012-10-16T08:24:19+0000","updated_time":"2012-10-16T08:55:23+0000","can_upload":false},{"id":"4579866498743","from":{"name":"Jamila Aisha Llewelyn","id":"1354343675"},"name":"Instagram Photos","link":"http:\/\/www.facebook.com\/album.php?fbid=4579866498743&id=1354343675&aid=2186764","cover_photo":"4580045823226","count":3,"type":"app","created_time":"2012-08-05T15:34:24+0000","updated_time":"2012-08-05T16:11:01+0000","can_upload":false},{"id":"1116978088697","from":{"name":"Jamila Aisha Llewelyn","id":"1354343675"},"name":"Mobile Uploads","link":"http:\/\/www.facebook.com\/album.php?fbid=1116978088697&id=1354343675&aid=2019631","cover_photo":"1308147947824","count":38,"type":"normal","created_time":"2009-03-23T21:33:43+0000","updated_time":"2012-06-17T06:23:52+0000","can_upload":false,"likes":{"data":[{"id":"1271216278","name":"Rebecca Ann"},{"id":"1387271105","name":"Petra Modry"},{"id":"777886623","name":"Carla Drakes-Hamlett"}],"paging":{"next":"https:\/\/graph.facebook.com\/1116978088697\/likes?access_token=AAACEdEose0cBAMYosNuQgnCMBhgO4meNR3qH1cjXNhenSu6GRD6HiTa20OCYdbn297Lf2pZALjodgovOYrfZB0K5KvL0ONYoSHKuOldxmnwN01tZBh8&limit=25&offset=25&__after_id=777886623"}},"comments":{"data":[{"id":"1116978088697_503675","from":{"name":"Carla Llewelyn-Vasquez","id":"1256917137"},"message":"NRA member???","can_remove":false,"created_time":"2010-04-03T19:08:03+0000","like_count":0,"user_likes":false},{"id":"1116978088697_503681","from":{"name":"Carla Llewelyn-Vasquez","id":"1256917137"},"message":"Get those bad guys!","can_remove":false,"created_time":"2010-04-03T19:08:39+0000","like_count":0,"user_likes":false},{"id":"1116978088697_503722","from":{"name":"Jamila Aisha Llewelyn","id":"1354343675"},"message":"Lol Aunt Carla how are you?","can_remove":false,"created_time":"2010-04-03T19:31:05+0000","like_count":0,"user_likes":false}],"paging":{"cursors":{"after":"Mw==","before":"MQ=="},"next":"https:\/\/graph.facebook.com\/1116978088697\/comments?access_token=AAACEdEose0cBAMYosNuQgnCMBhgO4meNR3qH1cjXNhenSu6GRD6HiTa20OCYdbn297Lf2pZALjodgovOYrfZB0K5KvL0ONYoSHKuOldxmnwN01tZBh8&limit=25&after=Mw\u00253D\u00253D"}}},{"id":"3957814347828","from":{"name":"Jamila Aisha Llewelyn","id":"1354343675"},"name":"2012 =)~","link":"http:\/\/www.facebook.com\/album.php?fbid=3957814347828&id=1354343675&aid=2175191","cover_photo":"3957816867891","count":16,"type":"normal","created_time":"2012-04-28T15:58:14+0000","updated_time":"2012-05-21T20:56:48+0000","can_upload":false,"likes":{"data":[{"id":"563797677","name":"Rickey Wilcox"},{"id":"768140100","name":"Willie Johnson"},{"id":"733129312","name":"Donna Marie Martinson"},{"id":"100000321743364","name":"J\u00fcrgen Wiedmann"},{"id":"659489879","name":"Jose Sifontes"},{"id":"1405354921","name":"Guillermo Billy Parada"},{"id":"1271216278","name":"Rebecca Ann"},{"id":"584582631","name":"Marc Cleon Mallet"},{"id":"1139507406","name":"Edwin Lugo Jr."},{"id":"100002183085867","name":"Anjo Rosario"},{"id":"554166808","name":"Melissa Archbold"},{"id":"1031320887","name":"Adym Christopher"},{"id":"777886623","name":"Carla Drakes-Hamlett"}],"paging":{"next":"https:\/\/graph.facebook.com\/3957814347828\/likes?access_token=AAACEdEose0cBAMYosNuQgnCMBhgO4meNR3qH1cjXNhenSu6GRD6HiTa20OCYdbn297Lf2pZALjodgovOYrfZB0K5KvL0ONYoSHKuOldxmnwN01tZBh8&limit=25&offset=25&__after_id=777886623"}},"comments":{"data":[{"id":"3957814347828_4932577","from":{"name":"Jules Blues","id":"1519593818"},"message":"Stunning","can_remove":false,"created_time":"2012-04-28T21:19:34+0000","like_count":0,"user_likes":false},{"id":"3957814347828_5061384","from":{"name":"Adym Christopher","id":"1031320887"},"message":"That's you? Your whip?","can_remove":false,"created_time":"2012-05-21T22:01:45+0000","like_count":0,"user_likes":false},{"id":"3957814347828_5063252","from":{"name":"Jamila Aisha Llewelyn","id":"1354343675"},"message":"I wish...I was just admiring some fine piece of machinery...","can_remove":false,"created_time":"2012-05-22T03:58:01+0000","like_count":0,"user_likes":false},{"id":"3957814347828_5064540","from":{"name":"Dre Pelz","id":"824852718"},"message":"You know your machinery well...","can_remove":false,"created_time":"2012-05-22T13:12:26+0000","like_count":0,"user_likes":false},{"id":"3957814347828_5068253","from":{"name":"Jamila Aisha Llewelyn","id":"1354343675"},"message":"I sure do...Daddy's little girl...grew up going to the car shows and looking at cars... ","can_remove":false,"created_time":"2012-05-23T03:03:52+0000","like_count":0,"user_likes":false}],"paging":{"cursors":{"after":"NQ==","before":"MQ=="},"next":"https:\/\/graph.facebook.com\/3957814347828\/comments?access_token=AAACEdEose0cBAMYosNuQgnCMBhgO4meNR3qH1cjXNhenSu6GRD6HiTa20OCYdbn297Lf2pZALjodgovOYrfZB0K5KvL0ONYoSHKuOldxmnwN01tZBh8&limit=25&after=NQ\u00253D\u00253D"}}},{"id":"4062061833950","from":{"name":"Jamila Aisha Llewelyn","id":"1354343675"},"name":"Art...2012","link":"http:\/\/www.facebook.com\/album.php?fbid=4062061833950&id=1354343675&aid=2176457","cover_photo":"4062551046180","count":14,"type":"normal","created_time":"2012-05-08T03:32:22+0000","updated_time":"2012-05-08T05:57:19+0000","can_upload":false,"likes":{"data":[{"id":"1344897717","name":"Meryanne Cardenas"}],"paging":{"next":"https:\/\/graph.facebook.com\/4062061833950\/likes?access_token=AAACEdEose0cBAMYosNuQgnCMBhgO4meNR3qH1cjXNhenSu6GRD6HiTa20OCYdbn297Lf2pZALjodgovOYrfZB0K5KvL0ONYoSHKuOldxmnwN01tZBh8&limit=25&offset=25&__after_id=1344897717"}}},{"id":"3296750021633","from":{"name":"Jamila Aisha Llewelyn","id":"1354343675"},"name":"Cover Photos","link":"http:\/\/www.facebook.com\/album.php?fbid=3296750021633&id=1354343675&aid=2162734","cover_photo":"3797172011870","count":3,"type":"normal","created_time":"2012-01-29T23:38:27+0000","updated_time":"2012-06-13T05:44:19+0000","can_upload":false},{"id":"1081114992142","from":{"name":"Jamila Aisha Llewelyn","id":"1354343675"},"name":"Holiday Fun 2007!!","location":"Downtown, Miami","link":"http:\/\/www.facebook.com\/album.php?fbid=1081114992142&id=1354343675&aid=2014235","cover_photo":"1081116072169","count":13,"type":"normal","created_time":"2009-01-17T05:00:36+0000","updated_time":"2011-08-03T22:21:08+0000","can_upload":false},{"id":"1081126912440","from":{"name":"Jamila Aisha Llewelyn","id":"1354343675"},"name":"2009 all fun & Smiles","location":"(Everywhere)","link":"http:\/\/www.facebook.com\/album.php?fbid=1081126912440&id=1354343675&aid=2014239","cover_photo":"1081127272449","count":7,"type":"normal","created_time":"2009-01-17T05:52:26+0000","updated_time":"2009-01-17T05:58:57+0000","can_upload":false},{"id":"1081122792337","from":{"name":"Jamila Aisha Llewelyn","id":"1354343675"},"name":"Random Pics 2008","link":"http:\/\/www.facebook.com\/album.php?fbid=1081122792337&id=1354343675&aid=2014237","cover_photo":"1081124192372","count":22,"type":"normal","created_time":"2009-01-17T05:32:09+0000","updated_time":"2009-01-17T05:44:26+0000","can_upload":false},{"id":"1081120032268","from":{"name":"Jamila Aisha Llewelyn","id":"1354343675"},"name":"B-Day 2008","location":"Miami Beach, FL","link":"http:\/\/www.facebook.com\/album.php?fbid=1081120032268&id=1354343675&aid=2014236","cover_photo":"1081121512305","count":26,"type":"normal","created_time":"2009-01-17T05:21:05+0000","updated_time":"2009-01-17T05:29:06+0000","can_upload":false},{"id":"1081107871964","from":{"name":"Jamila Aisha Llewelyn","id":"1354343675"},"name":"New York Trip 12\/26\/2007-01\/02\/2008","location":"New York, New York","link":"http:\/\/www.facebook.com\/album.php?fbid=1081107871964&id=1354343675&aid=2014231","cover_photo":"1081108631983","count":38,"type":"normal","created_time":"2009-01-17T04:35:56+0000","updated_time":"2009-01-17T05:17:01+0000","can_upload":false},{"id":"1081112752086","from":{"name":"Jamila Aisha Llewelyn","id":"1354343675"},"name":"My Pic's 2007","location":"Everywhere, Worldwide","link":"http:\/\/www.facebook.com\/album.php?fbid=1081112752086&id=1354343675&aid=2014233","cover_photo":"1081112912090","count":14,"type":"normal","created_time":"2009-01-17T04:51:14+0000","updated_time":"2009-01-17T04:57:14+0000","can_upload":false}],"paging":{"cursors":{"after":"MTA4MTExMjc1MjA4Ng==","before":"MjM4OTYzNDEwNDMwMg=="}}}