{"data":[{"id":"10200977987877864","from":{"name":"Aneta Chepinska","id":"1411562823"},"name":"Untitled Album","link":"http:\/\/www.facebook.com\/album.php?fbid=10200977987877864&id=1411562823&aid=1073741830","cover_photo":"10200977988357876","count":1,"type":"normal","created_time":"2013-04-03T01:25:27+0000","updated_time":"2013-04-03T01:25:39+0000","can_upload":false},{"id":"1566366965046","from":{"name":"Aneta Chepinska","id":"1411562823"},"name":"Profile Pictures","link":"http:\/\/www.facebook.com\/album.php?fbid=1566366965046&id=1411562823&aid=75033","cover_photo":"10200964242934249","count":50,"type":"profile","created_time":"2010-09-02T20:10:11+0000","updated_time":"2013-03-31T23:10:38+0000","can_upload":false},{"id":"10200963471514964","from":{"name":"Aneta Chepinska","id":"1411562823"},"name":"Untitled Album","link":"http:\/\/www.facebook.com\/album.php?fbid=10200963471514964&id=1411562823&aid=1073741828","cover_photo":"10200963472594991","count":6,"type":"normal","created_time":"2013-03-31T21:44:50+0000","updated_time":"2013-03-31T23:08:46+0000","can_upload":false,"likes":{"data":[{"id":"100005591760709","name":"Rachid Chakir"},{"id":"100001798415281","name":"Jenny Alvero"},{"id":"100003571412624","name":"Jadwiga R\u00f3\u017cycka"},{"id":"1011049791","name":"Nicholas EnVisage"},{"id":"647702119","name":"Hamet Peralta"},{"id":"100000184622506","name":"Nidhal Bouali"},{"id":"100001632564508","name":"Luis Guajardo"},{"id":"561810714","name":"Rajeah Wilson"},{"id":"100005157457995","name":"Roshanebiz Technologiess"},{"id":"738199047","name":"Luis Labadie"},{"id":"607487352","name":"Thierry L Khalfa"},{"id":"100001276471140","name":"\u0410\u0448\u043e\u0442 \u0421\u0430\u043c\u0441\u043e\u043d\u044f\u043d"},{"id":"100004149452297","name":"Hugo Rosas"},{"id":"519848271","name":"Catalina Dallos"}],"paging":{"next":"https:\/\/graph.facebook.com\/10200963471514964\/likes?access_token=AAACEdEose0cBAJwErCNmIPZA6el8rxxyY5ULyI6xBIzYxuyekLKT4jiLPBr1teydoTPlSXlbBEkmB07tIO62Pi4QqIsy3oMtz1ihC5OyZAvdarWSZBe&limit=25&offset=25&__after_id=519848271"}}},{"id":"10200963667759870","from":{"name":"Aneta Chepinska","id":"1411562823"},"name":"Untitled Album","link":"http:\/\/www.facebook.com\/album.php?fbid=10200963667759870&id=1411562823&aid=1073741829","type":"normal","created_time":"2013-03-31T22:14:12+0000","updated_time":"2013-03-31T22:15:22+0000","can_upload":false},{"id":"10200963258509639","from":{"name":"Aneta Chepinska","id":"1411562823"},"name":"Untitled Album","link":"http:\/\/www.facebook.com\/album.php?fbid=10200963258509639&id=1411562823&aid=1073741827","cover_photo":"10200963260029677","count":1,"type":"normal","created_time":"2013-03-31T21:33:59+0000","updated_time":"2013-03-31T21:34:14+0000","can_upload":false},{"id":"10200880326996403","from":{"name":"Aneta Chepinska","id":"1411562823"},"name":"Jamaica 03 14 1939","link":"http:\/\/www.facebook.com\/album.php?fbid=10200880326996403&id=1411562823&aid=1073741825","cover_photo":"10200880327156407","count":12,"type":"normal","created_time":"2013-03-16T22:51:56+0000","updated_time":"2013-03-19T03:28:29+0000","can_upload":false,"likes":{"data":[{"id":"1439109017","name":"Tony Fakiri"},{"id":"1018717611","name":"Tina Devous"},{"id":"721291534","name":"Tania M Haws"},{"id":"100005511607756","name":"Andr\u00e9 Sousa"},{"id":"100003929993302","name":"John C Riley"},{"id":"100001084514831","name":"Russ Staup"},{"id":"100005195172205","name":"Paul Richard"},{"id":"100000618038653","name":"Mor Yarime"},{"id":"100000883452705","name":"Maikel Luis"},{"id":"100005454609202","name":"Bazgha Hayat"},{"id":"1268495560","name":"Luciano Foradini"},{"id":"1847020362","name":"Raul Rodriguez"},{"id":"100004623522822","name":"Hanc Hancock"},{"id":"1460783121","name":"Stephan Quenehen"},{"id":"159000702","name":"Tony Foradini Campos"},{"id":"100005457753997","name":"Jorge Penafiel"},{"id":"597043065","name":"Raquel Levy"},{"id":"100003528328126","name":"Elena  Moon"},{"id":"100004766521116","name":"Jara Clark"},{"id":"100000493432682","name":"Bakhodir-Boris Tillayev"},{"id":"596863579","name":"Henry Melgarejo"},{"id":"577602779","name":"Anetka Ke"},{"id":"100000654024329","name":"Seva Sevan"},{"id":"1243295140","name":"Rene Alkarim"},{"id":"100003518755789","name":"Ernesto Matamoros"}],"paging":{"next":"https:\/\/graph.facebook.com\/10200880326996403\/likes?access_token=AAACEdEose0cBAJwErCNmIPZA6el8rxxyY5ULyI6xBIzYxuyekLKT4jiLPBr1teydoTPlSXlbBEkmB07tIO62Pi4QqIsy3oMtz1ihC5OyZAvdarWSZBe&limit=25&offset=25&__after_id=100003518755789"}},"comments":{"data":[{"id":"10200880326996403_6057966","from":{"name":"Egyptianbarbie Indie","id":"1159467298"},"message":"\u2665","can_remove":false,"created_time":"2013-03-16T22:54:38+0000","like_count":0,"user_likes":false},{"id":"10200880326996403_6057975","from":{"name":"Chris Theddy","id":"100005319666288"},"message":"picture of perfection straight to a million dollar smiles your attraction is my complexion","can_remove":false,"created_time":"2013-03-16T22:57:35+0000","like_count":0,"user_likes":false},{"id":"10200880326996403_6058681","from":{"name":"Aneta Chepinska","id":"1411562823"},"message":"Thank you","can_remove":false,"created_time":"2013-03-17T03:40:01+0000","like_count":0,"user_likes":false},{"id":"10200880326996403_6060145","from":{"name":"Bakhodir-Boris Tillayev","id":"100000493432682"},"message":"Beauty and Sexy Lady!!! Wish you happy day!!!","can_remove":false,"created_time":"2013-03-17T15:55:43+0000","like_count":1,"user_likes":false},{"id":"10200880326996403_6066286","from":{"name":"Jadwiga R\u00f3\u017cycka","id":"100003571412624"},"message":"tylko uwa\u017caj , tam na pewno g\u0142\u0119boko !!!","can_remove":false,"created_time":"2013-03-19T09:45:48+0000","like_count":0,"user_likes":false},{"id":"10200880326996403_6066892","from":{"name":"Bazgha Hayat","id":"100005454609202"},"message":"looking nice","can_remove":false,"created_time":"2013-03-19T14:32:50+0000","like_count":1,"user_likes":false}],"paging":{"next":"https:\/\/graph.facebook.com\/10200880326996403\/comments?access_token=AAACEdEose0cBAJwErCNmIPZA6el8rxxyY5ULyI6xBIzYxuyekLKT4jiLPBr1teydoTPlSXlbBEkmB07tIO62Pi4QqIsy3oMtz1ihC5OyZAvdarWSZBe&limit=25&offset=25&__after_id=10200880326996403_6066892"}}},{"id":"3495359388651","from":{"name":"Aneta Chepinska","id":"1411562823"},"name":"Cover Photos","link":"http:\/\/www.facebook.com\/album.php?fbid=3495359388651&id=1411562823&aid=163650","cover_photo":"10200684802828421","count":38,"type":"normal","created_time":"2012-03-22T19:12:08+0000","updated_time":"2013-02-17T21:44:23+0000","can_upload":false,"likes":{"data":[{"id":"100001011996251","name":"Comby Pat Patrick"}],"paging":{"next":"https:\/\/graph.facebook.com\/3495359388651\/likes?access_token=AAACEdEose0cBAJwErCNmIPZA6el8rxxyY5ULyI6xBIzYxuyekLKT4jiLPBr1teydoTPlSXlbBEkmB07tIO62Pi4QqIsy3oMtz1ihC5OyZAvdarWSZBe&limit=25&offset=25&__after_id=100001011996251"}}},{"id":"1483726659090","from":{"name":"Aneta Chepinska","id":"1411562823"},"name":"Mobile Uploads","link":"http:\/\/www.facebook.com\/album.php?fbid=1483726659090&id=1411562823&aid=66218","cover_photo":"10200459980127994","count":82,"type":"mobile","created_time":"2010-06-27T15:23:01+0000","updated_time":"2013-02-01T15:10:46+0000","can_upload":false},{"id":"10200333944937193","from":{"name":"Aneta Chepinska","id":"1411562823"},"name":"Jamaica trip 01 04 2013","description":"Goldeneye island :)","link":"http:\/\/www.facebook.com\/album.php?fbid=10200333944937193&id=1411562823&aid=197614","cover_photo":"10200333950697337","count":9,"type":"normal","created_time":"2013-01-07T23:25:03+0000","updated_time":"2013-01-08T00:27:31+0000","can_upload":false,"likes":{"data":[{"id":"100003571412624","name":"Jadwiga R\u00f3\u017cycka"},{"id":"1460422343","name":"Karina Rodriguez"},{"id":"597043065","name":"Raquel Levy"},{"id":"596863579","name":"Henry Melgarejo"},{"id":"549063742","name":"Ketty Hinojosa de Rodriguez"},{"id":"783794609","name":"Hranto Danto"},{"id":"755653213","name":"Maria Fernandez-prada K"},{"id":"1117745712","name":"Ana Carolina Pagliaminuta"},{"id":"1018717611","name":"Tina Devous"},{"id":"746764555","name":"Diana Barcena"}],"paging":{"next":"https:\/\/graph.facebook.com\/10200333944937193\/likes?access_token=AAACEdEose0cBAJwErCNmIPZA6el8rxxyY5ULyI6xBIzYxuyekLKT4jiLPBr1teydoTPlSXlbBEkmB07tIO62Pi4QqIsy3oMtz1ihC5OyZAvdarWSZBe&limit=25&offset=25&__after_id=746764555"}},"comments":{"data":[{"id":"10200333944937193_5761755","from":{"name":"Stephen Narine","id":"100001024395720"},"message":"you love some \"yeah mon\"....still waiting for my facial","can_remove":false,"created_time":"2013-01-07T23:58:59+0000","like_count":0,"user_likes":false},{"id":"10200333944937193_5762658","from":{"name":"Aneta Chepinska","id":"1411562823"},"message":"im workin :)","can_remove":false,"created_time":"2013-01-08T02:26:10+0000","like_count":0,"user_likes":false},{"id":"10200333944937193_5763577","from":{"name":"Aneta Chepinska","id":"1411562823"},"message":"I love Jamaica and its next door lol","can_remove":false,"created_time":"2013-01-08T05:09:14+0000","like_count":0,"user_likes":false},{"id":"10200333944937193_5765676","from":{"name":"Raquel Levy","id":"597043065"},"message":"Beautiful.....","can_remove":false,"created_time":"2013-01-08T17:56:59+0000","like_count":0,"user_likes":false}],"paging":{"next":"https:\/\/graph.facebook.com\/10200333944937193\/comments?access_token=AAACEdEose0cBAJwErCNmIPZA6el8rxxyY5ULyI6xBIzYxuyekLKT4jiLPBr1teydoTPlSXlbBEkmB07tIO62Pi4QqIsy3oMtz1ihC5OyZAvdarWSZBe&limit=25&offset=25&__after_id=10200333944937193_5765676"}}},{"id":"10200316427659272","from":{"name":"Aneta Chepinska","id":"1411562823"},"name":"New Year party 2012\/2013","link":"http:\/\/www.facebook.com\/album.php?fbid=10200316427659272&id=1411562823&aid=197284","cover_photo":"10200316435299463","count":6,"type":"normal","created_time":"2013-01-04T20:45:05+0000","updated_time":"2013-01-04T20:47:14+0000","can_upload":false,"likes":{"data":[{"id":"597043065","name":"Raquel Levy"},{"id":"1117745712","name":"Ana Carolina Pagliaminuta"},{"id":"783794609","name":"Hranto Danto"},{"id":"100003571412624","name":"Jadwiga R\u00f3\u017cycka"},{"id":"597598368","name":"Mihaela Coprean"}],"paging":{"next":"https:\/\/graph.facebook.com\/10200316427659272\/likes?access_token=AAACEdEose0cBAJwErCNmIPZA6el8rxxyY5ULyI6xBIzYxuyekLKT4jiLPBr1teydoTPlSXlbBEkmB07tIO62Pi4QqIsy3oMtz1ihC5OyZAvdarWSZBe&limit=25&offset=25&__after_id=597598368"}}},{"id":"10200235011743925","from":{"name":"Aneta Chepinska","id":"1411562823"},"name":"Las Vegas","link":"http:\/\/www.facebook.com\/album.php?fbid=10200235011743925&id=1411562823&aid=195717","cover_photo":"10200235055225012","count":8,"type":"normal","created_time":"2012-12-22T21:17:16+0000","updated_time":"2012-12-22T21:28:50+0000","can_upload":false,"likes":{"data":[{"id":"100000493432682","name":"Bakhodir-Boris Tillayev"},{"id":"100003571412624","name":"Jadwiga R\u00f3\u017cycka"},{"id":"783794609","name":"Hranto Danto"},{"id":"755653213","name":"Maria Fernandez-prada K"}],"paging":{"next":"https:\/\/graph.facebook.com\/10200235011743925\/likes?access_token=AAACEdEose0cBAJwErCNmIPZA6el8rxxyY5ULyI6xBIzYxuyekLKT4jiLPBr1teydoTPlSXlbBEkmB07tIO62Pi4QqIsy3oMtz1ihC5OyZAvdarWSZBe&limit=25&offset=25&__after_id=755653213"}}},{"id":"4703474870783","from":{"name":"Aneta Chepinska","id":"1411562823"},"name":"Untitled Album","link":"http:\/\/www.facebook.com\/album.php?fbid=4703474870783&id=1411562823&aid=187207","cover_photo":"4703475390796","count":2,"type":"normal","created_time":"2012-09-30T16:58:46+0000","updated_time":"2012-09-30T17:01:12+0000","can_upload":false,"likes":{"data":[{"id":"721291534","name":"Tania M Haws"},{"id":"1167622222","name":"Jacquelyn Morgan"}],"paging":{"next":"https:\/\/graph.facebook.com\/4703474870783\/likes?access_token=AAACEdEose0cBAJwErCNmIPZA6el8rxxyY5ULyI6xBIzYxuyekLKT4jiLPBr1teydoTPlSXlbBEkmB07tIO62Pi4QqIsy3oMtz1ihC5OyZAvdarWSZBe&limit=25&offset=25&__after_id=1167622222"}},"comments":{"data":[{"id":"4703474870783_5275189","from":{"name":"Jacquelyn Morgan","id":"1167622222"},"message":"Kristoff is so adorable!! You look amazing too!","can_remove":false,"created_time":"2012-09-30T17:35:03+0000","like_count":0,"user_likes":false}],"paging":{"next":"https:\/\/graph.facebook.com\/4703474870783\/comments?access_token=AAACEdEose0cBAJwErCNmIPZA6el8rxxyY5ULyI6xBIzYxuyekLKT4jiLPBr1teydoTPlSXlbBEkmB07tIO62Pi4QqIsy3oMtz1ihC5OyZAvdarWSZBe&limit=25&offset=25&__after_id=4703474870783_5275189"}}},{"id":"4702986378571","from":{"name":"Aneta Chepinska","id":"1411562823"},"name":"Timeline Photos","link":"http:\/\/www.facebook.com\/album.php?fbid=4702986378571&id=1411562823&aid=187197","cover_photo":"4702986418572","count":1,"type":"wall","created_time":"2012-09-30T14:57:50+0000","updated_time":"2012-09-30T14:57:54+0000","can_upload":false},{"id":"4409836490007","from":{"name":"Aneta Chepinska","id":"1411562823"},"name":"JAMAICA 072012","description":"JAMAICA ,BDAY get a way..07262012","link":"http:\/\/www.facebook.com\/album.php?fbid=4409836490007&id=1411562823&aid=179168","cover_photo":"4409837130023","count":23,"type":"normal","created_time":"2012-07-30T16:37:40+0000","updated_time":"2012-07-30T17:06:33+0000","can_upload":false,"likes":{"data":[{"id":"597043065","name":"Raquel Levy"}],"paging":{"next":"https:\/\/graph.facebook.com\/4409836490007\/likes?access_token=AAACEdEose0cBAJwErCNmIPZA6el8rxxyY5ULyI6xBIzYxuyekLKT4jiLPBr1teydoTPlSXlbBEkmB07tIO62Pi4QqIsy3oMtz1ihC5OyZAvdarWSZBe&limit=25&offset=25&__after_id=597043065"}}},{"id":"4409815409480","from":{"name":"Aneta Chepinska","id":"1411562823"},"name":"Untitled Album","description":"JAMAICA \u003C BDAY get a way..07262012","link":"http:\/\/www.facebook.com\/album.php?fbid=4409815409480&id=1411562823&aid=179167","cover_photo":"4409815609485","count":1,"type":"normal","created_time":"2012-07-30T16:33:25+0000","updated_time":"2012-07-30T16:36:04+0000","can_upload":false,"likes":{"data":[{"id":"100001011996251","name":"Comby Pat Patrick"}],"paging":{"next":"https:\/\/graph.facebook.com\/4409815409480\/likes?access_token=AAACEdEose0cBAJwErCNmIPZA6el8rxxyY5ULyI6xBIzYxuyekLKT4jiLPBr1teydoTPlSXlbBEkmB07tIO62Pi4QqIsy3oMtz1ihC5OyZAvdarWSZBe&limit=25&offset=25&__after_id=100001011996251"}}},{"id":"4402369703342","from":{"name":"Aneta Chepinska","id":"1411562823"},"name":"DOLPHIN COVE,in Jamaica 07,26,2012","description":"The experience of a Life time!!","link":"http:\/\/www.facebook.com\/album.php?fbid=4402369703342&id=1411562823&aid=178951","cover_photo":"4402370023350","count":22,"type":"normal","created_time":"2012-07-28T22:39:30+0000","updated_time":"2012-07-29T00:33:51+0000","can_upload":false,"likes":{"data":[{"id":"1110319092","name":"Chana Caminero"}],"paging":{"next":"https:\/\/graph.facebook.com\/4402369703342\/likes?access_token=AAACEdEose0cBAJwErCNmIPZA6el8rxxyY5ULyI6xBIzYxuyekLKT4jiLPBr1teydoTPlSXlbBEkmB07tIO62Pi4QqIsy3oMtz1ihC5OyZAvdarWSZBe&limit=25&offset=25&__after_id=1110319092"}},"comments":{"data":[{"id":"4402369703342_4991670","from":{"name":"Aneta Chepinska","id":"1411562823"},"message":"i wanted bring one to miami!!!","can_remove":false,"created_time":"2012-07-30T17:17:48+0000","like_count":0,"user_likes":false}],"paging":{"next":"https:\/\/graph.facebook.com\/4402369703342\/comments?access_token=AAACEdEose0cBAJwErCNmIPZA6el8rxxyY5ULyI6xBIzYxuyekLKT4jiLPBr1teydoTPlSXlbBEkmB07tIO62Pi4QqIsy3oMtz1ihC5OyZAvdarWSZBe&limit=25&offset=25&__after_id=4402369703342_4991670"}}},{"id":"4388968728326","from":{"name":"Aneta Chepinska","id":"1411562823"},"name":"Untitled Album","link":"http:\/\/www.facebook.com\/album.php?fbid=4388968728326&id=1411562823&aid=178606","cover_photo":"4388969008333","count":2,"type":"normal","created_time":"2012-07-25T20:15:40+0000","updated_time":"2012-07-25T20:16:33+0000","can_upload":false,"likes":{"data":[{"id":"721291534","name":"Tania M Haws"},{"id":"549063742","name":"Ketty Hinojosa de Rodriguez"},{"id":"1018717611","name":"Tina Devous"},{"id":"1278361156","name":"Cynthia Vasconez"},{"id":"1115831742","name":"Beata W\u00f3jcik"},{"id":"700606577","name":"Felipe Bocangel"},{"id":"519848271","name":"Catalina Dallos"},{"id":"1110319092","name":"Chana Caminero"},{"id":"1224974984","name":"Jorge Ballerino"}],"paging":{"next":"https:\/\/graph.facebook.com\/4388968728326\/likes?access_token=AAACEdEose0cBAJwErCNmIPZA6el8rxxyY5ULyI6xBIzYxuyekLKT4jiLPBr1teydoTPlSXlbBEkmB07tIO62Pi4QqIsy3oMtz1ihC5OyZAvdarWSZBe&limit=25&offset=25&__after_id=1224974984"}}},{"id":"4369168033321","from":{"name":"Aneta Chepinska","id":"1411562823"},"name":"Untitled Album","description":"class of 2012 Steiner education group College Of Natrual Health Care","link":"http:\/\/www.facebook.com\/album.php?fbid=4369168033321&id=1411562823&aid=178075","cover_photo":"4369168673337","count":10,"type":"normal","created_time":"2012-07-21T03:08:08+0000","updated_time":"2012-07-22T21:16:06+0000","can_upload":false,"likes":{"data":[{"id":"1018717611","name":"Tina Devous"},{"id":"732935094","name":"Jackie Birmingham"},{"id":"540444649","name":"Dennis Carpenter"},{"id":"1110319092","name":"Chana Caminero"}],"paging":{"next":"https:\/\/graph.facebook.com\/4369168033321\/likes?access_token=AAACEdEose0cBAJwErCNmIPZA6el8rxxyY5ULyI6xBIzYxuyekLKT4jiLPBr1teydoTPlSXlbBEkmB07tIO62Pi4QqIsy3oMtz1ihC5OyZAvdarWSZBe&limit=25&offset=25&__after_id=1110319092"}}},{"id":"4148292151562","from":{"name":"Aneta Chepinska","id":"1411562823"},"name":"Untitled Album","link":"http:\/\/www.facebook.com\/album.php?fbid=4148292151562&id=1411562823&aid=175947","cover_photo":"4148299271740","count":2,"type":"normal","created_time":"2012-07-01T16:41:20+0000","updated_time":"2012-07-01T16:43:07+0000","can_upload":false,"likes":{"data":[{"id":"1018717611","name":"Tina Devous"},{"id":"540444649","name":"Dennis Carpenter"},{"id":"1110319092","name":"Chana Caminero"},{"id":"519848271","name":"Catalina Dallos"},{"id":"100000276472527","name":"Andr\u00e9ia David Leroux"}],"paging":{"next":"https:\/\/graph.facebook.com\/4148292151562\/likes?access_token=AAACEdEose0cBAJwErCNmIPZA6el8rxxyY5ULyI6xBIzYxuyekLKT4jiLPBr1teydoTPlSXlbBEkmB07tIO62Pi4QqIsy3oMtz1ihC5OyZAvdarWSZBe&limit=25&offset=25&__after_id=100000276472527"}},"comments":{"data":[{"id":"4148292151562_4856010","from":{"name":"Andr\u00e9ia David Leroux","id":"100000276472527"},"message":"Beautiful girls! ","can_remove":false,"created_time":"2012-07-01T17:05:06+0000","like_count":0,"user_likes":false},{"id":"4148292151562_4857562","from":{"name":"Aneta Chepinska","id":"1411562823"},"message":"you are my dear:)","can_remove":false,"created_time":"2012-07-01T21:57:06+0000","like_count":0,"user_likes":false}],"paging":{"next":"https:\/\/graph.facebook.com\/4148292151562\/comments?access_token=AAACEdEose0cBAJwErCNmIPZA6el8rxxyY5ULyI6xBIzYxuyekLKT4jiLPBr1teydoTPlSXlbBEkmB07tIO62Pi4QqIsy3oMtz1ihC5OyZAvdarWSZBe&limit=25&offset=25&__after_id=4148292151562_4857562"}}},{"id":"4116974048629","from":{"name":"Aneta Chepinska","id":"1411562823"},"name":"Untitled Album","link":"http:\/\/www.facebook.com\/album.php?fbid=4116974048629&id=1411562823&aid=175284","cover_photo":"4116974488640","count":3,"type":"normal","created_time":"2012-06-25T01:34:00+0000","updated_time":"2012-06-25T01:52:09+0000","can_upload":false,"likes":{"data":[{"id":"623390737","name":"Amrika Charran"},{"id":"553168495","name":"Leslie Vega"},{"id":"504102576","name":"Daniela Love"},{"id":"1589077799","name":"Courtney Adams"},{"id":"100000245687728","name":"Rosie Hernandez"}],"paging":{"next":"https:\/\/graph.facebook.com\/4116974048629\/likes?access_token=AAACEdEose0cBAJwErCNmIPZA6el8rxxyY5ULyI6xBIzYxuyekLKT4jiLPBr1teydoTPlSXlbBEkmB07tIO62Pi4QqIsy3oMtz1ihC5OyZAvdarWSZBe&limit=25&offset=25&__after_id=100000245687728"}}},{"id":"4076625239934","from":{"name":"Aneta Chepinska","id":"1411562823"},"name":"Untitled Album","link":"http:\/\/www.facebook.com\/album.php?fbid=4076625239934&id=1411562823&aid=174168","cover_photo":"4076625639944","count":4,"type":"normal","created_time":"2012-06-15T20:59:17+0000","updated_time":"2012-06-15T21:03:42+0000","can_upload":false,"likes":{"data":[{"id":"597043065","name":"Raquel Levy"},{"id":"1018717611","name":"Tina Devous"},{"id":"1261751305","name":"Yvonne Mirabal-Rankin"}],"paging":{"next":"https:\/\/graph.facebook.com\/4076625239934\/likes?access_token=AAACEdEose0cBAJwErCNmIPZA6el8rxxyY5ULyI6xBIzYxuyekLKT4jiLPBr1teydoTPlSXlbBEkmB07tIO62Pi4QqIsy3oMtz1ihC5OyZAvdarWSZBe&limit=25&offset=25&__after_id=1261751305"}}},{"id":"4009510722113","from":{"name":"Aneta Chepinska","id":"1411562823"},"name":"Untitled Album","link":"http:\/\/www.facebook.com\/album.php?fbid=4009510722113&id=1411562823&aid=172566","cover_photo":"4009511282127","count":5,"type":"normal","created_time":"2012-06-01T21:07:38+0000","updated_time":"2012-06-01T21:10:13+0000","can_upload":false},{"id":"3823386269118","from":{"name":"Aneta Chepinska","id":"1411562823"},"name":"ROME Italy","description":"BASILICA OF THE VATICAN PALACE","link":"http:\/\/www.facebook.com\/album.php?fbid=3823386269118&id=1411562823&aid=169259","cover_photo":"3823387069138","count":18,"type":"normal","created_time":"2012-05-05T15:05:55+0000","updated_time":"2012-05-25T15:03:15+0000","can_upload":false,"likes":{"data":[{"id":"100000276472527","name":"Andr\u00e9ia David Leroux"},{"id":"549063742","name":"Ketty Hinojosa de Rodriguez"},{"id":"100000245687728","name":"Rosie Hernandez"}],"paging":{"next":"https:\/\/graph.facebook.com\/3823386269118\/likes?access_token=AAACEdEose0cBAJwErCNmIPZA6el8rxxyY5ULyI6xBIzYxuyekLKT4jiLPBr1teydoTPlSXlbBEkmB07tIO62Pi4QqIsy3oMtz1ihC5OyZAvdarWSZBe&limit=25&offset=25&__after_id=100000245687728"}}},{"id":"3823408749680","from":{"name":"Aneta Chepinska","id":"1411562823"},"name":"ROME ITaly(Colosseum) may 2012","description":"ROME Italy(","link":"http:\/\/www.facebook.com\/album.php?fbid=3823408749680&id=1411562823&aid=169260","cover_photo":"3823411109739","count":26,"type":"normal","created_time":"2012-05-05T15:11:21+0000","updated_time":"2012-05-23T15:33:04+0000","can_upload":false,"likes":{"data":[{"id":"540444649","name":"Dennis Carpenter"},{"id":"683241528","name":"Maritza Paretti"},{"id":"1431378870","name":"Lissette Goennenwein"},{"id":"700606577","name":"Felipe Bocangel"},{"id":"100000245687728","name":"Rosie Hernandez"},{"id":"597598368","name":"Mihaela Coprean"}],"paging":{"next":"https:\/\/graph.facebook.com\/3823408749680\/likes?access_token=AAACEdEose0cBAJwErCNmIPZA6el8rxxyY5ULyI6xBIzYxuyekLKT4jiLPBr1teydoTPlSXlbBEkmB07tIO62Pi4QqIsy3oMtz1ihC5OyZAvdarWSZBe&limit=25&offset=25&__after_id=597598368"}},"comments":{"data":[{"id":"3823408749680_4680992","from":{"name":"Ketty Hinojosa de Rodriguez","id":"549063742"},"message":"Amazing place !!","can_remove":false,"created_time":"2012-05-26T18:22:33+0000","like_count":0,"user_likes":false}],"paging":{"next":"https:\/\/graph.facebook.com\/3823408749680\/comments?access_token=AAACEdEose0cBAJwErCNmIPZA6el8rxxyY5ULyI6xBIzYxuyekLKT4jiLPBr1teydoTPlSXlbBEkmB07tIO62Pi4QqIsy3oMtz1ihC5OyZAvdarWSZBe&limit=25&offset=25&__after_id=3823408749680_4680992"}}},{"id":"3856326772610","from":{"name":"Aneta Chepinska","id":"1411562823"},"name":"spain,2012,BARCELONA; MALAGA","description":"SPAIN,may 2012","link":"http:\/\/www.facebook.com\/album.php?fbid=3856326772610&id=1411562823&aid=169805","cover_photo":"3856328492653","count":24,"type":"normal","created_time":"2012-05-09T17:42:03+0000","updated_time":"2012-05-23T02:24:08+0000","can_upload":false,"likes":{"data":[{"id":"596863579","name":"Henry Melgarejo"},{"id":"683241528","name":"Maritza Paretti"},{"id":"1167622222","name":"Jacquelyn Morgan"},{"id":"1431378870","name":"Lissette Goennenwein"},{"id":"100000245687728","name":"Rosie Hernandez"}],"paging":{"next":"https:\/\/graph.facebook.com\/3856326772610\/likes?access_token=AAACEdEose0cBAJwErCNmIPZA6el8rxxyY5ULyI6xBIzYxuyekLKT4jiLPBr1teydoTPlSXlbBEkmB07tIO62Pi4QqIsy3oMtz1ihC5OyZAvdarWSZBe&limit=25&offset=25&__after_id=100000245687728"}},"comments":{"data":[{"id":"3856326772610_4680976","from":{"name":"Ketty Hinojosa de Rodriguez","id":"549063742"},"message":"Nice pics!!!beautiful places","can_remove":false,"created_time":"2012-05-26T18:18:44+0000","like_count":0,"user_likes":false}],"paging":{"next":"https:\/\/graph.facebook.com\/3856326772610\/comments?access_token=AAACEdEose0cBAJwErCNmIPZA6el8rxxyY5ULyI6xBIzYxuyekLKT4jiLPBr1teydoTPlSXlbBEkmB07tIO62Pi4QqIsy3oMtz1ihC5OyZAvdarWSZBe&limit=25&offset=25&__after_id=3856326772610_4680976"}}}],"paging":{"cursors":{"after":"Mzg1NjMyNjc3MjYxMA==","before":"MTAyMDA5Nzc5ODc4Nzc4NjQ="},"next":"https:\/\/graph.facebook.com\/1411562823\/albums?access_token=AAACEdEose0cBAJwErCNmIPZA6el8rxxyY5ULyI6xBIzYxuyekLKT4jiLPBr1teydoTPlSXlbBEkmB07tIO62Pi4QqIsy3oMtz1ihC5OyZAvdarWSZBe&limit=25&after=Mzg1NjMyNjc3MjYxMA\u00253D\u00253D"}}