{"data":[{"id":"3812452559926","from":{"name":"Square Rootz","id":"1535893037"},"name":"Cover Photos","link":"http:\/\/www.facebook.com\/album.php?fbid=3812452559926&id=1535893037&aid=163118","cover_photo":"10200541076399494","count":2,"type":"normal","created_time":"2012-05-13T03:41:56+0000","updated_time":"2013-03-05T14:26:06+0000","can_upload":false,"likes":{"data":[{"id":"100001622693855","name":"Louis-Yvonne De Bruin"}],"paging":{"next":"https:\/\/graph.facebook.com\/3812452559926\/likes?access_token=AAACEdEose0cBAMYosNuQgnCMBhgO4meNR3qH1cjXNhenSu6GRD6HiTa20OCYdbn297Lf2pZALjodgovOYrfZB0K5KvL0ONYoSHKuOldxmnwN01tZBh8&limit=25&offset=25&__after_id=100001622693855"}}},{"id":"1318668176875","from":{"name":"Square Rootz","id":"1535893037"},"name":"Timeline Photos","link":"http:\/\/www.facebook.com\/album.php?fbid=1318668176875&id=1535893037&aid=46942","cover_photo":"4828865689619","count":53,"type":"wall","created_time":"2010-01-29T04:02:18+0000","updated_time":"2012-12-07T03:23:04+0000","can_upload":false},{"id":"1595220290505","from":{"name":"Square Rootz","id":"1535893037"},"name":"Profile Pictures","link":"http:\/\/www.facebook.com\/album.php?fbid=1595220290505&id=1535893037&aid=79942","cover_photo":"4510956022076","count":51,"type":"profile","created_time":"2010-09-30T21:14:30+0000","updated_time":"2012-10-04T02:41:12+0000","can_upload":false},{"id":"3581019494244","from":{"name":"Square Rootz","id":"1535893037"},"name":"Exclusive Photos by Marilyn of the Sq.Rootz Fashion Show \u0040Club50","location":"Club 50","place":{"id":"135848043162055","name":"Club 50","location":{"street":"","city":"Miami","state":"FL","country":"United States","zip":"","latitude":25.74587,"longitude":-80.17576}},"link":"http:\/\/www.facebook.com\/album.php?fbid=3581019494244&id=1535893037&aid=159655","cover_photo":"3581020174261","count":14,"type":"normal","created_time":"2012-04-15T19:12:01+0000","updated_time":"2012-04-15T19:13:13+0000","can_upload":false,"likes":{"data":[{"id":"100001622693855","name":"Louis-Yvonne De Bruin"}],"paging":{"next":"https:\/\/graph.facebook.com\/3581019494244\/likes?access_token=AAACEdEose0cBAMYosNuQgnCMBhgO4meNR3qH1cjXNhenSu6GRD6HiTa20OCYdbn297Lf2pZALjodgovOYrfZB0K5KvL0ONYoSHKuOldxmnwN01tZBh8&limit=25&offset=25&__after_id=100001622693855"}}},{"id":"3572883610852","from":{"name":"Square Rootz","id":"1535893037"},"name":"Sq.Rootz Fashion Show \u0040Club50 \u0040Drinxafterwork 3\/30\/12","location":"Club 50","place":{"id":"135848043162055","name":"Club 50","location":{"street":"","city":"Miami","state":"FL","country":"United States","zip":"","latitude":25.74587,"longitude":-80.17576}},"link":"http:\/\/www.facebook.com\/album.php?fbid=3572883610852&id=1535893037&aid=159466","cover_photo":"3572883970861","count":28,"type":"normal","created_time":"2012-04-14T16:31:03+0000","updated_time":"2012-04-14T16:46:23+0000","can_upload":false,"likes":{"data":[{"id":"100001622693855","name":"Louis-Yvonne De Bruin"},{"id":"1534624506","name":"Marilyn Babs Barroso"},{"id":"744848357","name":"Najee Forbes"},{"id":"1601735323","name":"Judith Alvarez"},{"id":"100001506323716","name":"Oscar Marley"},{"id":"880485054","name":"Ivan Eric-Rudolph Linton Jr."}],"paging":{"next":"https:\/\/graph.facebook.com\/3572883610852\/likes?access_token=AAACEdEose0cBAMYosNuQgnCMBhgO4meNR3qH1cjXNhenSu6GRD6HiTa20OCYdbn297Lf2pZALjodgovOYrfZB0K5KvL0ONYoSHKuOldxmnwN01tZBh8&limit=25&offset=25&__after_id=880485054"}}},{"id":"2425222960053","from":{"name":"Square Rootz","id":"1535893037"},"name":"Square Rootz Clothing \u0040 Remedy All Inclusive","location":"Seminole Native Village","link":"http:\/\/www.facebook.com\/album.php?fbid=2425222960053&id=1535893037&aid=136387","cover_photo":"2425223120057","count":3,"type":"normal","created_time":"2011-10-12T05:50:38+0000","updated_time":"2011-10-12T05:51:16+0000","can_upload":false,"likes":{"data":[{"id":"100001622693855","name":"Louis-Yvonne De Bruin"}],"paging":{"next":"https:\/\/graph.facebook.com\/2425222960053\/likes?access_token=AAACEdEose0cBAMYosNuQgnCMBhgO4meNR3qH1cjXNhenSu6GRD6HiTa20OCYdbn297Lf2pZALjodgovOYrfZB0K5KvL0ONYoSHKuOldxmnwN01tZBh8&limit=25&offset=25&__after_id=100001622693855"}}},{"id":"2340238395492","from":{"name":"Square Rootz","id":"1535893037"},"name":"Square Rootz Clothing Anniversary X PGH Networking Event pt.4","location":"Downtown Miami","place":{"id":"109966029061566","name":"Downtown Miami","location":{"street":"301 North Biscayne Boulevard","city":"Miami","state":"FL","country":"United States","zip":"33132","latitude":25.776864516431,"longitude":-80.188684269902}},"link":"http:\/\/www.facebook.com\/album.php?fbid=2340238395492&id=1535893037&aid=133743","cover_photo":"2340238835503","count":163,"type":"normal","created_time":"2011-09-17T19:37:49+0000","updated_time":"2011-09-17T20:08:36+0000","can_upload":false,"likes":{"data":[{"id":"100001622693855","name":"Louis-Yvonne De Bruin"}],"paging":{"next":"https:\/\/graph.facebook.com\/2340238395492\/likes?access_token=AAACEdEose0cBAMYosNuQgnCMBhgO4meNR3qH1cjXNhenSu6GRD6HiTa20OCYdbn297Lf2pZALjodgovOYrfZB0K5KvL0ONYoSHKuOldxmnwN01tZBh8&limit=25&offset=25&__after_id=100001622693855"}}},{"id":"2340042990607","from":{"name":"Square Rootz","id":"1535893037"},"name":"Square Rootz Clothing Anniversary X PGH Networking Event pt. 3","location":"Downtown Miami","place":{"id":"109966029061566","name":"Downtown Miami","location":{"street":"301 North Biscayne Boulevard","city":"Miami","state":"FL","country":"United States","zip":"33132","latitude":25.776864516431,"longitude":-80.188684269902}},"link":"http:\/\/www.facebook.com\/album.php?fbid=2340042990607&id=1535893037&aid=133733","cover_photo":"2340043510620","count":179,"type":"normal","created_time":"2011-09-17T18:50:36+0000","updated_time":"2011-09-17T19:26:04+0000","can_upload":false,"likes":{"data":[{"id":"100001622693855","name":"Louis-Yvonne De Bruin"},{"id":"1306839724","name":"Jonathan Paul"}],"paging":{"next":"https:\/\/graph.facebook.com\/2340042990607\/likes?access_token=AAACEdEose0cBAMYosNuQgnCMBhgO4meNR3qH1cjXNhenSu6GRD6HiTa20OCYdbn297Lf2pZALjodgovOYrfZB0K5KvL0ONYoSHKuOldxmnwN01tZBh8&limit=25&offset=25&__after_id=1306839724"}}},{"id":"2339869786277","from":{"name":"Square Rootz","id":"1535893037"},"name":"Square Rootz Clothing Anniversary X PGH Networking Event pt. 2","location":"Downtown Miami","place":{"id":"109966029061566","name":"Downtown Miami","location":{"street":"301 North Biscayne Boulevard","city":"Miami","state":"FL","country":"United States","zip":"33132","latitude":25.776864516431,"longitude":-80.188684269902}},"link":"http:\/\/www.facebook.com\/album.php?fbid=2339869786277&id=1535893037&aid=133729","cover_photo":"2339870466294","count":195,"type":"normal","created_time":"2011-09-17T18:04:09+0000","updated_time":"2011-09-17T18:44:24+0000","can_upload":false},{"id":"2339751263314","from":{"name":"Square Rootz","id":"1535893037"},"name":"Square Rootz Clothing Anniversary X PGH Networking Event","location":"Downtown Miami","place":{"id":"109966029061566","name":"Downtown Miami","location":{"street":"301 North Biscayne Boulevard","city":"Miami","state":"FL","country":"United States","zip":"33132","latitude":25.776864516431,"longitude":-80.188684269902}},"link":"http:\/\/www.facebook.com\/album.php?fbid=2339751263314&id=1535893037&aid=133727","cover_photo":"2339751783327","count":200,"type":"normal","created_time":"2011-09-17T17:33:51+0000","updated_time":"2011-09-17T18:39:34+0000","can_upload":false},{"id":"2339614139886","from":{"name":"Square Rootz","id":"1535893037"},"name":"September 17, 2011","link":"http:\/\/www.facebook.com\/album.php?fbid=2339614139886&id=1535893037&aid=133720","cover_photo":"2339614699900","count":160,"type":"normal","created_time":"2011-09-17T17:01:13+0000","updated_time":"2011-09-17T17:22:56+0000","can_upload":false},{"id":"2339481136561","from":{"name":"Square Rootz","id":"1535893037"},"name":"Square Rootz Clothing Co \"The Lost Boys\" Photo Shoot","location":"Miami, Fl","link":"http:\/\/www.facebook.com\/album.php?fbid=2339481136561&id=1535893037&aid=133713","cover_photo":"2339481456569","count":198,"type":"normal","created_time":"2011-09-17T16:29:01+0000","updated_time":"2011-09-17T16:47:14+0000","can_upload":false,"likes":{"data":[{"id":"1306839724","name":"Jonathan Paul"}],"paging":{"next":"https:\/\/graph.facebook.com\/2339481136561\/likes?access_token=AAACEdEose0cBAMYosNuQgnCMBhgO4meNR3qH1cjXNhenSu6GRD6HiTa20OCYdbn297Lf2pZALjodgovOYrfZB0K5KvL0ONYoSHKuOldxmnwN01tZBh8&limit=25&offset=25&__after_id=1306839724"}}},{"id":"2339417654974","from":{"name":"Square Rootz","id":"1535893037"},"name":"Square Rootz Clothing Co Collages by Marilyn","location":"Miami, Fl","link":"http:\/\/www.facebook.com\/album.php?fbid=2339417654974&id=1535893037&aid=133710","cover_photo":"2339418855004","count":12,"type":"normal","created_time":"2011-09-17T16:09:39+0000","updated_time":"2011-09-17T16:10:31+0000","can_upload":false,"likes":{"data":[{"id":"501696391","name":"Kristin TennYuk"},{"id":"1534624506","name":"Marilyn Babs Barroso"}],"paging":{"next":"https:\/\/graph.facebook.com\/2339417654974\/likes?access_token=AAACEdEose0cBAMYosNuQgnCMBhgO4meNR3qH1cjXNhenSu6GRD6HiTa20OCYdbn297Lf2pZALjodgovOYrfZB0K5KvL0ONYoSHKuOldxmnwN01tZBh8&limit=25&offset=25&__after_id=1534624506"}}},{"id":"2326836060442","from":{"name":"Square Rootz","id":"1535893037"},"name":"Square Rootz Clothing x Royal Bartenders w\/ Project Hideaway!!!","location":"Hallendale, Fl","link":"http:\/\/www.facebook.com\/album.php?fbid=2326836060442&id=1535893037&aid=133380","cover_photo":"2326836260447","count":13,"type":"normal","created_time":"2011-09-14T01:12:43+0000","updated_time":"2011-09-14T01:18:09+0000","can_upload":false,"likes":{"data":[{"id":"1535893037","name":"Square Rootz"}],"paging":{"next":"https:\/\/graph.facebook.com\/2326836060442\/likes?access_token=AAACEdEose0cBAMYosNuQgnCMBhgO4meNR3qH1cjXNhenSu6GRD6HiTa20OCYdbn297Lf2pZALjodgovOYrfZB0K5KvL0ONYoSHKuOldxmnwN01tZBh8&limit=25&offset=25&__after_id=1535893037"}}},{"id":"2326825460177","from":{"name":"Square Rootz","id":"1535893037"},"name":"Square Rootz Clothing \"On Ice\" Photo Shoot w\/ Marilyn","location":"Miami, Fl","link":"http:\/\/www.facebook.com\/album.php?fbid=2326825460177&id=1535893037&aid=133379","cover_photo":"2326825820186","count":9,"type":"normal","created_time":"2011-09-14T01:08:02+0000","updated_time":"2011-09-14T01:10:33+0000","can_upload":false,"likes":{"data":[{"id":"1535893037","name":"Square Rootz"},{"id":"744848357","name":"Najee Forbes"},{"id":"736380360","name":"Tracy Bony"},{"id":"642161596","name":"JoJo Fabs"},{"id":"1534624506","name":"Marilyn Babs Barroso"}],"paging":{"next":"https:\/\/graph.facebook.com\/2326825460177\/likes?access_token=AAACEdEose0cBAMYosNuQgnCMBhgO4meNR3qH1cjXNhenSu6GRD6HiTa20OCYdbn297Lf2pZALjodgovOYrfZB0K5KvL0ONYoSHKuOldxmnwN01tZBh8&limit=25&offset=25&__after_id=1534624506"}}},{"id":"2252236795507","from":{"name":"Square Rootz","id":"1535893037"},"name":"Pretty Girl Hair X Square Rootz Clothing Collabo August 18, 2011","link":"http:\/\/www.facebook.com\/album.php?fbid=2252236795507&id=1535893037&aid=130458","cover_photo":"2252237035513","count":12,"type":"normal","created_time":"2011-08-18T23:16:48+0000","updated_time":"2011-08-18T23:20:49+0000","can_upload":false,"likes":{"data":[{"id":"744848357","name":"Najee Forbes"},{"id":"100001244248344","name":"Joey D Diaz"},{"id":"42405048","name":"Columba Ramirez"}],"paging":{"next":"https:\/\/graph.facebook.com\/2252236795507\/likes?access_token=AAACEdEose0cBAMYosNuQgnCMBhgO4meNR3qH1cjXNhenSu6GRD6HiTa20OCYdbn297Lf2pZALjodgovOYrfZB0K5KvL0ONYoSHKuOldxmnwN01tZBh8&limit=25&offset=25&__after_id=42405048"}}},{"id":"2231745243231","from":{"name":"Square Rootz","id":"1535893037"},"name":"Square Rootz Movement","link":"http:\/\/www.facebook.com\/album.php?fbid=2231745243231&id=1535893037&aid=129461","cover_photo":"2231745363234","count":2,"type":"normal","created_time":"2011-08-10T08:10:55+0000","updated_time":"2011-08-10T08:12:30+0000","can_upload":false,"likes":{"data":[{"id":"550517209","name":"Catiana Acevedo"}],"paging":{"next":"https:\/\/graph.facebook.com\/2231745243231\/likes?access_token=AAACEdEose0cBAMYosNuQgnCMBhgO4meNR3qH1cjXNhenSu6GRD6HiTa20OCYdbn297Lf2pZALjodgovOYrfZB0K5KvL0ONYoSHKuOldxmnwN01tZBh8&limit=25&offset=25&__after_id=550517209"}}},{"id":"2195653620963","from":{"name":"Square Rootz","id":"1535893037"},"name":"Square Rootz Clothing Co x Tropic Juices interview w\/ Weiyi Zhou","link":"http:\/\/www.facebook.com\/album.php?fbid=2195653620963&id=1535893037&aid=127732","cover_photo":"2195654380982","count":32,"type":"normal","created_time":"2011-07-25T17:20:30+0000","updated_time":"2011-07-25T17:24:05+0000","can_upload":false,"likes":{"data":[{"id":"760275248","name":"Lissa Lett's Law"},{"id":"540743247","name":"Weiyi Zhou"}],"paging":{"next":"https:\/\/graph.facebook.com\/2195653620963\/likes?access_token=AAACEdEose0cBAMYosNuQgnCMBhgO4meNR3qH1cjXNhenSu6GRD6HiTa20OCYdbn297Lf2pZALjodgovOYrfZB0K5KvL0ONYoSHKuOldxmnwN01tZBh8&limit=25&offset=25&__after_id=540743247"}}},{"id":"1761787374578","from":{"name":"Square Rootz","id":"1535893037"},"name":"Square Rootz Marketing Group Presents ::: THE GO HARD OR GO HOME FIFA 11' TOURNAMENT 1-15-11","location":"THE DORAL GAMING LOUNGE DORAL, FL","link":"http:\/\/www.facebook.com\/album.php?fbid=1761787374578&id=1535893037&aid=100571","cover_photo":"1761789054620","count":13,"type":"normal","created_time":"2011-01-18T05:14:12+0000","updated_time":"2011-01-18T05:18:18+0000","can_upload":false},{"id":"1662482372015","from":{"name":"Square Rootz","id":"1535893037"},"name":"Mobile Uploads","description":"Mobile Uploads","location":"US","link":"http:\/\/www.facebook.com\/album.php?fbid=1662482372015&id=1535893037&aid=91427","cover_photo":"1662482492018","count":3,"type":"normal","created_time":"2010-11-13T23:13:01+0000","updated_time":"2010-12-07T22:35:06+0000","can_upload":false},{"id":"1318751178950","from":{"name":"Square Rootz","id":"1535893037"},"name":"SQUARE ROOTZ CLOTHING CO. 2010 PROMO SHIRTS","description":"HERE ARE THE 2010 SPRING PROMO SHIRTS. THESE WILL AVAILABLE FOR MID FEBURARY IN ALL COLORS AND ALL SIZES...","location":"MIAMI\/JAPAN","link":"http:\/\/www.facebook.com\/album.php?fbid=1318751178950&id=1535893037&aid=46953","cover_photo":"1318751218951","count":2,"type":"normal","created_time":"2010-01-29T08:33:48+0000","updated_time":"2010-01-29T08:34:09+0000","can_upload":false},{"id":"1285990239947","from":{"name":"Square Rootz","id":"1535893037"},"name":"Square Rootz \u0040 WILLY CHIN'S BDAY BASH!!!","description":"THIS WAS A VERY SUCCESSFUL PARTY AND NETWORKING EVENT. THE SQUARE ROOTZ TEAM WAS ABLE TO PASS OUT SHIRTS AND SPREAD THE WORD ON OUR 2010 CAMPAIGN. ","location":"BAYSIDE HUT","link":"http:\/\/www.facebook.com\/album.php?fbid=1285990239947&id=1535893037&aid=43038","cover_photo":"1286008600406","count":7,"type":"normal","created_time":"2009-12-26T23:33:54+0000","updated_time":"2009-12-27T00:01:02+0000","can_upload":false},{"id":"1235986309880","from":{"name":"Square Rootz","id":"1535893037"},"name":"NEW SQUARE ROOTZ TEES","description":"MADDEN!!!","location":"Miami, FL","link":"http:\/\/www.facebook.com\/album.php?fbid=1235986309880&id=1535893037&aid=36836","cover_photo":"1235987789917","count":15,"type":"normal","created_time":"2009-10-27T17:38:54+0000","updated_time":"2009-10-27T17:40:13+0000","can_upload":false}],"paging":{"cursors":{"after":"MTIzNTk4NjMwOTg4MA==","before":"MzgxMjQ1MjU1OTkyNg=="}}}