{"data":[{"id":"103149426020","from":{"name":"Monica Suleski","id":"577221020"},"name":"Hot New Sculpture Art","description":"Beautiful conversation pieces all available at Eclectic Elements, eemiami.com","link":"http:\/\/www.facebook.com\/album.php?fbid=103149426020&id=577221020&aid=103439","cover_photo":"103150036020","count":5,"type":"normal","created_time":"2009-06-30T20:18:24+0000","updated_time":"2009-07-02T15:18:29+0000","can_upload":false,"comments":{"data":[{"id":"103149426020_2736029","from":{"name":"Alex Perez","id":"512424369"},"message":"Great Looking pieces","can_remove":false,"created_time":"2009-07-01T02:06:31+0000","like_count":0,"user_likes":false}],"paging":{"cursors":{"after":"MQ==","before":"MQ=="},"next":"https:\/\/graph.facebook.com\/103149426020\/comments?access_token=AAACEdEose0cBAMYosNuQgnCMBhgO4meNR3qH1cjXNhenSu6GRD6HiTa20OCYdbn297Lf2pZALjodgovOYrfZB0K5KvL0ONYoSHKuOldxmnwN01tZBh8&limit=25&after=MQ\u00253D\u00253D"}}},{"id":"102770051020","from":{"name":"Monica Suleski","id":"577221020"},"name":"Eclectic Elements - Outdoor Furniture & Accessories","location":"Venetian Isles","link":"http:\/\/www.facebook.com\/album.php?fbid=102770051020&id=577221020&aid=103195","cover_photo":"102770406020","count":11,"type":"normal","created_time":"2009-06-29T20:38:19+0000","updated_time":"2009-06-29T20:57:10+0000","can_upload":false,"likes":{"data":[{"id":"512600113","name":"Stuart Drossner"}],"paging":{"next":"https:\/\/graph.facebook.com\/102770051020\/likes?access_token=AAACEdEose0cBAMYosNuQgnCMBhgO4meNR3qH1cjXNhenSu6GRD6HiTa20OCYdbn297Lf2pZALjodgovOYrfZB0K5KvL0ONYoSHKuOldxmnwN01tZBh8&limit=25&offset=25&__after_id=512600113"}}},{"id":"100964226020","from":{"name":"Monica Suleski","id":"577221020"},"name":"What a Difference Accessories and Placement Make!","description":"Photos before and after.\nSame Eclectic Elements property!  Before photos are featured in a 10 page spread in Casa Dove Magazine. The redesign of this property has been featured on HGTV.\nCASA DOVE Link\nhttp:\/\/atcasa.corriere.it\/Le-case\/Mondovisione\/2009\/01\/21\/casa_hollywood.shtml\nHGTV Video Link","location":"Miami Beach Islands","link":"http:\/\/www.facebook.com\/album.php?fbid=100964226020&id=577221020&aid=102178","cover_photo":"100965191020","count":32,"type":"normal","created_time":"2009-06-24T18:27:18+0000","updated_time":"2009-06-24T20:44:55+0000","can_upload":false,"likes":{"data":[{"id":"577221020","name":"Monica Suleski"},{"id":"569913872","name":"Alberto Navarro"},{"id":"512600113","name":"Stuart Drossner"}],"paging":{"next":"https:\/\/graph.facebook.com\/100964226020\/likes?access_token=AAACEdEose0cBAMYosNuQgnCMBhgO4meNR3qH1cjXNhenSu6GRD6HiTa20OCYdbn297Lf2pZALjodgovOYrfZB0K5KvL0ONYoSHKuOldxmnwN01tZBh8&limit=25&offset=25&__after_id=512600113"}}},{"id":"100580806020","from":{"name":"Monica Suleski","id":"577221020"},"name":"12 Hour Renovation - Blank canvas into Zen Palace","description":"Makeover of a glass 9,000sqft. WATER FRONT ESTATE  into a Zen design inspired by the Mandarin Oriental.","location":"Venetian Isles","link":"http:\/\/www.facebook.com\/album.php?fbid=100580806020&id=577221020&aid=101979","cover_photo":"100581326020","count":15,"type":"normal","created_time":"2009-06-23T18:14:42+0000","updated_time":"2009-06-24T20:43:38+0000","can_upload":false},{"id":"98498926020","from":{"name":"Monica Suleski","id":"577221020"},"name":"12 Hour Renovation - Blank canvas into Eclectic Modernism","description":"Before and After photos of a 9,000sqft. WATER FRONT ESTATE transformed into Eclectic Hollywood Modernism.\nIf you want to bring life into your interiors call Monica at Eclectic Elements Furniture, Art and Design Gallery 305-773-7467","location":"VENETIAN ISLES","link":"http:\/\/www.facebook.com\/album.php?fbid=98498926020&id=577221020&aid=100857","cover_photo":"98501381020","count":28,"type":"normal","created_time":"2009-06-17T22:56:02+0000","updated_time":"2009-06-24T16:05:50+0000","can_upload":false,"comments":{"data":[{"id":"98498926020_2593221","from":{"name":"Alberto Navarro","id":"569913872"},"message":"Hi Monica, love your house!","can_remove":false,"created_time":"2009-06-24T15:57:53+0000","like_count":0,"user_likes":false}],"paging":{"cursors":{"after":"MQ==","before":"MQ=="},"next":"https:\/\/graph.facebook.com\/98498926020\/comments?access_token=AAACEdEose0cBAMYosNuQgnCMBhgO4meNR3qH1cjXNhenSu6GRD6HiTa20OCYdbn297Lf2pZALjodgovOYrfZB0K5KvL0ONYoSHKuOldxmnwN01tZBh8&limit=25&after=MQ\u00253D\u00253D"}}}],"paging":{"cursors":{"after":"OTg0OTg5MjYwMjA=","before":"MTAzMTQ5NDI2MDIw"},"previous":"https:\/\/graph.facebook.com\/577221020\/albums?limit=500&access_token=AAACEdEose0cBAMYosNuQgnCMBhgO4meNR3qH1cjXNhenSu6GRD6HiTa20OCYdbn297Lf2pZALjodgovOYrfZB0K5KvL0ONYoSHKuOldxmnwN01tZBh8&before=MTAzMTQ5NDI2MDIw"}}