{"data":[{"id":"439046734638","from":{"name":"Lindsey Bellinger","id":"622969638"},"name":"Profile Pictures","link":"http:\/\/www.facebook.com\/album.php?fbid=439046734638&id=622969638&aid=219115","cover_photo":"10151369636174639","count":34,"type":"profile","created_time":"2010-10-06T22:07:52+0000","updated_time":"2013-03-21T15:24:20+0000","can_upload":false},{"id":"10150960858724639","from":{"name":"Lindsey Bellinger","id":"622969638"},"name":"podcast stats","link":"http:\/\/www.facebook.com\/album.php?fbid=10150960858724639&id=622969638&aid=418191","cover_photo":"10150960861819639","count":7,"type":"normal","created_time":"2012-07-19T17:44:39+0000","updated_time":"2013-02-26T02:08:52+0000","can_upload":false,"likes":{"data":[{"id":"100003941415865","name":"Will Johnson"},{"id":"100000296168271","name":"Landress Hall"}],"paging":{"next":"https:\/\/graph.facebook.com\/10150960858724639\/likes?access_token=AAACEdEose0cBAJwErCNmIPZA6el8rxxyY5ULyI6xBIzYxuyekLKT4jiLPBr1teydoTPlSXlbBEkmB07tIO62Pi4QqIsy3oMtz1ihC5OyZAvdarWSZBe&limit=25&offset=25&__after_id=100000296168271"}}},{"id":"10151173666789639","from":{"name":"Lindsey Bellinger","id":"622969638"},"name":"iOS Photos","description":"WAREHOUSE FOR WMC AND MY NEW RESIDENCY EVER SUNDAY!!!","link":"http:\/\/www.facebook.com\/album.php?fbid=10151173666789639&id=622969638&aid=448585","cover_photo":"10151327417924639","count":36,"type":"app","created_time":"2012-12-02T14:15:32+0000","updated_time":"2013-02-26T02:08:52+0000","can_upload":false,"likes":{"data":[{"id":"1708791275","name":"Jason Burnett"},{"id":"100000863372809","name":"Megan Wimer"}],"paging":{"next":"https:\/\/graph.facebook.com\/10151173666789639\/likes?access_token=AAACEdEose0cBAJwErCNmIPZA6el8rxxyY5ULyI6xBIzYxuyekLKT4jiLPBr1teydoTPlSXlbBEkmB07tIO62Pi4QqIsy3oMtz1ihC5OyZAvdarWSZBe&limit=25&offset=25&__after_id=100000863372809"}},"comments":{"data":[{"id":"10151173666789639_25379734","from":{"name":"Sean Augustine","id":"1021221697"},"message":"Very nice.   Will be an awesome event for sure.","can_remove":false,"created_time":"2013-02-26T02:28:30+0000","like_count":0,"user_likes":false}],"paging":{"next":"https:\/\/graph.facebook.com\/10151173666789639\/comments?access_token=AAACEdEose0cBAJwErCNmIPZA6el8rxxyY5ULyI6xBIzYxuyekLKT4jiLPBr1teydoTPlSXlbBEkmB07tIO62Pi4QqIsy3oMtz1ihC5OyZAvdarWSZBe&limit=25&offset=25&__after_id=10151173666789639_25379734"}}},{"id":"10151314127014639","from":{"name":"Lindsey Bellinger","id":"622969638"},"name":"Webcam Toy photos","description":"My photos from Webcam Toy http:\/\/webcamtoy.com\/","link":"http:\/\/www.facebook.com\/album.php?fbid=10151314127014639&id=622969638&aid=462421","cover_photo":"10151314131044639","count":6,"type":"normal","created_time":"2013-02-17T10:13:11+0000","updated_time":"2013-02-26T05:34:03+0000","can_upload":false,"likes":{"data":[{"id":"100001355941566","name":"Chelsea Chambers"},{"id":"1572937307","name":"Yaya Pino"},{"id":"100000475759635","name":"Yvette Vallejo"},{"id":"100001196889610","name":"Benlyd Colon-Norris"},{"id":"100000442583677","name":"Joyeria Bias"},{"id":"1332055437","name":"John Alfonso"},{"id":"1468418294","name":"Chris Sanchez"}],"paging":{"next":"https:\/\/graph.facebook.com\/10151314127014639\/likes?access_token=AAACEdEose0cBAJwErCNmIPZA6el8rxxyY5ULyI6xBIzYxuyekLKT4jiLPBr1teydoTPlSXlbBEkmB07tIO62Pi4QqIsy3oMtz1ihC5OyZAvdarWSZBe&limit=25&offset=25&__after_id=1468418294"}},"comments":{"data":[{"id":"10151314127014639_25295950","from":{"name":"Jennifer Drahan","id":"637448796"},"message":"You look great!","can_remove":false,"created_time":"2013-02-17T11:36:04+0000","like_count":0,"user_likes":false}],"paging":{"next":"https:\/\/graph.facebook.com\/10151314127014639\/comments?access_token=AAACEdEose0cBAJwErCNmIPZA6el8rxxyY5ULyI6xBIzYxuyekLKT4jiLPBr1teydoTPlSXlbBEkmB07tIO62Pi4QqIsy3oMtz1ihC5OyZAvdarWSZBe&limit=25&offset=25&__after_id=10151314127014639_25295950"}}},{"id":"10151129422839639","from":{"name":"Lindsey Bellinger","id":"622969638"},"name":"Instagram Photos","link":"http:\/\/www.facebook.com\/album.php?fbid=10151129422839639&id=622969638&aid=442342","cover_photo":"10151129422849639","count":1,"type":"app","created_time":"2012-10-29T20:42:09+0000","updated_time":"2012-10-29T20:42:11+0000","can_upload":false,"likes":{"data":[{"id":"100001033922779","name":"Dar Sotomayor"}],"paging":{"next":"https:\/\/graph.facebook.com\/10151129422839639\/likes?access_token=AAACEdEose0cBAJwErCNmIPZA6el8rxxyY5ULyI6xBIzYxuyekLKT4jiLPBr1teydoTPlSXlbBEkmB07tIO62Pi4QqIsy3oMtz1ihC5OyZAvdarWSZBe&limit=25&offset=25&__after_id=100001033922779"}}},{"id":"10150579434689639","from":{"name":"Lindsey Bellinger","id":"622969638"},"name":"Cover Photos","link":"http:\/\/www.facebook.com\/album.php?fbid=10150579434689639&id=622969638&aid=381705","cover_photo":"10150995462959639","count":4,"type":"normal","created_time":"2012-02-24T09:16:19+0000","updated_time":"2012-08-05T17:01:17+0000","can_upload":false},{"id":"10150994689889639","from":{"name":"Lindsey Bellinger","id":"622969638"},"name":"new dj pics for promo","link":"http:\/\/www.facebook.com\/album.php?fbid=10150994689889639&id=622969638&aid=421701","cover_photo":"10150994689914639","count":6,"type":"normal","created_time":"2012-08-05T07:52:30+0000","updated_time":"2012-08-05T15:56:51+0000","can_upload":false},{"id":"109117139638","from":{"name":"Lindsey Bellinger","id":"622969638"},"name":"Timeline Photos","description":"Rankings\n\n50 podcasts in the top 500 of all of the podcast in the whole website, that climbed the most number of spots overall on May 10, 2012 get selected for this prestigious list","link":"http:\/\/www.facebook.com\/album.php?fbid=109117139638&id=622969638&aid=95801","cover_photo":"10150971751114639","count":23,"type":"wall","created_time":"2009-07-28T04:33:23+0000","updated_time":"2012-07-25T00:33:11+0000","can_upload":false},{"id":"10150771591669639","from":{"name":"Lindsey Bellinger","id":"622969638"},"name":"May 6, 2012","link":"http:\/\/www.facebook.com\/album.php?fbid=10150771591669639&id=622969638&aid=401934","cover_photo":"10150771591754639","count":1,"type":"normal","created_time":"2012-05-07T03:48:18+0000","updated_time":"2012-05-08T02:22:09+0000","can_upload":false,"likes":{"data":[{"id":"100000863372809","name":"Megan Wimer"}],"paging":{"next":"https:\/\/graph.facebook.com\/10150771591669639\/likes?access_token=AAACEdEose0cBAJwErCNmIPZA6el8rxxyY5ULyI6xBIzYxuyekLKT4jiLPBr1teydoTPlSXlbBEkmB07tIO62Pi4QqIsy3oMtz1ihC5OyZAvdarWSZBe&limit=25&offset=25&__after_id=100000863372809"}},"comments":{"data":[{"id":"10150771591669639_22179344","from":{"name":"Megan Wimer","id":"100000863372809"},"message":"You really are sticking with this and your heart is really into it.Im really proud of you","can_remove":false,"created_time":"2012-05-07T11:53:44+0000","like_count":0,"user_likes":false}],"paging":{"next":"https:\/\/graph.facebook.com\/10150771591669639\/comments?access_token=AAACEdEose0cBAJwErCNmIPZA6el8rxxyY5ULyI6xBIzYxuyekLKT4jiLPBr1teydoTPlSXlbBEkmB07tIO62Pi4QqIsy3oMtz1ihC5OyZAvdarWSZBe&limit=25&offset=25&__after_id=10150771591669639_22179344"}}},{"id":"10150588665269639","from":{"name":"Lindsey Bellinger","id":"622969638"},"name":"Feb 29, 2012","link":"http:\/\/www.facebook.com\/album.php?fbid=10150588665269639&id=622969638&aid=383207","cover_photo":"10150588665484639","count":1,"type":"normal","created_time":"2012-02-29T11:39:57+0000","updated_time":"2012-02-29T11:43:10+0000","can_upload":false},{"id":"10150588664559639","from":{"name":"Lindsey Bellinger","id":"622969638"},"name":"Feb 29, 2012","link":"http:\/\/www.facebook.com\/album.php?fbid=10150588664559639&id=622969638&aid=383206","cover_photo":"10150588664569639","count":1,"type":"normal","created_time":"2012-02-29T11:39:09+0000","updated_time":"2012-02-29T11:39:13+0000","can_upload":false},{"id":"10150532571309639","from":{"name":"Lindsey Bellinger","id":"622969638"},"name":"Mobile Uploads","link":"http:\/\/www.facebook.com\/album.php?fbid=10150532571309639&id=622969638&aid=376072","cover_photo":"10150567925949639","count":1,"type":"mobile","created_time":"2012-02-04T04:51:50+0000","updated_time":"2012-02-29T11:45:06+0000","can_upload":false},{"id":"10150189847694639","from":{"name":"Lindsey Bellinger","id":"622969638"},"name":"May 22, 2011","location":"Mekka Miami","place":{"id":"144852598880645","name":"Mekka Nightclub","location":{"street":"950 NE 2ND AVE","city":"Miami","state":"FL","country":"United States","zip":"33132","latitude":25.783170413711,"longitude":-80.190834030481}},"link":"http:\/\/www.facebook.com\/album.php?fbid=10150189847694639&id=622969638&aid=308089","cover_photo":"10150189847734639","count":3,"type":"normal","created_time":"2011-05-22T12:36:01+0000","updated_time":"2011-12-21T20:40:19+0000","can_upload":false},{"id":"10150106659604639","from":{"name":"Lindsey Bellinger","id":"622969638"},"name":"944 Events","link":"http:\/\/www.facebook.com\/album.php?fbid=10150106659604639&id=622969638&aid=278726","cover_photo":"10150106659609639","count":1,"type":"normal","created_time":"2011-03-09T18:24:03+0000","updated_time":"2012-04-03T10:17:51+0000","can_upload":false},{"id":"466888454638","from":{"name":"Lindsey Bellinger","id":"622969638"},"name":"don lounge viva house","link":"http:\/\/www.facebook.com\/album.php?fbid=466888454638&id=622969638&aid=249410","cover_photo":"466888464638","count":26,"type":"normal","created_time":"2010-12-03T01:58:07+0000","updated_time":"2010-12-06T14:42:59+0000","can_upload":false,"likes":{"data":[{"id":"575882133","name":"Brad Jacobson"}],"paging":{"next":"https:\/\/graph.facebook.com\/466888454638\/likes?access_token=AAACEdEose0cBAJwErCNmIPZA6el8rxxyY5ULyI6xBIzYxuyekLKT4jiLPBr1teydoTPlSXlbBEkmB07tIO62Pi4QqIsy3oMtz1ihC5OyZAvdarWSZBe&limit=25&offset=25&__after_id=575882133"}},"comments":{"data":[{"id":"466888454638_14290276","from":{"name":"Sam Samba","id":"100000536564484"},"message":"Cool... great picture..","can_remove":false,"created_time":"2010-12-03T02:06:22+0000","like_count":0,"user_likes":false}],"paging":{"next":"https:\/\/graph.facebook.com\/466888454638\/comments?access_token=AAACEdEose0cBAJwErCNmIPZA6el8rxxyY5ULyI6xBIzYxuyekLKT4jiLPBr1teydoTPlSXlbBEkmB07tIO62Pi4QqIsy3oMtz1ihC5OyZAvdarWSZBe&limit=25&offset=25&__after_id=466888454638_14290276"}}},{"id":"452833869638","from":{"name":"Lindsey Bellinger","id":"622969638"},"name":"sarah pics","link":"http:\/\/www.facebook.com\/album.php?fbid=452833869638&id=622969638&aid=243017","type":"normal","created_time":"2010-11-07T07:04:44+0000","updated_time":"2012-12-30T16:06:35+0000","can_upload":false},{"id":"441975369638","from":{"name":"Lindsey Bellinger","id":"622969638"},"name":"Djing at my house","link":"http:\/\/www.facebook.com\/album.php?fbid=441975369638&id=622969638&aid=236549","cover_photo":"441975609638","count":15,"type":"normal","created_time":"2010-10-14T07:05:50+0000","updated_time":"2010-10-29T23:58:20+0000","can_upload":false,"likes":{"data":[{"id":"514788818","name":"Reggie Damus"}],"paging":{"next":"https:\/\/graph.facebook.com\/441975369638\/likes?access_token=AAACEdEose0cBAJwErCNmIPZA6el8rxxyY5ULyI6xBIzYxuyekLKT4jiLPBr1teydoTPlSXlbBEkmB07tIO62Pi4QqIsy3oMtz1ihC5OyZAvdarWSZBe&limit=25&offset=25&__after_id=514788818"}},"comments":{"data":[{"id":"441975369638_13930277","from":{"name":"Joyeria Bias","id":"100000442583677"},"message":"I like this!!!","can_remove":false,"created_time":"2010-10-14T21:00:53+0000","like_count":0,"user_likes":false}],"paging":{"next":"https:\/\/graph.facebook.com\/441975369638\/comments?access_token=AAACEdEose0cBAJwErCNmIPZA6el8rxxyY5ULyI6xBIzYxuyekLKT4jiLPBr1teydoTPlSXlbBEkmB07tIO62Pi4QqIsy3oMtz1ihC5OyZAvdarWSZBe&limit=25&offset=25&__after_id=441975369638_13930277"}}},{"id":"448854279638","from":{"name":"Lindsey Bellinger","id":"622969638"},"name":"Lindsey Flyers","link":"http:\/\/www.facebook.com\/album.php?fbid=448854279638&id=622969638&aid=240418","cover_photo":"448854329638","count":2,"type":"normal","created_time":"2010-10-29T20:58:04+0000","updated_time":"2010-10-29T23:55:42+0000","can_upload":false,"comments":{"data":[{"id":"448854279638_14036647","from":{"name":"Rodrigo Ottoni","id":"100001085026860"},"message":":)","can_remove":false,"created_time":"2010-10-29T21:01:09+0000","like_count":0,"user_likes":false},{"id":"448854279638_14036699","from":{"name":"Reggie Damus","id":"514788818"},"message":"HOW COME IM NOT INVITED","can_remove":false,"created_time":"2010-10-29T21:10:54+0000","like_count":0,"user_likes":false},{"id":"448854279638_14036774","from":{"name":"Lindsey Bellinger","id":"622969638"},"message":"you are!","can_remove":false,"created_time":"2010-10-29T21:22:34+0000","like_count":0,"user_likes":false}],"paging":{"next":"https:\/\/graph.facebook.com\/448854279638\/comments?access_token=AAACEdEose0cBAJwErCNmIPZA6el8rxxyY5ULyI6xBIzYxuyekLKT4jiLPBr1teydoTPlSXlbBEkmB07tIO62Pi4QqIsy3oMtz1ihC5OyZAvdarWSZBe&limit=25&offset=25&__after_id=448854279638_14036774"}}},{"id":"448061889638","from":{"name":"Lindsey Bellinger","id":"622969638"},"name":"Randy and Lindsey STEELERS VS DOLPHINS","link":"http:\/\/www.facebook.com\/album.php?fbid=448061889638&id=622969638&aid=239990","cover_photo":"448061899638","count":56,"type":"normal","created_time":"2010-10-28T00:17:40+0000","updated_time":"2010-10-28T00:20:44+0000","can_upload":false,"likes":{"data":[{"id":"100000123117022","name":"Sarol Finney"}],"paging":{"next":"https:\/\/graph.facebook.com\/448061889638\/likes?access_token=AAACEdEose0cBAJwErCNmIPZA6el8rxxyY5ULyI6xBIzYxuyekLKT4jiLPBr1teydoTPlSXlbBEkmB07tIO62Pi4QqIsy3oMtz1ihC5OyZAvdarWSZBe&limit=25&offset=25&__after_id=100000123117022"}}},{"id":"442098414638","from":{"name":"Lindsey Bellinger","id":"622969638"},"name":"Oct 10, 2010","link":"http:\/\/www.facebook.com\/album.php?fbid=442098414638&id=622969638&aid=236607","cover_photo":"442099229638","count":2,"type":"normal","created_time":"2010-10-14T16:08:15+0000","updated_time":"2010-10-15T03:03:45+0000","can_upload":false},{"id":"441973814638","from":{"name":"Lindsey Bellinger","id":"622969638"},"name":"Oct 10, 2010","link":"http:\/\/www.facebook.com\/album.php?fbid=441973814638&id=622969638&aid=236546","cover_photo":"441973819638","count":1,"type":"normal","created_time":"2010-10-14T07:00:11+0000","updated_time":"2010-10-14T07:00:11+0000","can_upload":false},{"id":"434693554638","from":{"name":"Lindsey Bellinger","id":"622969638"},"name":"photo shoot by krista miller","link":"http:\/\/www.facebook.com\/album.php?fbid=434693554638&id=622969638&aid=207456","cover_photo":"434765034638","count":89,"type":"normal","created_time":"2010-09-25T13:16:21+0000","updated_time":"2010-09-25T17:45:50+0000","can_upload":false,"likes":{"data":[{"id":"1244465766","name":"Rik Santiago"},{"id":"1807509005","name":"Bradly Scott"}],"paging":{"next":"https:\/\/graph.facebook.com\/434693554638\/likes?access_token=AAACEdEose0cBAJwErCNmIPZA6el8rxxyY5ULyI6xBIzYxuyekLKT4jiLPBr1teydoTPlSXlbBEkmB07tIO62Pi4QqIsy3oMtz1ihC5OyZAvdarWSZBe&limit=25&offset=25&__after_id=1807509005"}}},{"id":"404932289638","from":{"name":"Lindsey Bellinger","id":"622969638"},"name":"new pics JUNE","location":"Houston, Texas","place":{"id":"115963528414384","name":"Houston, Texas","location":{"street":"","zip":"","latitude":29.7629,"longitude":-95.3832}},"link":"http:\/\/www.facebook.com\/album.php?fbid=404932289638&id=622969638&aid=179788","cover_photo":"404932394638","count":68,"type":"normal","created_time":"2010-06-28T11:13:13+0000","updated_time":"2011-12-21T20:40:22+0000","can_upload":false},{"id":"113627329638","from":{"name":"Lindsey Bellinger","id":"622969638"},"name":"RANDOM PARTY PICS","description":"VARIOUS PICS FROM LAST TWO YEARS","location":"MIAMI FLORIDA","link":"http:\/\/www.facebook.com\/album.php?fbid=113627329638&id=622969638&aid=98198","cover_photo":"260264609638","count":97,"type":"normal","created_time":"2009-08-07T02:25:14+0000","updated_time":"2010-09-11T22:07:50+0000","can_upload":false},{"id":"113560419638","from":{"name":"Lindsey Bellinger","id":"622969638"},"name":"MIAMI PARTY PICS","description":"THE GOOD OLE DAYS","location":"MIAMI FL","link":"http:\/\/www.facebook.com\/album.php?fbid=113560419638&id=622969638&aid=98168","cover_photo":"113561219638","count":109,"type":"normal","created_time":"2009-08-06T23:05:27+0000","updated_time":"2010-06-28T12:02:44+0000","can_upload":false}],"paging":{"cursors":{"after":"MTEzNTYwNDE5NjM4","before":"NDM5MDQ2NzM0NjM4"},"next":"https:\/\/graph.facebook.com\/622969638\/albums?access_token=AAACEdEose0cBAJwErCNmIPZA6el8rxxyY5ULyI6xBIzYxuyekLKT4jiLPBr1teydoTPlSXlbBEkmB07tIO62Pi4QqIsy3oMtz1ihC5OyZAvdarWSZBe&limit=25&after=MTEzNTYwNDE5NjM4"}}