{"data":[{"id":"498553392520","from":{"name":"Masha Gladushevskaya","id":"745532520"},"name":"Mobile Uploads","link":"http:\/\/www.facebook.com\/album.php?fbid=498553392520&id=745532520&aid=272729","cover_photo":"10151521099137521","count":122,"type":"mobile","created_time":"2010-12-27T18:17:28+0000","updated_time":"2013-04-06T21:43:40+0000","can_upload":false},{"id":"454690287520","from":{"name":"Masha Gladushevskaya","id":"745532520"},"name":"Profile Pictures","link":"http:\/\/www.facebook.com\/album.php?fbid=454690287520&id=745532520&aid=235293","cover_photo":"10151343740612521","count":30,"type":"profile","created_time":"2010-09-29T05:33:38+0000","updated_time":"2013-01-14T03:50:09+0000","can_upload":false},{"id":"10150232971142521","from":{"name":"Masha Gladushevskaya","id":"745532520"},"name":"Timeline Photos","description":"Celebrity Basketball Game - hosted by Dwyane Wade Sr. & Jr. on June 16, 2012","link":"http:\/\/www.facebook.com\/album.php?fbid=10150232971142521&id=745532520&aid=337242","cover_photo":"10151224456772521","count":9,"type":"wall","created_time":"2011-06-17T16:23:50+0000","updated_time":"2012-10-31T14:48:13+0000","can_upload":false},{"id":"10150973527837521","from":{"name":"Masha Gladushevskaya","id":"745532520"},"name":"Untitled Album","description":"Celebrity Basketball Game - hosted by Dwyane Wade Sr. & Jr. on June 16, 2012","link":"http:\/\/www.facebook.com\/album.php?fbid=10150973527837521&id=745532520&aid=444006","cover_photo":"10150973527947521","count":13,"type":"normal","created_time":"2012-06-18T21:26:31+0000","updated_time":"2012-06-18T21:44:07+0000","can_upload":false,"likes":{"data":[{"id":"773745098","name":"Leuz Kahn"},{"id":"100001453613502","name":"Sergio Ramirez"}],"paging":{"next":"https:\/\/graph.facebook.com\/10150973527837521\/likes?access_token=AAACEdEose0cBAMYosNuQgnCMBhgO4meNR3qH1cjXNhenSu6GRD6HiTa20OCYdbn297Lf2pZALjodgovOYrfZB0K5KvL0ONYoSHKuOldxmnwN01tZBh8&limit=25&offset=25&__after_id=100001453613502"}},"comments":{"data":[{"id":"10150973527837521_22701973","from":{"name":"Leuz Kahn","id":"773745098"},"message":"u are a very beautiful woman I kiff serious","can_remove":false,"created_time":"2012-06-19T14:52:05+0000","like_count":1,"user_likes":false},{"id":"10150973527837521_22704720","from":{"name":"Masha Gladushevskaya","id":"745532520"},"message":"Thank you","can_remove":false,"created_time":"2012-06-19T18:53:16+0000","like_count":1,"user_likes":false}],"paging":{"cursors":{"after":"Mg==","before":"MQ=="},"next":"https:\/\/graph.facebook.com\/10150973527837521\/comments?access_token=AAACEdEose0cBAMYosNuQgnCMBhgO4meNR3qH1cjXNhenSu6GRD6HiTa20OCYdbn297Lf2pZALjodgovOYrfZB0K5KvL0ONYoSHKuOldxmnwN01tZBh8&limit=25&after=Mg\u00253D\u00253D"}}},{"id":"10150876792102521","from":{"name":"Masha Gladushevskaya","id":"745532520"},"name":"Cover Photos","link":"http:\/\/www.facebook.com\/album.php?fbid=10150876792102521&id=745532520&aid=433250","cover_photo":"10150876792117521","count":1,"type":"normal","created_time":"2012-05-10T01:21:33+0000","updated_time":"2012-05-10T01:21:35+0000","can_upload":false},{"id":"10150238157082521","from":{"name":"Masha Gladushevskaya","id":"745532520"},"name":"Pool Party \u0040Club 50 - 6\/19\/11","link":"http:\/\/www.facebook.com\/album.php?fbid=10150238157082521&id=745532520&aid=339150","cover_photo":"10150238157277521","count":17,"type":"normal","created_time":"2011-06-23T15:46:48+0000","updated_time":"2011-09-10T05:03:40+0000","can_upload":false,"likes":{"data":[{"id":"773745098","name":"Leuz Kahn"}],"paging":{"next":"https:\/\/graph.facebook.com\/10150238157082521\/likes?access_token=AAACEdEose0cBAMYosNuQgnCMBhgO4meNR3qH1cjXNhenSu6GRD6HiTa20OCYdbn297Lf2pZALjodgovOYrfZB0K5KvL0ONYoSHKuOldxmnwN01tZBh8&limit=25&offset=25&__after_id=773745098"}}},{"id":"10150232972127521","from":{"name":"Masha Gladushevskaya","id":"745532520"},"name":"My 25th B-day!","link":"http:\/\/www.facebook.com\/album.php?fbid=10150232972127521&id=745532520&aid=337243","cover_photo":"10150233001957521","count":44,"type":"normal","created_time":"2011-06-17T16:24:58+0000","updated_time":"2011-09-10T05:05:49+0000","can_upload":false,"likes":{"data":[{"id":"1222151888","name":"Valerie Bondarevsky"}],"paging":{"next":"https:\/\/graph.facebook.com\/10150232972127521\/likes?access_token=AAACEdEose0cBAMYosNuQgnCMBhgO4meNR3qH1cjXNhenSu6GRD6HiTa20OCYdbn297Lf2pZALjodgovOYrfZB0K5KvL0ONYoSHKuOldxmnwN01tZBh8&limit=25&offset=25&__after_id=1222151888"}}},{"id":"41564307520","from":{"name":"Masha Gladushevskaya","id":"745532520"},"name":"ME & My...","link":"http:\/\/www.facebook.com\/album.php?fbid=41564307520&id=745532520&aid=35981","cover_photo":"433201982520","count":28,"type":"normal","created_time":"2008-10-01T15:31:34+0000","updated_time":"2011-01-14T21:34:41+0000","can_upload":false,"likes":{"data":[{"id":"1603385091","name":"Natalia Podolyak"}],"paging":{"next":"https:\/\/graph.facebook.com\/41564307520\/likes?access_token=AAACEdEose0cBAMYosNuQgnCMBhgO4meNR3qH1cjXNhenSu6GRD6HiTa20OCYdbn297Lf2pZALjodgovOYrfZB0K5KvL0ONYoSHKuOldxmnwN01tZBh8&limit=25&offset=25&__after_id=1603385091"}}},{"id":"10150096057637521","from":{"name":"Masha Gladushevskaya","id":"745532520"},"name":"Cool Pix","link":"http:\/\/www.facebook.com\/album.php?fbid=10150096057637521&id=745532520&aid=279404","cover_photo":"10150096057677521","count":1,"type":"normal","created_time":"2011-01-14T19:27:46+0000","updated_time":"2011-01-14T19:28:45+0000","can_upload":false},{"id":"195992332520","from":{"name":"Masha Gladushevskaya","id":"745532520"},"name":"YA","description":"Photoshoots","location":"Miami, FL","link":"http:\/\/www.facebook.com\/album.php?fbid=195992332520&id=745532520&aid=126182","cover_photo":"195993072520","count":19,"type":"normal","created_time":"2009-11-20T07:38:34+0000","updated_time":"2010-01-31T09:27:33+0000","can_upload":false,"likes":{"data":[{"id":"100000882692759","name":"Tamara Villalobos"}],"paging":{"next":"https:\/\/graph.facebook.com\/195992332520\/likes?access_token=AAACEdEose0cBAMYosNuQgnCMBhgO4meNR3qH1cjXNhenSu6GRD6HiTa20OCYdbn297Lf2pZALjodgovOYrfZB0K5KvL0ONYoSHKuOldxmnwN01tZBh8&limit=25&offset=25&__after_id=100000882692759"}},"comments":{"data":[{"id":"195992332520_10595965","from":{"name":"Enzo Fabian Freire","id":"1564492145"},"message":"nice pics","can_remove":false,"created_time":"2010-02-02T21:17:05+0000","like_count":0,"user_likes":false}],"paging":{"cursors":{"after":"MQ==","before":"MQ=="},"next":"https:\/\/graph.facebook.com\/195992332520\/comments?access_token=AAACEdEose0cBAMYosNuQgnCMBhgO4meNR3qH1cjXNhenSu6GRD6HiTa20OCYdbn297Lf2pZALjodgovOYrfZB0K5KvL0ONYoSHKuOldxmnwN01tZBh8&limit=25&after=MQ\u00253D\u00253D"}}}],"paging":{"cursors":{"after":"MTk1OTkyMzMyNTIw","before":"NDk4NTUzMzkyNTIw"}}}